fixtures/open-core/protocol/uart/generated/uart_parity.vcd
$timescale 1ns $end
$scope module tb $end
$var wire 1 ! tx $end
$var wire 1 " rx $end
$upscope $end
$enddefinitions $end
$dumpvars
1!
1"
$end
#1000
0!
#2000
1!
#3000
0!
#8000
1!
#9000
0!
#11000
1!
#16000
0!
#18000
1!
#19000
0!
#23000
1!
#24000
0!
#25000
1!
