fixtures/open-core/stage/boards/de10_lite/de10_lite_demo_per_bit.vcd
$date
  2026-06-07T00:00:00.000Z
$end
$version
  WaveCrux board demo fixture generator
$end
$comment
  Terasic DE10-Lite out-of-box demo — individual per-bit signals.
  LED show: cylon / VU bar / chase / switch-mirror / expand / sparkle.
  Seven-seg: decoded readout — counter / accelerometer axes (all digits live). Buttons: staggered presses.
  Re-generate with `dart run tool/generate_board_demo_fixtures.dart`.
$end
$timescale 1 ns $end
$scope module top $end
$var wire 1 ! ledr0 $end
$var wire 1 " ledr1 $end
$var wire 1 # ledr2 $end
$var wire 1 $ ledr3 $end
$var wire 1 % ledr4 $end
$var wire 1 & ledr5 $end
$var wire 1 ' ledr6 $end
$var wire 1 ( ledr7 $end
$var wire 1 ) ledr8 $end
$var wire 1 * ledr9 $end
$var wire 1 + sw0 $end
$var wire 1 , sw1 $end
$var wire 1 - sw2 $end
$var wire 1 . sw3 $end
$var wire 1 / sw4 $end
$var wire 1 0 sw5 $end
$var wire 1 1 sw6 $end
$var wire 1 2 sw7 $end
$var wire 1 3 sw8 $end
$var wire 1 4 sw9 $end
$var wire 1 5 key0 $end
$var wire 1 6 key1 $end
$var wire 4 7 hex0 $end
$var wire 4 8 hex1 $end
$var wire 4 9 hex2 $end
$var wire 4 : hex3 $end
$var wire 4 ; hex4 $end
$var wire 4 < hex5 $end
$upscope $end
$enddefinitions $end
#0
$dumpvars
1!
0"
0#
0$
0%
0&
0'
0(
0)
0*
0+
0,
0-
0.
0/
00
01
02
03
04
05
06
b1000 7
b11 8
b100 9
b100 :
b0 ;
b0 <
$end
#40
b1011 7
b110 9
b11 ;
#80
b1111 7
b1001 9
b110 ;
#120
b11 7
b100 8
b1011 9
b1001 ;
#160
0!
1"
b110 7
b1101 9
b1100 ;
#200
b1010 7
b1111 9
b1111 ;
#240
b1110 7
b10 9
b101 :
b1 ;
b1 <
#280
b10 7
b101 8
b100 9
b100 ;
#320
0"
1#
b101 7
b110 9
b111 ;
#360
b1001 7
b1000 9
b1010 ;
#400
b1101 7
b1011 9
b1101 ;
#440
b0 7
b110 8
b1101 9
b0 ;
b10 <
#480
0#
1$
1+
b100 7
b1111 9
b11 ;
#520
b1000 7
b1 9
b110 :
b110 ;
#560
1,
b1100 7
b100 9
b1001 ;
#600
0$
1%
b1111 7
b110 9
b1100 ;
#640
b11 7
b111 8
b1000 9
b1111 ;
#680
1-
b111 7
b1011 9
b10 ;
b11 <
#720
b1010 7
b1101 9
b100 ;
#760
0%
1&
b1110 7
b1111 9
b111 ;
#800
1.
b10 7
b1000 8
b1 9
b111 :
b1010 ;
#840
b110 7
b100 9
b1101 ;
#880
b1001 7
b110 9
b0 ;
b100 <
#920
0&
1'
0+
1/
b1101 7
b1000 9
b11 ;
#960
b1 7
b1001 8
b1010 9
b110 ;
#1000
10
b100 7
b1101 9
b1001 ;
#1040
b1000 7
b1111 9
b1100 ;
#1080
0'
1(
b1100 7
b1 9
b1000 :
b1111 ;
#1120
0,
11
b1111 7
b11 9
b10 ;
b101 <
#1160
b11 7
b1010 8
b110 9
b101 ;
#1200
0(
1)
b111 7
b1000 9
b111 ;
#1240
12
b1011 7
b1010 9
b1010 ;
#1280
b1110 7
b1101 9
b1101 ;
#1320
b10 7
b1011 8
b1111 9
b0 ;
b110 <
#1360
0)
1*
1+
0-
13
b110 7
b1 9
b1001 :
b11 ;
#1400
b1001 7
b11 9
b110 ;
#1440
14
b1101 7
b110 9
b1001 ;
#1480
b1 7
b1100 8
b1000 9
b1100 ;
#1520
1)
0*
b101 7
b1010 9
b1111 ;
#1560
0.
b1000 7
b1100 9
b10 ;
b111 <
#1600
b1100 7
b1111 9
b101 ;
#1640
b0 7
b1101 8
b1 9
b1010 :
b111 ;
#1680
1(
0)
1,
b11 7
b11 9
b1010 ;
#1720
b111 7
b101 9
b1101 ;
#1760
b1011 7
b1000 9
b0 ;
b1000 <
#1800
1'
0(
0+
0/
b1111 7
b1010 9
b11 ;
#1840
b10 7
b1110 8
b1100 9
b110 ;
#1880
b110 7
b1111 9
b1001 ;
#1920
b1010 7
b1 9
b1011 :
b1100 ;
#1960
1&
0'
b1101 7
b11 9
b1111 ;
#2000
00
15
b1 7
b1111 8
b101 9
b10 ;
b1001 <
#2040
1-
b101 7
b1000 9
b101 ;
#2080
b1001 7
b1010 9
b1000 ;
#2120
1%
0&
b1100 7
b1100 9
b1010 ;
#2160
b1110 7
b1110 9
b1101 ;
#2200
b1010 7
b1 9
b1100 :
b0 ;
b1010 <
#2240
0,
01
b111 7
b11 9
b11 ;
#2280
1$
0%
1+
b11 7
b101 9
b110 ;
#2320
b1111 7
b1110 8
b111 9
b1001 ;
#2360
1.
05
b1100 7
b1010 9
b1100 ;
#2400
1#
0$
b1000 7
b1100 9
b1111 ;
#2440
02
b100 7
b1110 9
b10 ;
b1011 <
#2480
b0 7
b1 9
b1101 :
b101 ;
#2520
b1101 7
b1101 8
b11 9
b1000 ;
#2560
1"
0#
b1001 7
b101 9
b1011 ;
#2600
b101 7
b111 9
b1101 ;
#2640
b10 7
b1010 9
b0 ;
b1100 <
#2680
0-
1/
03
b1110 7
b1100 8
b1100 9
b11 ;
#2720
1!
0"
0+
b1010 7
b1110 9
b110 ;
#2760
b110 7
b0 9
b1110 :
b1001 ;
#2800
1,
b11 7
b11 9
b1100 ;
#2840
b1111 7
b1011 8
b101 9
b1111 ;
#2880
0!
1"
04
b1011 7
b111 9
b10 ;
b1101 <
#2920
b1000 7
b1001 9
b101 ;
#2960
b100 7
b1100 9
b1000 ;
#3000
1!
1#
10
b0 7
b1110 9
b1011 ;
#3040
b1100 7
b1010 8
b0 9
b1111 :
b1101 ;
#3080
b1001 7
b11 9
b0 ;
b1110 <
#3120
1$
0.
b101 7
b101 9
b11 ;
#3160
1+
b1 7
b111 9
b110 ;
#3200
b1110 7
b1001 8
b1001 9
b1001 ;
#3240
b1010 7
b1100 9
b1100 ;
#3280
1%
b110 7
b1110 9
b1111 ;
#3320
b11 7
b10 ;
b1111 <
#3360
0,
1-
11
b1111 7
b1000 8
b1100 9
b101 ;
#3400
1&
b1011 7
b1001 9
b1000 ;
#3440
b111 7
b111 9
b1011 ;
#3480
b100 7
b101 9
b1110 ;
#3520
1'
16
b0 7
b11 9
#3560
0/
b1100 7
b111 8
b0 9
b1011 ;
#3600
0+
b1001 7
b1110 9
b1110 :
b1000 ;
#3640
1(
b101 7
b1100 9
b101 ;
#3680
12
b1 7
b1001 9
b10 ;
#3720
b1101 7
b110 8
b111 9
b1111 ;
b1110 <
#3760
b1010 7
b101 9
b1100 ;
#3800
1)
b110 7
b11 9
b1001 ;
#3840
b10 7
b0 9
b110 ;
#3880
06
b1111 7
b101 8
b1110 9
b1101 :
b11 ;
#3920
1*
1,
1.
b1011 7
b1100 9
b0 ;
#3960
b111 7
b1010 9
b1101 ;
b1101 <
#4000
00
13
b11 7
b111 9
b1011 ;
#4040
0*
0-
b0 7
b101 9
b1000 ;
#4080
1+
b1100 7
b100 8
b11 9
b101 ;
#4120
b1000 7
b1 9
b10 ;
#4160
0)
b101 7
b1110 9
b1100 :
b1111 ;
b1100 <
#4200
b1 7
b1100 9
b1100 ;
#4240
b1101 7
b11 8
b1010 9
b1001 ;
#4280
b1001 7
b111 9
b110 ;
#4320
0(
14
b110 7
b101 9
b11 ;
#4360
b10 7
b11 9
b0 ;
#4400
b1110 7
b10 8
b1 9
b1101 ;
b1011 <
#4440
0'
01
b1011 7
b1110 9
b1011 :
b1011 ;
#4480
0,
1/
b111 7
b1100 9
b1000 ;
#4520
0+
b11 7
b1010 9
b101 ;
#4560
0&
b0 7
b1000 9
b10 ;
#4600
b1100 7
b1 8
b101 9
b1111 ;
b1010 <
#4640
b1000 7
b11 9
b1100 ;
#4680
0%
0.
b100 7
b1 9
b1001 ;
#4720
1-
b1 7
b1111 9
b1010 :
b110 ;
#4760
b1101 7
b0 8
b1100 9
b11 ;
#4800
b1001 7
b1010 9
b0 ;
#4840
0$
b110 7
b1000 9
b1101 ;
b1001 <
#4880
02
b10 7
b101 9
b1010 ;
#4920
b11 9
b1000 ;
#4960
0#
1+
b110 7
b1 9
b101 ;
#5000
10
b1001 7
b1111 9
b1001 :
b10 ;
#5040
1,
b1101 7
b1100 9
b1111 ;
b1000 <
#5080
0"
b1 7
b1 8
b1010 9
b1100 ;
#5120
b100 7
b1000 9
b1001 ;
#5160
b1000 7
b110 9
b110 ;
#5200
0!
b1100 7
b11 9
b11 ;
#5240
b0 7
b10 8
b1 9
b0 ;
#5280
b11 7
b1111 9
b1000 :
b1101 ;
b111 <
#5320
03
b111 7
b1101 9
b1010 ;
#5360
1!
0-
0/
b1011 7
b1010 9
b111 ;
#5400
0+
b1110 7
b1000 9
b101 ;
#5440
b10 7
b11 8
b110 9
b10 ;
#5480
1"
1.
b110 7
b11 9
b1111 ;
b110 <
#5520
b1001 7
b1 9
b1100 ;
#5560
11
b1101 7
b1111 9
b111 :
b1001 ;
#5600
1#
0,
b1 7
b100 8
b1101 9
b110 ;
#5640
b101 7
b1010 9
b11 ;
#5680
b1000 7
b1000 9
b0 ;
#5720
1$
b1100 7
b110 9
b1101 ;
b101 <
#5760
04
b0 7
b101 8
b100 9
b1010 ;
#5800
b11 7
b1 9
b111 ;
#5840
b111 7
b1111 9
b110 :
b101 ;
#5880
1%
1+
b1011 7
b1101 9
b10 ;
#5920
b1111 7
b1011 9
b1111 ;
b100 <
#5960
b10 7
b110 8
b1000 9
b1100 ;
#6000
0"
0#
0%
1'
1*
00
b110 7
b110 9
b1001 ;
#6040
1-
b1010 7
b100 9
b110 ;
#6080
b1101 7
b1 9
b11 ;
#6120
12
b1 7
b111 8
b1111 9
b101 :
b0 ;
#6160
1,
b101 7
b1101 9
b1101 ;
b11 <
#6200
0!
1#
0$
1&
0'
1)
0*
b1001 7
b1011 9
b1010 ;
#6240
0.
1/
b1100 7
b1000 9
b111 ;
#6280
b0 7
b1000 8
b110 9
b100 ;
#6320
0+
b100 7
b100 9
b10 ;
#6360
b111 7
b10 9
b1111 ;
b10 <
#6400
1"
0#
1%
0&
1(
0)
b1011 7
b1111 9
b100 :
b1100 ;
#6440
b1111 7
b1101 9
b1001 ;
#6480
b11 7
b1001 8
b1011 9
b110 ;
#6520
b110 7
b1001 9
b11 ;
#6560
b1010 7
b110 9
b0 ;
#6600
1!
0"
1$
0%
1'
0(
1*
b1110 7
b100 9
b1101 ;
b1 <
#6640
b1 7
b1010 8
b10 9
b1010 ;
#6680
01
13
b101 7
b1111 9
b11 :
b111 ;
#6720
0,
0-
b1001 7
b1101 9
b100 ;
#6760
1+
b1100 7
b1011 9
b1 ;
#6800
0!
1#
0$
1&
0'
1)
0*
b0 7
b1011 8
b1001 9
b1111 ;
b0 <
#6840
b100 7
b110 9
b1100 ;
#6880
b1000 7
b100 9
b1001 ;
#6920
b1011 7
b10 9
b110 ;
#6960
b1111 7
b0 9
b11 ;
#7000
1"
0#
1%
0&
1(
0)
10
b11 7
b1100 8
b1101 9
b10 :
b0 ;
#7040
1.
b110 7
b1011 9
b11 ;
#7080
b1010 7
b1001 9
b110 ;
#7120
0/
b1110 7
b111 9
b1001 ;
#7160
b10 7
b1101 8
b100 9
b1100 ;
#7200
1!
0"
1$
0%
1'
0(
1*
0+
14
b101 7
b10 9
b1111 ;
#7240
b1001 7
b0 9
b1 ;
b1 <
#7280
1,
b1101 7
b1101 9
b1 :
b100 ;
#7320
02
b0 7
b1110 8
b1011 9
b111 ;
#7360
b100 7
b1001 9
b1010 ;
#7400
0!
1#
0$
1&
0'
1)
0*
1-
b1000 7
b111 9
b1101 ;
#7440
b1100 7
b100 9
b0 ;
b10 <
#7480
b1111 7
b10 9
b11 ;
#7520
b11 7
b1111 8
b0 9
b110 ;
#7560
b111 7
b1110 9
b0 :
b1001 ;
#7600
1"
0#
1%
0&
1(
0)
b1010 7
b1011 9
b1100 ;
#7640
b1110 7
b1001 9
b1111 ;
#7680
1+
b1100 7
b111 9
b10 ;
b11 <
#7720
b1001 7
b101 9
b100 ;
#7760
b101 7
b10 9
b111 ;
#7800
1!
0"
1$
0%
1'
0(
1*
0.
11
b1 7
b0 9
b1010 ;
#7840
0,
b1101 7
b1110 8
b10 9
b1101 ;
#7880
b1010 7
b101 9
b0 ;
b100 <
#7920
b110 7
b111 9
b11 ;
#7960
b10 7
b1001 9
b110 ;
#8000
0!
1#
0$
1&
0'
1)
0*
00
03
b1111 7
b1101 8
b1011 9
b1001 ;
#8040
0-
1/
b1011 7
b1110 9
b1100 ;
#8080
b111 7
b0 9
b1 :
b1111 ;
#8120
0+
b11 7
b10 9
b10 ;
b101 <
#8160
b0 7
b100 9
b101 ;
#8200
1"
0#
1%
0&
1(
0)
b1100 7
b1100 8
b111 9
b111 ;
#8240
b1000 7
b1001 9
b1010 ;
#8280
b101 7
b1011 9
b1101 ;
#8320
b1 7
b1101 9
b0 ;
b110 <
#8360
b1101 7
b1011 8
b0 9
b10 :
b11 ;
#8400
1!
0"
1$
0%
1'
0(
1*
1,
b1001 7
b10 9
b110 ;
#8440
b110 7
b100 9
b1001 ;
#8480
b10 7
b111 9
b1100 ;
#8520
b1110 7
b1010 8
b1001 9
b1111 ;
#8560
1+
12
b1011 7
b1011 9
b10 ;
b111 <
#8600
0!
1#
0$
1&
0'
1)
0*
1.
b111 7
b1101 9
b101 ;
#8640
04
b11 7
b0 9
b11 :
b111 ;
#8680
b1111 7
b1001 8
b10 9
b1010 ;
#8720
1-
b1100 7
b100 9
b1101 ;
#8760
b1000 7
b110 9
b0 ;
b1000 <
#8800
1"
0#
1%
0&
1(
0)
b100 7
b1001 9
b11 ;
#8840
b1 7
b1011 9
b110 ;
#8880
01
b1101 7
b1000 8
b1101 9
b1001 ;
#8920
0/
b1001 7
b1111 9
b1100 ;
#8960
0,
b110 7
b10 9
b100 :
b1111 ;
#9000
0"
1#
1$
0%
1&
0+
10
15
b10 7
b100 9
b10 ;
b1001 <
#9040
b1110 7
b111 8
b110 9
b101 ;
#9080
b1010 7
b1001 9
b1000 ;
#9120
b111 7
b1011 9
b1010 ;
#9160
b11 7
b1101 9
b1101 ;
#9200
b1111 7
b110 8
b1111 9
b0 ;
b1010 <
#9240
b1100 7
b10 9
b101 :
b11 ;
#9280
b1000 7
b100 9
b110 ;
#9320
1)
13
b100 7
b110 9
b1001 ;
#9360
0$
0.
05
b0 7
b1000 9
b1100 ;
#9400
0#
0-
b1101 7
b101 8
b1011 9
b1111 ;
#9440
b1001 7
b1101 9
b10 ;
b1011 <
#9480
1!
1+
b101 7
b1111 9
b101 ;
#9520
1"
1,
b10 7
b1 9
b110 :
b1000 ;
#9560
b1110 7
b100 8
b100 9
b1011 ;
#9600
b1010 7
b110 9
b1101 ;
#9640
b110 7
b1000 9
b0 ;
b1100 <
#9680
b11 7
b1011 9
b11 ;
#9720
b1111 7
b11 8
b1101 9
b110 ;
#9760
0(
02
b1011 7
b1111 9
b1001 ;
#9800
1%
1/
b1000 7
b1 9
b111 :
b1100 ;
#9840
b100 7
b100 9
b1111 ;
#9880
b0 7
b110 9
b10 ;
b1101 <
#9920
0!
0+
b1101 7
b10 8
b1000 9
b101 ;
#9960
b1001 7
b1010 9
b1000 ;
#10000
0&
1'
00
11
b101 7
b1101 9
b1011 ;
#10040
b1 7
b1111 9
b1101 ;
#10080
0"
1#
1*
0,
1-
14
b1110 7
b1 8
b1 9
b1000 :
b0 ;
b1110 <
#10120
b1010 7
b11 9
b11 ;
#10160
1$
1.
b110 7
b110 9
b110 ;
#10200
b11 7
b1000 9
b1001 ;
#10240
b1111 7
b0 8
b1010 9
b1100 ;
#10280
b1011 7
b1101 9
b1111 ;
#10320
b111 7
b1111 9
b10 ;
b1111 <
#10360
1!
1+
b100 7
b1 9
b1001 :
b101 ;
#10400
b0 7
b11 9
b1000 ;
#10440
b100 7
b110 9
b1011 ;
#10480
b111 7
b1000 9
b1110 ;
#10520
16
b1011 7
b1010 9
#10560
b1111 7
b1100 9
b1011 ;
#10600
b11 7
b1 8
b1111 9
b1000 ;
#10640
1"
0)
1,
03
b110 7
b1 9
b1010 :
b101 ;
#10680
0%
0/
b1010 7
b11 9
b10 ;
#10720
0#
0-
b1110 7
b101 9
b1111 ;
b1110 <
#10760
b1 7
b10 8
b1000 9
b1100 ;
#10800
0!
0+
b101 7
b1010 9
b1001 ;
#10840
b1001 7
b1100 9
b110 ;
#10880
06
b1101 7
b1111 9
b11 ;
#10920
0$
0.
b0 7
b11 8
b1 9
b1011 :
b0 ;
#10960
b100 7
b11 9
b1101 ;
b1101 <
#11000
1&
1(
10
12
b1000 7
b101 9
b1011 ;
#11040
b1011 7
b1000 9
b1000 ;
#11080
b1111 7
b1010 9
b101 ;
#11120
0'
01
b11 7
b100 8
b1100 9
b10 ;
#11160
b110 7
b1110 9
b1111 ;
b1100 <
#11200
0"
0,
b1010 7
b1 9
b1100 :
b1100 ;
#11240
b1110 7
b11 9
b1001 ;
#11280
1!
1+
b10 7
b101 8
b101 9
b110 ;
#11320
b101 7
b111 9
b11 ;
#11360
b1001 7
b1010 9
b0 ;
#11400
1#
1-
b1101 7
b1100 9
b1101 ;
b1011 <
#11440
b0 7
b110 8
b1110 9
b1011 ;
#11480
b100 7
b1 9
b1101 :
b1000 ;
#11520
0*
04
b1000 7
b11 9
b101 ;
#11560
b1100 7
b101 9
b10 ;
#11600
1%
1/
b1111 7
b111 9
b1111 ;
b1010 <
#11640
b11 7
b111 8
b1010 9
b1100 ;
#11680
b111 7
b1100 9
b1001 ;
#11720
0!
1$
0+
1.
b1010 7
b1110 9
b110 ;
#11760
1"
1,
b1110 7
b0 9
b1110 :
b11 ;
#11800
b10 7
b1000 8
b11 9
b0 ;
#11840
b110 7
b101 9
b1101 ;
b1001 <
#11880
b1001 7
b111 9
b1010 ;
#11920
b1101 7
b1001 9
b1000 ;
#11960
b1 7
b1001 8
b1100 9
b101 ;
#12000
0"
0#
0$
0%
0&
0(
00
13
b100 7
b1110 9
b10 ;
#12040
b1000 7
b0 9
b1111 :
b1111 ;
b1000 <
#12080
0-
b1100 7
b11 9
b1100 ;
#12120
b1111 7
b101 9
b1001 ;
#12160
1%
1&
1+
b11 7
b1010 8
b111 9
b110 ;
#12200
02
b111 7
b1001 9
b11 ;
#12240
11
b1011 7
b1100 9
b0 ;
#12280
b1110 7
b1110 9
b1101 ;
b111 <
#12320
1$
1'
0,
b10 7
b1011 8
b1010 ;
#12360
b110 7
b1100 9
b111 ;
#12400
b1001 7
b1001 9
b101 ;
#12440
b1101 7
b111 9
b10 ;
#12480
1#
1(
0.
0/
b1 7
b1100 8
b101 9
b1111 ;
b110 <
#12520
b101 7
b11 9
b1100 ;
#12560
b1000 7
b0 9
b1001 ;
#12600
1"
1)
0+
b1100 7
b1110 9
b1110 :
b110 ;
#12640
b0 7
b1101 8
b1100 9
b11 ;
#12680
b11 7
b1001 9
b0 ;
#12720
b111 7
b111 9
b1101 ;
b101 <
#12760
1!
1*
1-
b1011 7
b101 9
b1010 ;
#12800
b1111 7
b11 9
b111 ;
#12840
b10 7
b1110 8
b0 9
b101 ;
#12880
1,
b110 7
b1110 9
b1101 :
b10 ;
#12920
0!
0*
b1010 7
b1100 9
b1111 ;
b100 <
#12960
14
b1101 7
b1010 9
b1100 ;
#13000
10
b1 7
b1111 8
b111 9
b1001 ;
#13040
b101 7
b101 9
b110 ;
#13080
0"
0)
1+
b1001 7
b11 9
b11 ;
#13120
b1100 7
b1 9
b0 ;
#13160
b1110 7
b1110 9
b1100 :
b1101 ;
b11 <
#13200
0#
0(
b1010 7
b1100 9
b1010 ;
#13240
b111 7
b1010 9
b111 ;
#13280
1.
b11 7
b111 9
b100 ;
#13320
01
03
b1111 7
b1110 8
b101 9
b10 ;
#13360
0$
0'
1/
b1100 7
b11 9
b1111 ;
b10 <
#13400
0-
b1000 7
b1 9
b1100 ;
#13440
0,
12
b100 7
b1110 9
b1011 :
b1001 ;
#13480
b0 7
b1100 9
b110 ;
#13520
0%
0&
0+
b1101 7
b1101 8
b1010 9
b11 ;
#13560
b1001 7
b1000 9
b0 ;
#13600
b101 7
b101 9
b1101 ;
b1 <
#13640
b10 7
b11 9
b1010 ;
#13680
1%
1&
b1110 7
b1100 8
b1 9
b111 ;
#13720
b1010 7
b1111 9
b1010 :
b100 ;
#13760
b110 7
b1100 9
b1 ;
#13800
1$
1'
b11 7
b1010 9
b1111 ;
b0 <
#13840
b1111 7
b1011 8
b1000 9
b1100 ;
#13880
b1011 7
b101 9
b1001 ;
#13920
b1000 7
b11 9
b110 ;
#13960
1#
1(
1+
b100 7
b1 9
b11 ;
#14000
1,
00
b0 7
b1111 9
b1001 :
b0 ;
#14040
0.
b1100 7
b1010 8
b1100 9
b11 ;
#14080
1-
b1001 7
b1010 9
b110 ;
#14120
1"
1)
b101 7
b1000 9
b1001 ;
#14160
b1 7
b110 9
b1100 ;
#14200
b1110 7
b1001 8
b11 9
b1111 ;
#14240
0/
b1010 7
b1 9
b1 ;
b1 <
#14280
1!
1*
b110 7
b1111 9
b1000 :
b100 ;
#14320
b11 7
b1101 9
b111 ;
#14360
b1111 7
b1000 8
b1010 9
b1010 ;
#14400
0!
0*
0+
04
b1011 7
b1000 9
b1101 ;
#14440
11
b111 7
b110 9
b0 ;
b10 <
#14480
b100 7
b11 9
b11 ;
#14520
b0 7
b1 9
b110 ;
#14560
0"
0)
0,
b1100 7
b111 8
b1111 9
b111 :
b1001 ;
#14600
b1001 7
b1101 9
b1100 ;
#14640
02
13
b101 7
b1010 9
b1111 ;
#14680
b1 7
b1000 9
b10 ;
b11 <
#14720
0#
0(
b1101 7
b110 8
b110 9
b100 ;
#14760
0-
b1010 7
b100 9
b111 ;
#14800
b110 7
b1 9
b1010 ;
#14840
1.
b10 7
b1111 9
b110 :
b1101 ;
#14880
0$
0'
1+
b1111 7
b101 8
b1101 9
b0 ;
b100 <
#14920
b1011 7
b1011 9
b11 ;
#14960
b111 7
b1000 9
b110 ;
#15000
1$
1(
1*
10
b11 7
b110 9
b1001 ;
#15040
b0 7
b100 9
b1100 ;
#15080
b1100 7
b100 8
b1 9
b1111 ;
#15120
1,
b1000 7
b1111 9
b101 :
b10 ;
b101 <
#15160
1"
1#
0%
0&
1)
0*
1/
b101 7
b1101 9
b101 ;
#15200
b1 7
b1011 9
b111 ;
#15240
b1101 7
b11 8
b1000 9
b1010 ;
#15280
b1001 7
b110 9
b1101 ;
#15320
1!
0#
0+
b110 7
b100 9
b0 ;
b110 <
#15360
b10 7
b10 9
b11 ;
#15400
b1110 7
b10 8
b1111 9
b100 :
b110 ;
#15440
1-
b1011 7
b1101 9
b1001 ;
#15480
0!
0"
0$
1&
0)
b111 7
b1011 9
b1100 ;
#15520
b11 7
b1001 9
b1111 ;
#15560
01
b0 7
b110 9
b10 ;
b111 <
#15600
0.
b1100 7
b1 8
b100 9
b101 ;
#15640
1#
1)
b1000 7
b10 9
b111 ;
#15680
0,
b100 7
b1111 9
b11 :
b1010 ;
#15720
b1 7
b1101 9
b1101 ;
#15760
1+
b1101 7
b0 8
b1011 9
b0 ;
b1000 <
#15800
b1001 7
b1001 9
b11 ;
#15840
1"
1%
0&
1'
0(
1*
14
b110 7
b110 9
b110 ;
#15880
12
b10 7
b100 9
b1001 ;
#15920
b10 9
b1100 ;
#15960
03
b110 7
b0 9
b1111 ;
#16000
1!
0#
0%
0'
1(
0)
0*
00
15
b1001 7
b1101 9
b10 :
b10 ;
b1001 <
#16040
0/
b1101 7
b1011 9
b101 ;
#16080
0-
b1 7
b1 8
b1001 9
b1000 ;
#16120
b100 7
b111 9
b1010 ;
#16160
0!
1#
1$
1%
0(
b1000 7
b100 9
b1101 ;
#16200
0+
b1100 7
b10 9
b0 ;
b1010 <
#16240
1,
b0 7
b10 8
b0 9
b11 ;
#16280
b11 7
b1101 9
b1 :
b110 ;
#16320
1!
0"
0#
0$
1'
1(
1*
b111 7
b1011 9
b1001 ;
#16360
05
b1011 7
b1001 9
b1100 ;
#16400
1.
b1110 7
b111 9
b1111 ;
#16440
b10 7
b11 8
b100 9
b10 ;
b1011 <
#16480
b110 7
b10 9
b101 ;
#16520
0!
1"
1#
1$
0'
b1001 7
b0 9
b1000 ;
#16560
b1101 7
b1110 9
b0 :
b1011 ;
#16600
b1 7
b100 8
b1011 9
b1101 ;
#16640
b101 7
b1001 9
b0 ;
b1100 <
#16680
0#
0$
0%
1&
1'
1)
0*
1+
11
b1000 7
b111 9
b11 ;
#16720
b1100 7
b101 9
b110 ;
#16760
1-
b0 7
b101 8
b10 9
b1001 ;
#16800
0,
b11 7
b0 9
b1100 ;
#16840
1!
0"
1#
0'
b111 7
b10 9
b1111 ;
#16880
b1011 7
b101 9
b10 ;
b1101 <
#16920
1/
b1111 7
b111 9
b101 ;
#16960
b10 7
b110 8
b1001 9
b1000 ;
#17000
0!
1"
0#
0&
1'
0)
10
b110 7
b1011 9
b1011 ;
#17040
b1010 7
b1110 9
b1101 ;
#17080
02
b1101 7
b0 9
b1 :
b0 ;
b1110 <
#17120
0+
b1 7
b111 8
b10 9
b11 ;
#17160
0.
b101 7
b100 9
b110 ;
#17200
1&
0(
b1001 7
b111 9
b1001 ;
#17240
b1100 7
b1001 9
b1100 ;
#17280
04
b0 7
b1000 8
b1011 9
b1111 ;
#17320
13
b100 7
b1101 9
b10 ;
b1111 <
#17360
1#
1$
1(
1,
b111 7
b0 9
b10 :
b101 ;
#17400
b1011 7
b10 9
b1000 ;
#17440
0-
b1111 7
b100 9
b1011 ;
#17480
b11 7
b1001 8
b111 9
b1110 ;
#17520
1%
0(
16
b110 7
b1001 9
#17560
1+
b1010 7
b1011 9
b1011 ;
#17600
b1110 7
b1101 9
b1000 ;
#17640
b1 7
b1010 8
b0 9
b11 :
b101 ;
#17680
0#
0%
0&
1*
b101 7
b10 9
b10 ;
#17720
b1001 7
b100 9
b1111 ;
b1110 <
#17760
01
b1100 7
b110 9
b1100 ;
#17800
0/
b0 7
b1011 8
b1001 9
b1001 ;
#17840
b100 7
b1011 9
b110 ;
#17880
1#
1%
0'
1)
06
b1000 7
b1101 9
b11 ;
#17920
0,
b1011 7
b1111 9
b0 ;
#17960
1.
b1111 7
b10 9
b100 :
b1101 ;
b1101 <
#18000
0"
0#
0$
0%
1'
0)
0*
0+
00
b11 7
b1100 8
b100 9
b1011 ;
#18040
b110 7
b110 9
b1000 ;
#18080
b1010 7
b1001 9
b101 ;
#18120
1-
b1110 7
b1011 9
b10 ;
#18160
1&
0'
b10 7
b1101 8
b1101 9
b1111 ;
b1100 <
#18200
b101 7
b1111 9
b1100 ;
#18240
b1001 7
b10 9
b101 :
b1001 ;
#18280
b1101 7
b100 9
b110 ;
#18320
1%
0&
12
b0 7
b1110 8
b110 9
b11 ;
#18360
b100 7
b1000 9
b0 ;
#18400
b1000 7
b1011 9
b1101 ;
b1011 <
#18440
b1100 7
b1101 9
b1011 ;
#18480
1$
0%
1+
1,
b1111 7
b1111 9
b1000 ;
#18520
b11 7
b1111 8
b1 9
b110 :
b101 ;
#18560
b111 7
b100 9
b10 ;
#18600
1#
0$
b1010 7
b110 9
b1111 ;
b1010 <
#18640
03
b1110 7
b1000 9
b1100 ;
#18680
b1100 7
b1011 9
b1001 ;
#18720
0.
1/
14
b1001 7
b1101 9
b110 ;
#18760
1"
0#
0-
b101 7
b1111 9
b11 ;
#18800
b1 7
b1 9
b111 :
b0 ;
#18840
b1101 7
b1110 8
b100 9
b1101 ;
b1001 <
#18880
11
b1010 7
b110 9
b1010 ;
#18920
1!
0"
0+
b110 7
b1000 9
b1000 ;
#18960
b10 7
b1010 9
b101 ;
#19000
10
b1111 7
b1101 8
b1101 9
b10 ;
#19040
0,
b1011 7
b1111 9
b1111 ;
b1000 <
#19080
0!
1"
b111 7
b1 9
b1000 :
b1100 ;
#19120
b11 7
b11 9
b1001 ;
#19160
b0 7
b110 9
b110 ;
#19200
0"
1#
b1100 7
b1100 8
b1000 9
b11 ;
#19240
b1000 7
b1010 9
b0 ;
#19280
b101 7
b1101 9
b1101 ;
b111 <
#19320
b1 7
b1111 9
b1010 ;
#19360
0#
1$
1+
b1101 7
b1011 8
b1 9
b1001 :
b111 ;
#19400
b1001 7
b11 9
b101 ;
#19440
1-
b110 7
b110 9
b10 ;
#19480
b10 7
b1000 9
b1111 ;
b110 <
#19520
0$
1%
1.
02
b1110 7
b1010 8
b1010 9
b1100 ;
#19560
b1011 7
b1100 9
b1001 ;
#19600
1,
0/
b111 7
b1111 9
b110 ;
#19640
b11 7
b1 9
b1010 :
b11 ;
#19680
0%
1&
b1111 7
b1001 8
b11 9
b0 ;
#19720
b1100 7
b101 9
b1101 ;
b101 <
#19760
b1000 7
b1000 9
b1010 ;
#19800
0&
1'
0+
b100 7
b1010 9
b111 ;
#19840
b1 7
b1100 9
b101 ;
#19880
b1101 7
b1000 8
b1111 9
b10 ;
#19920
b1001 7
b1 9
b1011 :
b1111 ;
b100 <
#19960
0'
1(
13
b110 7
b11 9
b1100 ;
#20000
00
01
b10 7
b101 9
b1001 ;
#20040
b1110 7
b111 8
b1000 9
b110 ;
#20080
b1010 7
b1010 9
b11 ;
#20120
0(
1)
0-
b111 7
b1100 9
b0 ;
#20160
0,
04
b11 7
b1110 9
b1101 ;
b11 <
#20200
b1111 7
b110 8
b1 9
b1100 :
b1010 ;
#20240
b1100 7
b11 9
b111 ;
#20280
0)
1*
1+
0.
b1000 7
b101 9
b100 ;
#20320
b100 7
b111 9
b10 ;
#20360
b0 7
b1010 9
b1111 ;
b10 <
#20400
1)
0*
b1101 7
b101 8
b1100 9
b1100 ;
#20440
b1001 7
b1110 9
b1001 ;
