fixtures/pro/protocol/usb/generated/usb_basic.vcd
$timescale 1ns $end
$scope module tb $end
$var wire 1 ! DP $end
$var wire 1 " DM $end
$upscope $end
$enddefinitions $end
$dumpvars
0!
0"
$end
#0
1!
0"
#80
0!
1"
#90
1!
0"
#100
0!
1"
#110
1!
0"
#120
0!
1"
#130
1!
0"
#140
0!
1"
#170
1!
0"
#200
0!
1"
#220
1!
0"
#230
0!
1"
#240
1!
0"
#260
0!
1"
#270
1!
0"
#290
0!
1"
#300
1!
0"
#330
0!
1"
#340
1!
0"
#350
0!
1"
#370
1!
0"
#400
0!
#420
1!
#510
0!
1"
#520
1!
0"
#530
0!
1"
#540
1!
0"
#550
0!
1"
#560
1!
0"
#570
0!
1"
#610
1!
0"
#620
0!
1"
#630
1!
0"
#640
0!
1"
#670
1!
0"
#720
0!
1"
#760
1!
0"
#790
0!
1"
#810
1!
0"
#830
0!
1"
#890
1!
0"
#950
0!
1"
#990
1!
0"
#1010
0!
1"
#1030
1!
0"
#1040
0!
1"
#1070
1!
0"
#1140
0!
1"
#1160
1!
0"
#1180
0!
1"
#1220
1!
0"
#1240
0!
1"
#1300
1!
0"
#1320
0!
1"
#1330
1!
0"
#1360
0!
1"
#1380
1!
0"
#1390
0!
1"
#1450
1!
0"
#1460
0!
1"
#1470
1!
0"
#1480
0!
#1500
1!
#1590
0!
1"
#1600
1!
0"
#1610
0!
1"
#1620
1!
0"
#1630
0!
1"
#1640
1!
0"
#1650
0!
1"
#1670
1!
0"
#1690
0!
1"
#1700
1!
0"
#1720
0!
1"
#1750
0"
#1770
1!
#1860
0!
1"
#1870
1!
0"
#1880
0!
1"
#1890
1!
0"
#1900
0!
1"
#1910
1!
0"
#1920
0!
1"
#1950
1!
0"
#1970
0!
1"
#1980
1!
0"
#2000
0!
1"
#2020
1!
0"
#2040
0!
1"
#2060
1!
0"
#2080
0!
1"
#2090
1!
0"
#2100
0!
1"
#2110
1!
0"
#2120
0!
1"
#2130
1!
0"
#2150
0!
1"
#2170
1!
0"
#2180
0!
#2200
1!
#2290
0!
1"
#2300
1!
0"
#2310
0!
1"
#2320
1!
0"
#2330
0!
1"
#2340
1!
0"
#2350
0!
1"
#2380
1!
0"
#2390
0!
1"
#2410
1!
0"
#2440
0!
1"
#2450
1!
0"
#2470
0!
1"
#2480
1!
0"
#2500
0!
1"
#2510
1!
0"
#2520
0!
1"
#2530
1!
0"
#2550
0!
1"
#2580
1!
0"
#2590
0!
1"
#2600
1!
0"
#2610
0!
#2630
1!
#2720
0!
1"
#2730
1!
0"
#2740
0!
1"
#2750
1!
0"
#2760
0!
1"
#2770
1!
0"
#2780
0!
1"
#2800
1!
0"
#2820
0!
1"
#2850
1!
0"
#2870
0!
1"
#2880
0"
#2900
1!
#2990
0!
1"
#3000
1!
0"
#3010
0!
1"
#3020
1!
0"
#3030
0!
1"
#3040
1!
0"
#3050
0!
1"
#3090
1!
0"
#3110
0!
1"
#3120
1!
0"
#3140
0!
1"
#3150
1!
0"
#3160
0!
1"
#3170
1!
0"
#3180
0!
1"
#3190
1!
0"
#3200
0!
1"
#3210
1!
0"
#3220
0!
1"
#3230
1!
0"
#3240
0!
1"
#3250
1!
0"
#3260
0!
1"
#3270
1!
0"
#3280
0!
1"
#3290
1!
0"
#3300
0!
1"
#3310
0"
#3330
1!
#3420
0!
1"
#3430
1!
0"
#3440
0!
1"
#3450
1!
0"
#3460
0!
1"
#3470
1!
0"
#3480
0!
1"
#3500
1!
0"
#3520
0!
1"
#3530
1!
0"
#3550
0!
1"
#3580
0"
#3600
1!
