fixtures/pro/protocol/bus_dashboard/spi_eight_bytes.vcd
$timescale 1 ns $end
$scope module top $end
$scope module dut $end
$var wire 1 ! sclk $end
$var wire 1 " mosi $end
$var wire 1 # miso $end
$var wire 1 % cs $end
$upscope $end
$upscope $end
$enddefinitions $end
$dumpvars
0!
0"
0#
1%
$end
#10
0%
#20
1!
#30
0!
#40
1!
#50
0!
#60
1!
#70
0!
#80
1!
#90
0!
#100
1!
#110
0!
#120
1!
#130
0!
#140
1!
#150
0!
#160
1!
#170
0!
#180
1!
#190
0!
#200
1!
#210
0!
#220
1!
#230
0!
#240
1!
#250
0!
#260
1!
#270
0!
#280
1!
#290
0!
#300
1!
#310
0!
#315
1"
#320
1!
#330
0!
#335
0"
#340
1!
#350
0!
#360
1!
#370
0!
#380
1!
#390
0!
#400
1!
#410
0!
#420
1!
#430
0!
#440
1!
#450
0!
#455
1"
#460
1!
#470
0!
#475
0"
#480
1!
#490
0!
#500
1!
#510
0!
#520
1!
#530
0!
#540
1!
#550
0!
#560
1!
#570
0!
#580
1!
#590
0!
#600
1!
#610
0!
#615
1"
#620
1!
#630
0!
#640
1!
#650
0!
#655
0"
#660
1!
#670
0!
#680
1!
#690
0!
#700
1!
#710
0!
#720
1!
#730
0!
#740
1!
#750
0!
#755
1"
#760
1!
#770
0!
#775
0"
#780
1!
#790
0!
#800
1!
#810
0!
#820
1!
#830
0!
#840
1!
#850
0!
#860
1!
#870
0!
#880
1!
#890
0!
#900
1!
#910
0!
#915
1"
#920
1!
#930
0!
#935
0"
#940
1!
#950
0!
#955
1"
#960
1!
#970
0!
#975
0"
#980
1!
#990
0!
#1000
1!
#1010
0!
#1020
1!
#1030
0!
#1040
1!
#1050
0!
#1060
1!
#1070
0!
#1075
1"
#1080
1!
#1090
0!
#1100
1!
#1110
0!
#1115
0"
#1120
1!
#1130
0!
#1140
1!
#1150
0!
#1160
1!
#1170
0!
#1180
1!
#1190
0!
#1200
1!
#1210
0!
#1220
1!
#1230
0!
#1235
1"
#1240
1!
#1250
0!
#1260
1!
#1270
0!
#1280
1!
#1290
0!
#1310
1%
0"
