fixtures/pro/stage/bldc/bldc_six_step_slow.vcd
$version Generated by tool/generate_bldc_fixtures.dart $end
$comment BLDC slow six-step diagnostic — constant 90 RPM, 2 pole-pairs (3 Hz electrical), 1 s @ 300 Hz. Each commutation sector is held long enough to scrub one at a time; use to verify Hall decode and the 1..6 commutation-state mapping. $end
$date 2026-06-20 $end
$timescale 1ns $end
$scope module top $end
$scope module motor $end
$var wire 1 ! sample_clk $end
$var wire 16 " rpm $end
$var wire 16 # mech_angle $end
$var wire 16 $ elec_angle $end
$var wire 10 % throttle $end
$var wire 16 & phase_u $end
$var wire 16 ' phase_v $end
$var wire 16 ( phase_w $end
$var wire 1 ) hall_u $end
$var wire 1 * hall_v $end
$var wire 1 + hall_w $end
$var wire 3 , comm_state $end
$var wire 1 - direction $end
$var wire 16 . bus_current $end
$upscope $end
$upscope $end
$enddefinitions $end
$dumpvars
0!
b0000000001011010 "
b0000000000000000 #
b0000000000000000 $
b0100101100 %
b0000000000000000 &
b1111010111011010 '
b0000101000100110 (
1)
0*
1+
b001 ,
1-
b0000010111011100 .
$end
#3333333
1!
b0000000010110100 #
b0000000101101000 $
b0000000010111100 &
b1111010110000001 '
b0000100111000011 (
b0000010111101101 .
#4999999
0!
#6666666
1!
b0000000101101000 #
b0000001011010000 $
b0000000101111000 &
b1111010100110010 '
b0000100101010110 (
b0000010111111011 .
#8333332
0!
#9999999
1!
b0000001000011100 #
b0000010000111000 $
b0000001000110010 &
b1111010011101111 '
b0000100011011111 (
b0000011000000101 .
#11666665
0!
#13333332
1!
b0000001011010000 #
b0000010110100000 $
b0000001011101010 &
b1111010010110111 '
b0000100001011111 (
b0000011000001001 .
#14999998
0!
#16666665
1!
b0000001110000100 #
b0000011100001000 $
b0000001110011111 &
b1111010010001010 '
b0000011111010111 (
b0000011000000111 .
#18333331
0!
#19999998
1!
b0000010000111000 #
b0000100001110000 $
b0000010001010000 &
b1111010001101000 '
b0000011101000111 (
b0000010111111111 .
#21666664
0!
#23333331
1!
b0000010011101100 #
b0000100111011000 $
b0000010011111101 &
b1111010001010011 '
b0000011010110000 (
b0000010111110010 .
#24999997
0!
#26666664
1!
b0000010110100000 #
b0000101101000000 $
b0000010110100101 &
b1111010001001001 '
b0000011000010010 (
b0000010111100010 .
#28333330
0!
#29999997
1!
b0000011001010100 #
b0000110010101000 $
b0000011001000111 &
b1111010001001011 '
b0000010101101110 (
b0000010111010001 .
#31666663
0!
#33333330
1!
b0000011100001000 #
b0000111000010000 $
b0000011011100011 &
b1111010001011000 '
b0000010011000100 (
b0000010111000010 .
#34999996
0!
#36666663
1!
b0000011110111100 #
b0000111101111000 $
b0000011101111000 &
b1111010001110010 '
b0000010000010110 (
b0000010110110110 .
#38333329
0!
#39999996
1!
b0000100001110000 #
b0001000011100000 $
b0000100000000110 &
b1111010010010111 '
b0000001101100011 (
b0000010110110000 .
#41666662
0!
#43333329
1!
b0000100100100100 #
b0001001001001000 $
b0000100010001011 &
b1111010011001000 '
b0000001010101101 (
#44999995
0!
#46666662
1!
b0000100111011000 #
b0001001110110000 $
b0000100100001000 &
b1111010100000100 '
b0000000111110100 (
b0000010110110110 .
#48333328
0!
#49999995
1!
b0000101010001100 #
b0001010100011000 $
b0000100101111011 &
b1111010101001011 '
b0000000100111010 (
b0000010111000010 .
#51666661
0!
#53333328
1!
b0000101101000000 #
b0001011010000000 $
b0000100111100101 &
b1111010110011101 '
b0000000001111110 (
b0000010111010001 .
#54999994
0!
#56666661
1!
b0000101111110100 #
b0001011111101000 $
b0000101001000101 &
b1111010111111010 '
b1111111111000001 (
0+
b010 ,
b0000010111100010 .
#58333327
0!
#59999994
1!
b0000110010101000 #
b0001100101010000 $
b0000101010011010 &
b1111011001100001 '
b1111111100000101 (
b0000010111110010 .
#61666660
0!
#63333327
1!
b0000110101011100 #
b0001101010111000 $
b0000101011100101 &
b1111011011010001 '
b1111111001001010 (
b0000010111111111 .
#64999993
0!
#66666660
1!
b0000111000010000 #
b0001110000100000 $
b0000101100100101 &
b1111011101001011 '
b1111110110010000 (
b0000011000000111 .
#68333326
0!
#69999993
1!
b0000111011000100 #
b0001110110001000 $
b0000101101011010 &
b1111011111001101 '
b1111110011011001 (
b0000011000001001 .
#71666659
0!
#73333326
1!
b0000111101111000 #
b0001111011110000 $
b0000101110000011 &
b1111100001011000 '
b1111110000100101 (
b0000011000000101 .
#74999992
0!
#76666659
1!
b0001000000101100 #
b0010000001011000 $
b0000101110100000 &
b1111100011101010 '
b1111101101110101 (
b0000010111111011 .
#78333325
0!
#79999992
1!
b0001000011100000 #
b0010000111000000 $
b0000101110110010 &
b1111100110000100 '
b1111101011001010 (
b0000010111101101 .
#81666658
0!
#83333325
1!
b0001000110010100 #
b0010001100101000 $
b0000101110111000 &
b1111101000100100 '
b1111101000100100 (
b0000010111011100 .
#84999991
0!
#86666658
1!
b0001001001001000 #
b0010010010010000 $
b0000101110110010 &
b1111101011001010 '
b1111100110000100 (
b0000010111001011 .
#88333324
0!
#89999991
1!
b0001001011111100 #
b0010010111111000 $
b0000101110100000 &
b1111101101110101 '
b1111100011101010 (
b0000010110111101 .
#91666657
0!
#93333324
1!
b0001001110110000 #
b0010011101100000 $
b0000101110000011 &
b1111110000100101 '
b1111100001011000 (
b0000010110110011 .
#94999990
0!
#96666657
1!
b0001010001100100 #
b0010100011001000 $
b0000101101011010 &
b1111110011011001 '
b1111011111001101 (
b0000010110101111 .
#98333323
0!
#99999990
1!
b0001010100011000 #
b0010101000110000 $
b0000101100100101 &
b1111110110010000 '
b1111011101001011 (
b0000010110110001 .
#101666656
0!
#103333323
1!
b0001010111001100 #
b0010101110011000 $
b0000101011100101 &
b1111111001001010 '
b1111011011010001 (
b0000010110111001 .
#104999989
0!
#106666656
1!
b0001011010000000 #
b0010110100000000 $
b0000101010011010 &
b1111111100000101 '
b1111011001100001 (
b0000010111000110 .
#108333322
0!
#109999989
1!
b0001011100110100 #
b0010111001101000 $
b0000101001000101 &
b1111111111000001 '
b1111010111111010 (
b0000010111010110 .
#111666655
0!
#113333322
1!
b0001011111101000 #
b0010111111010000 $
b0000100111100101 &
b0000000001111110 '
b1111010110011101 (
1*
b011 ,
b0000010111100111 .
#114999988
0!
#116666655
1!
b0001100010011100 #
b0011000100111000 $
b0000100101111011 &
b0000000100111010 '
b1111010101001011 (
b0000010111110110 .
#118333321
0!
#119999988
1!
b0001100101010000 #
b0011001010100000 $
b0000100100001000 &
b0000000111110100 '
b1111010100000100 (
b0000011000000010 .
#121666654
0!
#123333321
1!
b0001101000000100 #
b0011010000001000 $
b0000100010001011 &
b0000001010101101 '
b1111010011001000 (
b0000011000001000 .
#124999987
0!
#126666654
1!
b0001101010111000 #
b0011010101110000 $
b0000100000000110 &
b0000001101100011 '
b1111010010010111 (
#128333320
0!
#129999987
1!
b0001101101101100 #
b0011011011011000 $
b0000011101111000 &
b0000010000010110 '
b1111010001110010 (
b0000011000000010 .
#131666653
0!
#133333320
1!
b0001110000100000 #
b0011100001000000 $
b0000011011100011 &
b0000010011000100 '
b1111010001011000 (
b0000010111110110 .
#134999986
0!
#136666653
1!
b0001110011010100 #
b0011100110101000 $
b0000011001000111 &
b0000010101101110 '
b1111010001001011 (
b0000010111100111 .
#138333319
0!
#139999986
1!
b0001110110001000 #
b0011101100010000 $
b0000010110100101 &
b0000011000010010 '
b1111010001001001 (
b0000010111010110 .
#141666652
0!
#143333319
1!
b0001111000111100 #
b0011110001111000 $
b0000010011111101 &
b0000011010110000 '
b1111010001010011 (
b0000010111000110 .
#144999985
0!
#146666652
1!
b0001111011110000 #
b0011110111100000 $
b0000010001010000 &
b0000011101000111 '
b1111010001101000 (
b0000010110111001 .
#148333318
0!
#149999985
1!
b0001111110100100 #
b0011111101001000 $
b0000001110011111 &
b0000011111010111 '
b1111010010001010 (
b0000010110110001 .
#151666651
0!
#153333318
1!
b0010000001011000 #
b0100000010110000 $
b0000001011101010 &
b0000100001011111 '
b1111010010110111 (
b0000010110101111 .
#154999984
0!
#156666651
1!
b0010000100001100 #
b0100001000011000 $
b0000001000110010 &
b0000100011011111 '
b1111010011101111 (
b0000010110110011 .
#158333317
0!
#159999984
1!
b0010000111000000 #
b0100001110000000 $
b0000000101111000 &
b0000100101010110 '
b1111010100110010 (
b0000010110111101 .
#161666650
0!
#163333317
1!
b0010001001110100 #
b0100010011101000 $
b0000000010111100 &
b0000100111000011 '
b1111010110000001 (
b0000010111001011 .
#164999983
0!
#166666650
1!
b0010001100101000 #
b0100011001010000 $
b0000000000000000 &
b0000101000100110 '
b1111010111011010 (
b0000010111011100 .
#168333316
0!
#169999983
1!
b0010001111011100 #
b0100011110111000 $
b1111111101000100 &
b0000101001111111 '
b1111011000111101 (
0)
b100 ,
b0000010111101101 .
#171666649
0!
#173333316
1!
b0010010010010000 #
b0100100100100000 $
b1111111010001000 &
b0000101011001110 '
b1111011010101010 (
b0000010111111011 .
#174999982
0!
#176666649
1!
b0010010101000100 #
b0100101010001000 $
b1111110111001110 &
b0000101100010001 '
b1111011100100001 (
b0000011000000101 .
#178333315
0!
#179999982
1!
b0010010111111000 #
b0100101111110000 $
b1111110100010110 &
b0000101101001001 '
b1111011110100001 (
b0000011000001001 .
#181666648
0!
#183333315
1!
b0010011010101100 #
b0100110101011000 $
b1111110001100001 &
b0000101101110110 '
b1111100000101001 (
b0000011000000111 .
#184999981
0!
#186666648
1!
b0010011101100000 #
b0100111011000000 $
b1111101110110000 &
b0000101110011000 '
b1111100010111001 (
b0000010111111111 .
#188333314
0!
#189999981
1!
b0010100000010100 #
b0101000000101000 $
b1111101100000011 &
b0000101110101101 '
b1111100101010000 (
b0000010111110010 .
#191666647
0!
#193333314
1!
b0010100011001000 #
b0101000110010000 $
b1111101001011011 &
b0000101110110111 '
b1111100111101110 (
b0000010111100010 .
#194999980
0!
#196666647
1!
b0010100101111100 #
b0101001011111000 $
b1111100110111001 &
b0000101110110101 '
b1111101010010010 (
b0000010111010001 .
#198333313
0!
#199999980
1!
b0010101000110000 #
b0101010001100000 $
b1111100100011101 &
b0000101110101000 '
b1111101100111100 (
b0000010111000010 .
#201666646
0!
#203333313
1!
b0010101011100100 #
b0101010111001000 $
b1111100010001000 &
b0000101110001110 '
b1111101111101010 (
b0000010110110110 .
#204999979
0!
#206666646
1!
b0010101110011000 #
b0101011100110000 $
b1111011111111010 &
b0000101101101001 '
b1111110010011101 (
b0000010110110000 .
#208333312
0!
#209999979
1!
b0010110001001100 #
b0101100010011000 $
b1111011101110101 &
b0000101100111000 '
b1111110101010011 (
#211666645
0!
#213333312
1!
b0010110100000000 #
b0101101000000000 $
b1111011011111000 &
b0000101011111100 '
b1111111000001100 (
b0000010110110110 .
#214999978
0!
#216666645
1!
b0010110110110100 #
b0101101101101000 $
b1111011010000101 &
b0000101010110101 '
b1111111011000110 (
b0000010111000010 .
#218333311
0!
#219999978
1!
b0010111001101000 #
b0101110011010000 $
b1111011000011011 &
b0000101001100011 '
b1111111110000010 (
b0000010111010001 .
#221666644
0!
#223333311
1!
b0010111100011100 #
b0101111000111000 $
b1111010110111011 &
b0000101000000110 '
b0000000000111111 (
1+
b101 ,
b0000010111100010 .
#224999977
0!
#226666644
1!
b0010111111010000 #
b0101111110100000 $
b1111010101100110 &
b0000100110011111 '
b0000000011111011 (
b0000010111110010 .
#228333310
0!
#229999977
1!
b0011000010000100 #
b0110000100001000 $
b1111010100011011 &
b0000100100101111 '
b0000000110110110 (
b0000010111111111 .
#231666643
0!
#233333310
1!
b0011000100111000 #
b0110001001110000 $
b1111010011011011 &
b0000100010110101 '
b0000001001110000 (
b0000011000000111 .
#234999976
0!
#236666643
1!
b0011000111101100 #
b0110001111011000 $
b1111010010100110 &
b0000100000110011 '
b0000001100100111 (
b0000011000001001 .
#238333309
0!
#239999976
1!
b0011001010100000 #
b0110010101000000 $
b1111010001111101 &
b0000011110101000 '
b0000001111011011 (
b0000011000000101 .
#241666642
0!
#243333309
1!
b0011001101010100 #
b0110011010101000 $
b1111010001100000 &
b0000011100010110 '
b0000010010001011 (
b0000010111111011 .
#244999975
0!
#246666642
1!
b0011010000001000 #
b0110100000010000 $
b1111010001001110 &
b0000011001111100 '
b0000010100110110 (
b0000010111101101 .
#248333308
0!
#249999975
1!
b0011010010111100 #
b0110100101111000 $
b1111010001001000 &
b0000010111011100 '
b0000010111011100 (
b0000010111011100 .
#251666641
0!
#253333308
1!
b0011010101110000 #
b0110101011100000 $
b1111010001001110 &
b0000010100110110 '
b0000011001111100 (
b0000010111001011 .
#254999974
0!
#256666641
1!
b0011011000100100 #
b0110110001001000 $
b1111010001100000 &
b0000010010001011 '
b0000011100010110 (
b0000010110111101 .
#258333307
0!
#259999974
1!
b0011011011011000 #
b0110110110110000 $
b1111010001111101 &
b0000001111011011 '
b0000011110101000 (
b0000010110110011 .
#261666640
0!
#263333307
1!
b0011011110001100 #
b0110111100011000 $
b1111010010100110 &
b0000001100100111 '
b0000100000110011 (
b0000010110101111 .
#264999973
0!
#266666640
1!
b0011100001000000 #
b0111000010000000 $
b1111010011011011 &
b0000001001110000 '
b0000100010110101 (
b0000010110110001 .
#268333306
0!
#269999973
1!
b0011100011110100 #
b0111000111101000 $
b1111010100011011 &
b0000000110110110 '
b0000100100101111 (
b0000010110111001 .
#271666639
0!
#273333306
1!
b0011100110101000 #
b0111001101010000 $
b1111010101100110 &
b0000000011111011 '
b0000100110011111 (
b0000010111000110 .
#274999972
0!
#276666639
1!
b0011101001011100 #
b0111010010111000 $
b1111010110111011 &
b0000000000111111 '
b0000101000000110 (
b0000010111010110 .
#278333305
0!
#279999972
1!
b0011101100010000 #
b0111011000100000 $
b1111011000011011 &
b1111111110000010 '
b0000101001100011 (
0*
b110 ,
b0000010111100111 .
#281666638
0!
#283333305
1!
b0011101111000100 #
b0111011110001000 $
b1111011010000101 &
b1111111011000110 '
b0000101010110101 (
b0000010111110110 .
#284999971
0!
#286666638
1!
b0011110001111000 #
b0111100011110000 $
b1111011011111000 &
b1111111000001100 '
b0000101011111100 (
b0000011000000010 .
#288333304
0!
#289999971
1!
b0011110100101100 #
b0111101001011000 $
b1111011101110101 &
b1111110101010011 '
b0000101100111000 (
b0000011000001000 .
#291666637
0!
#293333304
1!
b0011110111100000 #
b0111101111000000 $
b1111011111111010 &
b1111110010011101 '
b0000101101101001 (
#294999970
0!
#296666637
1!
b0011111010010100 #
b0111110100101000 $
b1111100010001000 &
b1111101111101010 '
b0000101110001110 (
b0000011000000010 .
#298333303
0!
#299999970
1!
b0011111101001000 #
b0111111010010000 $
b1111100100011101 &
b1111101100111100 '
b0000101110101000 (
b0000010111110110 .
#301666636
0!
#303333303
1!
b0011111111111100 #
b0111111111111000 $
b1111100110111001 &
b1111101010010010 '
b0000101110110101 (
b0000010111100111 .
#304999969
0!
#306666636
1!
b0100000010110000 #
b1000000101100000 $
b1111101001011011 &
b1111100111101110 '
b0000101110110111 (
b0000010111010110 .
#308333302
0!
#309999969
1!
b0100000101100100 #
b1000001011001000 $
b1111101100000011 &
b1111100101010000 '
b0000101110101101 (
b0000010111000110 .
#311666635
0!
#313333302
1!
b0100001000011000 #
b1000010000110000 $
b1111101110110000 &
b1111100010111001 '
b0000101110011000 (
b0000010110111001 .
#314999968
0!
#316666635
1!
b0100001011001100 #
b1000010110011000 $
b1111110001100001 &
b1111100000101001 '
b0000101101110110 (
b0000010110110001 .
#318333301
0!
#319999968
1!
b0100001110000000 #
b1000011100000000 $
b1111110100010110 &
b1111011110100001 '
b0000101101001001 (
b0000010110101111 .
#321666634
0!
#323333301
1!
b0100010000110100 #
b1000100001101000 $
b1111110111001110 &
b1111011100100001 '
b0000101100010001 (
b0000010110110011 .
#324999967
0!
#326666634
1!
b0100010011101000 #
b1000100111010000 $
b1111111010001000 &
b1111011010101010 '
b0000101011001110 (
b0000010110111101 .
#328333300
0!
#329999967
1!
b0100010110011100 #
b1000101100111000 $
b1111111101000100 &
b1111011000111101 '
b0000101001111111 (
b0000010111001011 .
#331666633
0!
#333333300
1!
b0100011001010000 #
b0000000000000000 $
b0000000000000000 &
b1111010111011010 '
b0000101000100110 (
1)
b001 ,
b0000010111011100 .
#334999966
0!
#336666633
1!
b0100011100000100 #
b0000000101101000 $
b0000000010111100 &
b1111010110000001 '
b0000100111000011 (
b0000010111101101 .
#338333299
0!
#339999966
1!
b0100011110111000 #
b0000001011010000 $
b0000000101111000 &
b1111010100110010 '
b0000100101010110 (
b0000010111111011 .
#341666632
0!
#343333299
1!
b0100100001101100 #
b0000010000111000 $
b0000001000110010 &
b1111010011101111 '
b0000100011011111 (
b0000011000000101 .
#344999965
0!
#346666632
1!
b0100100100100000 #
b0000010110100000 $
b0000001011101010 &
b1111010010110111 '
b0000100001011111 (
b0000011000001001 .
#348333298
0!
#349999965
1!
b0100100111010100 #
b0000011100001000 $
b0000001110011111 &
b1111010010001010 '
b0000011111010111 (
b0000011000000111 .
#351666631
0!
#353333298
1!
b0100101010001000 #
b0000100001110000 $
b0000010001010000 &
b1111010001101000 '
b0000011101000111 (
b0000010111111111 .
#354999964
0!
#356666631
1!
b0100101100111100 #
b0000100111011000 $
b0000010011111101 &
b1111010001010011 '
b0000011010110000 (
b0000010111110010 .
#358333297
0!
#359999964
1!
b0100101111110000 #
b0000101101000000 $
b0000010110100101 &
b1111010001001001 '
b0000011000010010 (
b0000010111100010 .
#361666630
0!
#363333297
1!
b0100110010100100 #
b0000110010101000 $
b0000011001000111 &
b1111010001001011 '
b0000010101101110 (
b0000010111010001 .
#364999963
0!
#366666630
1!
b0100110101011000 #
b0000111000010000 $
b0000011011100011 &
b1111010001011000 '
b0000010011000100 (
b0000010111000010 .
#368333296
0!
#369999963
1!
b0100111000001100 #
b0000111101111000 $
b0000011101111000 &
b1111010001110010 '
b0000010000010110 (
b0000010110110110 .
#371666629
0!
#373333296
1!
b0100111011000000 #
b0001000011100000 $
b0000100000000110 &
b1111010010010111 '
b0000001101100011 (
b0000010110110000 .
#374999962
0!
#376666629
1!
b0100111101110100 #
b0001001001001000 $
b0000100010001011 &
b1111010011001000 '
b0000001010101101 (
#378333295
0!
#379999962
1!
b0101000000101000 #
b0001001110110000 $
b0000100100001000 &
b1111010100000100 '
b0000000111110100 (
b0000010110110110 .
#381666628
0!
#383333295
1!
b0101000011011100 #
b0001010100011000 $
b0000100101111011 &
b1111010101001011 '
b0000000100111010 (
b0000010111000010 .
#384999961
0!
#386666628
1!
b0101000110010000 #
b0001011010000000 $
b0000100111100101 &
b1111010110011101 '
b0000000001111110 (
b0000010111010001 .
#388333294
0!
#389999961
1!
b0101001001000100 #
b0001011111101000 $
b0000101001000101 &
b1111010111111010 '
b1111111111000001 (
0+
b010 ,
b0000010111100010 .
#391666627
0!
#393333294
1!
b0101001011111000 #
b0001100101010000 $
b0000101010011010 &
b1111011001100001 '
b1111111100000101 (
b0000010111110010 .
#394999960
0!
#396666627
1!
b0101001110101100 #
b0001101010111000 $
b0000101011100101 &
b1111011011010001 '
b1111111001001010 (
b0000010111111111 .
#398333293
0!
#399999960
1!
b0101010001100000 #
b0001110000100000 $
b0000101100100101 &
b1111011101001011 '
b1111110110010000 (
b0000011000000111 .
#401666626
0!
#403333293
1!
b0101010100010100 #
b0001110110001000 $
b0000101101011010 &
b1111011111001101 '
b1111110011011001 (
b0000011000001001 .
#404999959
0!
#406666626
1!
b0101010111001000 #
b0001111011110000 $
b0000101110000011 &
b1111100001011000 '
b1111110000100101 (
b0000011000000101 .
#408333292
0!
#409999959
1!
b0101011001111100 #
b0010000001011000 $
b0000101110100000 &
b1111100011101010 '
b1111101101110101 (
b0000010111111011 .
#411666625
0!
#413333292
1!
b0101011100110000 #
b0010000111000000 $
b0000101110110010 &
b1111100110000100 '
b1111101011001010 (
b0000010111101101 .
#414999958
0!
#416666625
1!
b0101011111100100 #
b0010001100101000 $
b0000101110111000 &
b1111101000100100 '
b1111101000100100 (
b0000010111011100 .
#418333291
0!
#419999958
1!
b0101100010011000 #
b0010010010010000 $
b0000101110110010 &
b1111101011001010 '
b1111100110000100 (
b0000010111001011 .
#421666624
0!
#423333291
1!
b0101100101001100 #
b0010010111111000 $
b0000101110100000 &
b1111101101110101 '
b1111100011101010 (
b0000010110111101 .
#424999957
0!
#426666624
1!
b0101101000000000 #
b0010011101100000 $
b0000101110000011 &
b1111110000100101 '
b1111100001011000 (
b0000010110110011 .
#428333290
0!
#429999957
1!
b0101101010110100 #
b0010100011001000 $
b0000101101011010 &
b1111110011011001 '
b1111011111001101 (
b0000010110101111 .
#431666623
0!
#433333290
1!
b0101101101101000 #
b0010101000110000 $
b0000101100100101 &
b1111110110010000 '
b1111011101001011 (
b0000010110110001 .
#434999956
0!
#436666623
1!
b0101110000011100 #
b0010101110011000 $
b0000101011100101 &
b1111111001001010 '
b1111011011010001 (
b0000010110111001 .
#438333289
0!
#439999956
1!
b0101110011010000 #
b0010110100000000 $
b0000101010011010 &
b1111111100000101 '
b1111011001100001 (
b0000010111000110 .
#441666622
0!
#443333289
1!
b0101110110000100 #
b0010111001101000 $
b0000101001000101 &
b1111111111000001 '
b1111010111111010 (
b0000010111010110 .
#444999955
0!
#446666622
1!
b0101111000111000 #
b0010111111010000 $
b0000100111100101 &
b0000000001111110 '
b1111010110011101 (
1*
b011 ,
b0000010111100111 .
#448333288
0!
#449999955
1!
b0101111011101100 #
b0011000100111000 $
b0000100101111011 &
b0000000100111010 '
b1111010101001011 (
b0000010111110110 .
#451666621
0!
#453333288
1!
b0101111110100000 #
b0011001010100000 $
b0000100100001000 &
b0000000111110100 '
b1111010100000100 (
b0000011000000010 .
#454999954
0!
#456666621
1!
b0110000001010100 #
b0011010000001000 $
b0000100010001011 &
b0000001010101101 '
b1111010011001000 (
b0000011000001000 .
#458333287
0!
#459999954
1!
b0110000100001000 #
b0011010101110000 $
b0000100000000110 &
b0000001101100011 '
b1111010010010111 (
#461666620
0!
#463333287
1!
b0110000110111100 #
b0011011011011000 $
b0000011101111000 &
b0000010000010110 '
b1111010001110010 (
b0000011000000010 .
#464999953
0!
#466666620
1!
b0110001001110000 #
b0011100001000000 $
b0000011011100011 &
b0000010011000100 '
b1111010001011000 (
b0000010111110110 .
#468333286
0!
#469999953
1!
b0110001100100100 #
b0011100110101000 $
b0000011001000111 &
b0000010101101110 '
b1111010001001011 (
b0000010111100111 .
#471666619
0!
#473333286
1!
b0110001111011000 #
b0011101100010000 $
b0000010110100101 &
b0000011000010010 '
b1111010001001001 (
b0000010111010110 .
#474999952
0!
#476666619
1!
b0110010010001100 #
b0011110001111000 $
b0000010011111101 &
b0000011010110000 '
b1111010001010011 (
b0000010111000110 .
#478333285
0!
#479999952
1!
b0110010101000000 #
b0011110111100000 $
b0000010001010000 &
b0000011101000111 '
b1111010001101000 (
b0000010110111001 .
#481666618
0!
#483333285
1!
b0110010111110100 #
b0011111101001000 $
b0000001110011111 &
b0000011111010111 '
b1111010010001010 (
b0000010110110001 .
#484999951
0!
#486666618
1!
b0110011010101000 #
b0100000010110000 $
b0000001011101010 &
b0000100001011111 '
b1111010010110111 (
b0000010110101111 .
#488333284
0!
#489999951
1!
b0110011101011100 #
b0100001000011000 $
b0000001000110010 &
b0000100011011111 '
b1111010011101111 (
b0000010110110011 .
#491666617
0!
#493333284
1!
b0110100000010000 #
b0100001110000000 $
b0000000101111000 &
b0000100101010110 '
b1111010100110010 (
b0000010110111101 .
#494999950
0!
#496666617
1!
b0110100011000100 #
b0100010011101000 $
b0000000010111100 &
b0000100111000011 '
b1111010110000001 (
b0000010111001011 .
#498333283
0!
#499999950
1!
b0110100101111000 #
b0100011001010000 $
b0000000000000000 &
b0000101000100110 '
b1111010111011010 (
0)
b100 ,
b0000010111011100 .
#501666616
0!
#503333283
1!
b0110101000101100 #
b0100011110111000 $
b1111111101000100 &
b0000101001111111 '
b1111011000111101 (
b0000010111101101 .
#504999949
0!
#506666616
1!
b0110101011100000 #
b0100100100100000 $
b1111111010001000 &
b0000101011001110 '
b1111011010101010 (
b0000010111111011 .
#508333282
0!
#509999949
1!
b0110101110010100 #
b0100101010001000 $
b1111110111001110 &
b0000101100010001 '
b1111011100100001 (
b0000011000000101 .
#511666615
0!
#513333282
1!
b0110110001001000 #
b0100101111110000 $
b1111110100010110 &
b0000101101001001 '
b1111011110100001 (
b0000011000001001 .
#514999948
0!
#516666615
1!
b0110110011111100 #
b0100110101011000 $
b1111110001100001 &
b0000101101110110 '
b1111100000101001 (
b0000011000000111 .
#518333281
0!
#519999948
1!
b0110110110110000 #
b0100111011000000 $
b1111101110110000 &
b0000101110011000 '
b1111100010111001 (
b0000010111111111 .
#521666614
0!
#523333281
1!
b0110111001100100 #
b0101000000101000 $
b1111101100000011 &
b0000101110101101 '
b1111100101010000 (
b0000010111110010 .
#524999947
0!
#526666614
1!
b0110111100011000 #
b0101000110010000 $
b1111101001011011 &
b0000101110110111 '
b1111100111101110 (
b0000010111100010 .
#528333280
0!
#529999947
1!
b0110111111001100 #
b0101001011111000 $
b1111100110111001 &
b0000101110110101 '
b1111101010010010 (
b0000010111010001 .
#531666613
0!
#533333280
1!
b0111000010000000 #
b0101010001100000 $
b1111100100011101 &
b0000101110101000 '
b1111101100111100 (
b0000010111000010 .
#534999946
0!
#536666613
1!
b0111000100110100 #
b0101010111001000 $
b1111100010001000 &
b0000101110001110 '
b1111101111101010 (
b0000010110110110 .
#538333279
0!
#539999946
1!
b0111000111101000 #
b0101011100110000 $
b1111011111111010 &
b0000101101101001 '
b1111110010011101 (
b0000010110110000 .
#541666612
0!
#543333279
1!
b0111001010011100 #
b0101100010011000 $
b1111011101110101 &
b0000101100111000 '
b1111110101010011 (
#544999945
0!
#546666612
1!
b0111001101010000 #
b0101101000000000 $
b1111011011111000 &
b0000101011111100 '
b1111111000001100 (
b0000010110110110 .
#548333278
0!
#549999945
1!
b0111010000000100 #
b0101101101101000 $
b1111011010000101 &
b0000101010110101 '
b1111111011000110 (
b0000010111000010 .
#551666611
0!
#553333278
1!
b0111010010111000 #
b0101110011010000 $
b1111011000011011 &
b0000101001100011 '
b1111111110000010 (
b0000010111010001 .
#554999944
0!
#556666611
1!
b0111010101101100 #
b0101111000111000 $
b1111010110111011 &
b0000101000000110 '
b0000000000111111 (
1+
b101 ,
b0000010111100010 .
#558333277
0!
#559999944
1!
b0111011000100000 #
b0101111110100000 $
b1111010101100110 &
b0000100110011111 '
b0000000011111011 (
b0000010111110010 .
#561666610
0!
#563333277
1!
b0111011011010100 #
b0110000100001000 $
b1111010100011011 &
b0000100100101111 '
b0000000110110110 (
b0000010111111111 .
#564999943
0!
#566666610
1!
b0111011110001000 #
b0110001001110000 $
b1111010011011011 &
b0000100010110101 '
b0000001001110000 (
b0000011000000111 .
#568333276
0!
#569999943
1!
b0111100000111100 #
b0110001111011000 $
b1111010010100110 &
b0000100000110011 '
b0000001100100111 (
b0000011000001001 .
#571666609
0!
#573333276
1!
b0111100011110000 #
b0110010101000000 $
b1111010001111101 &
b0000011110101000 '
b0000001111011011 (
b0000011000000101 .
#574999942
0!
#576666609
1!
b0111100110100100 #
b0110011010101000 $
b1111010001100000 &
b0000011100010110 '
b0000010010001011 (
b0000010111111011 .
#578333275
0!
#579999942
1!
b0111101001011000 #
b0110100000010000 $
b1111010001001110 &
b0000011001111100 '
b0000010100110110 (
b0000010111101101 .
#581666608
0!
#583333275
1!
b0111101100001100 #
b0110100101111000 $
b1111010001001000 &
b0000010111011100 '
b0000010111011100 (
b0000010111011100 .
#584999941
0!
#586666608
1!
b0111101111000000 #
b0110101011100000 $
b1111010001001110 &
b0000010100110110 '
b0000011001111100 (
b0000010111001011 .
#588333274
0!
#589999941
1!
b0111110001110100 #
b0110110001001000 $
b1111010001100000 &
b0000010010001011 '
b0000011100010110 (
b0000010110111101 .
#591666607
0!
#593333274
1!
b0111110100101000 #
b0110110110110000 $
b1111010001111101 &
b0000001111011011 '
b0000011110101000 (
b0000010110110011 .
#594999940
0!
#596666607
1!
b0111110111011100 #
b0110111100011000 $
b1111010010100110 &
b0000001100100111 '
b0000100000110011 (
b0000010110101111 .
#598333273
0!
#599999940
1!
b0111111010010000 #
b0111000010000000 $
b1111010011011011 &
b0000001001110000 '
b0000100010110101 (
b0000010110110001 .
#601666606
0!
#603333273
1!
b0111111101000100 #
b0111000111101000 $
b1111010100011011 &
b0000000110110110 '
b0000100100101111 (
b0000010110111001 .
#604999939
0!
#606666606
1!
b0111111111111000 #
b0111001101010000 $
b1111010101100110 &
b0000000011111011 '
b0000100110011111 (
b0000010111000110 .
#608333272
0!
#609999939
1!
b1000000010101100 #
b0111010010111000 $
b1111010110111011 &
b0000000000111111 '
b0000101000000110 (
b0000010111010110 .
#611666605
0!
#613333272
1!
b1000000101100000 #
b0111011000100000 $
b1111011000011011 &
b1111111110000010 '
b0000101001100011 (
0*
b110 ,
b0000010111100111 .
#614999938
0!
#616666605
1!
b1000001000010100 #
b0111011110001000 $
b1111011010000101 &
b1111111011000110 '
b0000101010110101 (
b0000010111110110 .
#618333271
0!
#619999938
1!
b1000001011001000 #
b0111100011110000 $
b1111011011111000 &
b1111111000001100 '
b0000101011111100 (
b0000011000000010 .
#621666604
0!
#623333271
1!
b1000001101111100 #
b0111101001011000 $
b1111011101110101 &
b1111110101010011 '
b0000101100111000 (
b0000011000001000 .
#624999937
0!
#626666604
1!
b1000010000110000 #
b0111101111000000 $
b1111011111111010 &
b1111110010011101 '
b0000101101101001 (
#628333270
0!
#629999937
1!
b1000010011100100 #
b0111110100101000 $
b1111100010001000 &
b1111101111101010 '
b0000101110001110 (
b0000011000000010 .
#631666603
0!
