fixtures/pro/stage/dsp/xy_qpsk_symbols.vcd
$version Generated by tool/generate_dsp_fixtures.dart $end
$comment QPSK symbol stream (4-point constellation), Q15 I/Q on a symbol clock $end
$date 2026-07-18 $end
$timescale 1ns $end
$scope module top $end
$scope module dsp $end
$var wire 1 ! sclk $end
$var wire 16 " sample $end
$var wire 16 # imag $end
$upscope $end
$upscope $end
$enddefinitions $end
$dumpvars
0!
b0000000000000000 "
b0000000000000000 #
$end
#20833
1!
b1011001100110100 "
b1011001100110100 #
#31249
0!
#41666
1!
b1011001100110100 "
b0100110011001100 #
#52082
0!
#62499
1!
b0100110011001100 "
b1011001100110100 #
#72915
0!
#83332
1!
b0100110011001100 "
b0100110011001100 #
#93748
0!
#104165
1!
b1011001100110100 "
b1011001100110100 #
#114581
0!
#124998
1!
b1011001100110100 "
b0100110011001100 #
#135414
0!
#145831
1!
b0100110011001100 "
b1011001100110100 #
#156247
0!
#166664
1!
b0100110011001100 "
b0100110011001100 #
#177080
0!
#187497
1!
b1011001100110100 "
b1011001100110100 #
#197913
0!
#208330
1!
b1011001100110100 "
b0100110011001100 #
#218746
0!
#229163
1!
b0100110011001100 "
b1011001100110100 #
#239579
0!
#249996
1!
b0100110011001100 "
b0100110011001100 #
#260412
0!
#270829
1!
b1011001100110100 "
b1011001100110100 #
#281245
0!
#291662
1!
b1011001100110100 "
b0100110011001100 #
#302078
0!
#312495
1!
b0100110011001100 "
b1011001100110100 #
#322911
0!
#333328
1!
b0100110011001100 "
b0100110011001100 #
#343744
0!
#354161
1!
b1011001100110100 "
b1011001100110100 #
#364577
0!
#374994
1!
b1011001100110100 "
b0100110011001100 #
#385410
0!
#395827
1!
b0100110011001100 "
b1011001100110100 #
#406243
0!
#416660
1!
b0100110011001100 "
b0100110011001100 #
#427076
0!
#437493
1!
b1011001100110100 "
b1011001100110100 #
#447909
0!
#458326
1!
b1011001100110100 "
b0100110011001100 #
#468742
0!
#479159
1!
b0100110011001100 "
b1011001100110100 #
#489575
0!
#499992
1!
b0100110011001100 "
b0100110011001100 #
#510408
0!
#520825
1!
b1011001100110100 "
b1011001100110100 #
#531241
0!
#541658
1!
b1011001100110100 "
b0100110011001100 #
#552074
0!
#562491
1!
b0100110011001100 "
b1011001100110100 #
#572907
0!
#583324
1!
b0100110011001100 "
b0100110011001100 #
#593740
0!
#604157
1!
b1011001100110100 "
b1011001100110100 #
#614573
0!
#624990
1!
b1011001100110100 "
b0100110011001100 #
#635406
0!
#645823
1!
b0100110011001100 "
b1011001100110100 #
#656239
0!
#666656
1!
b0100110011001100 "
b0100110011001100 #
#677072
0!
#687489
1!
b1011001100110100 "
b1011001100110100 #
#697905
0!
#708322
1!
b1011001100110100 "
b0100110011001100 #
#718738
0!
#729155
1!
b0100110011001100 "
b1011001100110100 #
#739571
0!
#749988
1!
b0100110011001100 "
b0100110011001100 #
#760404
0!
#770821
1!
b1011001100110100 "
b1011001100110100 #
#781237
0!
#791654
1!
b1011001100110100 "
b0100110011001100 #
#802070
0!
#812487
1!
b0100110011001100 "
b1011001100110100 #
#822903
0!
#833320
1!
b0100110011001100 "
b0100110011001100 #
#843736
0!
#854153
1!
b1011001100110100 "
b1011001100110100 #
#864569
0!
#874986
1!
b1011001100110100 "
b0100110011001100 #
#885402
0!
#895819
1!
b0100110011001100 "
b1011001100110100 #
#906235
0!
#916652
1!
b0100110011001100 "
b0100110011001100 #
#927068
0!
#937485
1!
b1011001100110100 "
b1011001100110100 #
#947901
0!
#958318
1!
b1011001100110100 "
b0100110011001100 #
#968734
0!
#979151
1!
b0100110011001100 "
b1011001100110100 #
#989567
0!
#999984
1!
b0100110011001100 "
b0100110011001100 #
#1010400
0!
#1020817
1!
b1011001100110100 "
b1011001100110100 #
#1031233
0!
#1041650
1!
b1011001100110100 "
b0100110011001100 #
#1052066
0!
#1062483
1!
b0100110011001100 "
b1011001100110100 #
#1072899
0!
#1083316
1!
b0100110011001100 "
b0100110011001100 #
#1093732
0!
#1104149
1!
b1011001100110100 "
b1011001100110100 #
#1114565
0!
#1124982
1!
b1011001100110100 "
b0100110011001100 #
#1135398
0!
#1145815
1!
b0100110011001100 "
b1011001100110100 #
#1156231
0!
#1166648
1!
b0100110011001100 "
b0100110011001100 #
#1177064
0!
#1187481
1!
b1011001100110100 "
b1011001100110100 #
#1197897
0!
#1208314
1!
b1011001100110100 "
b0100110011001100 #
#1218730
0!
#1229147
1!
b0100110011001100 "
b1011001100110100 #
#1239563
0!
#1249980
1!
b0100110011001100 "
b0100110011001100 #
#1260396
0!
#1270813
1!
b1011001100110100 "
b1011001100110100 #
#1281229
0!
#1291646
1!
b1011001100110100 "
b0100110011001100 #
#1302062
0!
#1312479
1!
b0100110011001100 "
b1011001100110100 #
#1322895
0!
#1333312
1!
b0100110011001100 "
b0100110011001100 #
#1343728
0!
#1354145
1!
b1011001100110100 "
b1011001100110100 #
#1364561
0!
#1374978
1!
b1011001100110100 "
b0100110011001100 #
#1385394
0!
#1395811
1!
b0100110011001100 "
b1011001100110100 #
#1406227
0!
#1416644
1!
b0100110011001100 "
b0100110011001100 #
#1427060
0!
#1437477
1!
b1011001100110100 "
b1011001100110100 #
#1447893
0!
#1458310
1!
b1011001100110100 "
b0100110011001100 #
#1468726
0!
#1479143
1!
b0100110011001100 "
b1011001100110100 #
#1489559
0!
#1499976
1!
b0100110011001100 "
b0100110011001100 #
#1510392
0!
#1520809
1!
b1011001100110100 "
b1011001100110100 #
#1531225
0!
#1541642
1!
b1011001100110100 "
b0100110011001100 #
#1552058
0!
#1562475
1!
b0100110011001100 "
b1011001100110100 #
#1572891
0!
#1583308
1!
b0100110011001100 "
b0100110011001100 #
#1593724
0!
#1604141
1!
b1011001100110100 "
b1011001100110100 #
#1614557
0!
#1624974
1!
b1011001100110100 "
b0100110011001100 #
#1635390
0!
#1645807
1!
b0100110011001100 "
b1011001100110100 #
#1656223
0!
#1666640
1!
b0100110011001100 "
b0100110011001100 #
#1677056
0!
#1687473
1!
b1011001100110100 "
b1011001100110100 #
#1697889
0!
#1708306
1!
b1011001100110100 "
b0100110011001100 #
#1718722
0!
#1729139
1!
b0100110011001100 "
b1011001100110100 #
#1739555
0!
#1749972
1!
b0100110011001100 "
b0100110011001100 #
#1760388
0!
#1770805
1!
b1011001100110100 "
b1011001100110100 #
#1781221
0!
#1791638
1!
b1011001100110100 "
b0100110011001100 #
#1802054
0!
#1812471
1!
b0100110011001100 "
b1011001100110100 #
#1822887
0!
#1833304
1!
b0100110011001100 "
b0100110011001100 #
#1843720
0!
#1854137
1!
b1011001100110100 "
b1011001100110100 #
#1864553
0!
#1874970
1!
b1011001100110100 "
b0100110011001100 #
#1885386
0!
#1895803
1!
b0100110011001100 "
b1011001100110100 #
#1906219
0!
#1916636
1!
b0100110011001100 "
b0100110011001100 #
#1927052
0!
#1937469
1!
b1011001100110100 "
b1011001100110100 #
#1947885
0!
#1958302
1!
b1011001100110100 "
b0100110011001100 #
#1968718
0!
#1979135
1!
b0100110011001100 "
b1011001100110100 #
#1989551
0!
#1999968
1!
b0100110011001100 "
b0100110011001100 #
#2010384
0!
#2020801
1!
b1011001100110100 "
b1011001100110100 #
#2031217
0!
#2041634
1!
b1011001100110100 "
b0100110011001100 #
#2052050
0!
#2062467
1!
b0100110011001100 "
b1011001100110100 #
#2072883
0!
#2083300
1!
b0100110011001100 "
b0100110011001100 #
#2093716
0!
#2104133
1!
b1011001100110100 "
b1011001100110100 #
#2114549
0!
#2124966
1!
b1011001100110100 "
b0100110011001100 #
#2135382
0!
#2145799
1!
b0100110011001100 "
b1011001100110100 #
#2156215
0!
#2166632
1!
b0100110011001100 "
b0100110011001100 #
#2177048
0!
#2187465
1!
b1011001100110100 "
b1011001100110100 #
#2197881
0!
#2208298
1!
b1011001100110100 "
b0100110011001100 #
#2218714
0!
#2229131
1!
b0100110011001100 "
b1011001100110100 #
#2239547
0!
#2249964
1!
b0100110011001100 "
b0100110011001100 #
#2260380
0!
#2270797
1!
b1011001100110100 "
b1011001100110100 #
#2281213
0!
#2291630
1!
b1011001100110100 "
b0100110011001100 #
#2302046
0!
#2312463
1!
b0100110011001100 "
b1011001100110100 #
#2322879
0!
#2333296
1!
b0100110011001100 "
b0100110011001100 #
#2343712
0!
#2354129
1!
b1011001100110100 "
b1011001100110100 #
#2364545
0!
#2374962
1!
b1011001100110100 "
b0100110011001100 #
#2385378
0!
#2395795
1!
b0100110011001100 "
b1011001100110100 #
#2406211
0!
#2416628
1!
b0100110011001100 "
b0100110011001100 #
#2427044
0!
#2437461
1!
b1011001100110100 "
b1011001100110100 #
#2447877
0!
#2458294
1!
b1011001100110100 "
b0100110011001100 #
#2468710
0!
#2479127
1!
b0100110011001100 "
b1011001100110100 #
#2489543
0!
#2499960
1!
b0100110011001100 "
b0100110011001100 #
#2510376
0!
#2520793
1!
b1011001100110100 "
b1011001100110100 #
#2531209
0!
#2541626
1!
b1011001100110100 "
b0100110011001100 #
#2552042
0!
#2562459
1!
b0100110011001100 "
b1011001100110100 #
#2572875
0!
#2583292
1!
b0100110011001100 "
b0100110011001100 #
#2593708
0!
#2604125
1!
b1011001100110100 "
b1011001100110100 #
#2614541
0!
#2624958
1!
b1011001100110100 "
b0100110011001100 #
#2635374
0!
#2645791
1!
b0100110011001100 "
b1011001100110100 #
#2656207
0!
#2666624
1!
b0100110011001100 "
b0100110011001100 #
#2677040
0!
#2687457
1!
b1011001100110100 "
b1011001100110100 #
#2697873
0!
#2708290
1!
b1011001100110100 "
b0100110011001100 #
#2718706
0!
#2729123
1!
b0100110011001100 "
b1011001100110100 #
#2739539
0!
#2749956
1!
b0100110011001100 "
b0100110011001100 #
#2760372
0!
#2770789
1!
b1011001100110100 "
b1011001100110100 #
#2781205
0!
#2791622
1!
b1011001100110100 "
b0100110011001100 #
#2802038
0!
#2812455
1!
b0100110011001100 "
b1011001100110100 #
#2822871
0!
#2833288
1!
b0100110011001100 "
b0100110011001100 #
#2843704
0!
#2854121
1!
b1011001100110100 "
b1011001100110100 #
#2864537
0!
#2874954
1!
b1011001100110100 "
b0100110011001100 #
#2885370
0!
#2895787
1!
b0100110011001100 "
b1011001100110100 #
#2906203
0!
#2916620
1!
b0100110011001100 "
b0100110011001100 #
#2927036
0!
#2937453
1!
b1011001100110100 "
b1011001100110100 #
#2947869
0!
#2958286
1!
b1011001100110100 "
b0100110011001100 #
#2968702
0!
#2979119
1!
b0100110011001100 "
b1011001100110100 #
#2989535
0!
#2999952
1!
b0100110011001100 "
b0100110011001100 #
#3010368
0!
#3020785
1!
b1011001100110100 "
b1011001100110100 #
#3031201
0!
#3041618
1!
b1011001100110100 "
b0100110011001100 #
#3052034
0!
#3062451
1!
b0100110011001100 "
b1011001100110100 #
#3072867
0!
#3083284
1!
b0100110011001100 "
b0100110011001100 #
#3093700
0!
#3104117
1!
b1011001100110100 "
b1011001100110100 #
#3114533
0!
#3124950
1!
b1011001100110100 "
b0100110011001100 #
#3135366
0!
#3145783
1!
b0100110011001100 "
b1011001100110100 #
#3156199
0!
#3166616
1!
b0100110011001100 "
b0100110011001100 #
#3177032
0!
#3187449
1!
b1011001100110100 "
b1011001100110100 #
#3197865
0!
#3208282
1!
b1011001100110100 "
b0100110011001100 #
#3218698
0!
#3229115
1!
b0100110011001100 "
b1011001100110100 #
#3239531
0!
#3249948
1!
b0100110011001100 "
b0100110011001100 #
#3260364
0!
#3270781
1!
b1011001100110100 "
b1011001100110100 #
#3281197
0!
#3291614
1!
b1011001100110100 "
b0100110011001100 #
#3302030
0!
#3312447
1!
b0100110011001100 "
b1011001100110100 #
#3322863
0!
#3333280
1!
b0100110011001100 "
b0100110011001100 #
#3343696
0!
#3354113
1!
b1011001100110100 "
b1011001100110100 #
#3364529
0!
#3374946
1!
b1011001100110100 "
b0100110011001100 #
#3385362
0!
#3395779
1!
b0100110011001100 "
b1011001100110100 #
#3406195
0!
#3416612
1!
b0100110011001100 "
b0100110011001100 #
#3427028
0!
#3437445
1!
b1011001100110100 "
b1011001100110100 #
#3447861
0!
#3458278
1!
b1011001100110100 "
b0100110011001100 #
#3468694
0!
#3479111
1!
b0100110011001100 "
b1011001100110100 #
#3489527
0!
#3499944
1!
b0100110011001100 "
b0100110011001100 #
#3510360
0!
#3520777
1!
b1011001100110100 "
b1011001100110100 #
#3531193
0!
#3541610
1!
b1011001100110100 "
b0100110011001100 #
#3552026
0!
#3562443
1!
b0100110011001100 "
b1011001100110100 #
#3572859
0!
#3583276
1!
b0100110011001100 "
b0100110011001100 #
#3593692
0!
#3604109
1!
b1011001100110100 "
b1011001100110100 #
#3614525
0!
#3624942
1!
b1011001100110100 "
b0100110011001100 #
#3635358
0!
#3645775
1!
b0100110011001100 "
b1011001100110100 #
#3656191
0!
#3666608
1!
b0100110011001100 "
b0100110011001100 #
#3677024
0!
#3687441
1!
b1011001100110100 "
b1011001100110100 #
#3697857
0!
#3708274
1!
b1011001100110100 "
b0100110011001100 #
#3718690
0!
#3729107
1!
b0100110011001100 "
b1011001100110100 #
#3739523
0!
#3749940
1!
b0100110011001100 "
b0100110011001100 #
#3760356
0!
#3770773
1!
b1011001100110100 "
b1011001100110100 #
#3781189
0!
#3791606
1!
b1011001100110100 "
b0100110011001100 #
#3802022
0!
#3812439
1!
b0100110011001100 "
b1011001100110100 #
#3822855
0!
#3833272
1!
b0100110011001100 "
b0100110011001100 #
#3843688
0!
#3854105
1!
b1011001100110100 "
b1011001100110100 #
#3864521
0!
#3874938
1!
b1011001100110100 "
b0100110011001100 #
#3885354
0!
#3895771
1!
b0100110011001100 "
b1011001100110100 #
#3906187
0!
#3916604
1!
b0100110011001100 "
b0100110011001100 #
#3927020
0!
#3937437
1!
b1011001100110100 "
b1011001100110100 #
#3947853
0!
#3958270
1!
b1011001100110100 "
b0100110011001100 #
#3968686
0!
#3979103
1!
b0100110011001100 "
b1011001100110100 #
#3989519
0!
#3999936
1!
b0100110011001100 "
b0100110011001100 #
#4010352
0!
#4020769
1!
b1011001100110100 "
b1011001100110100 #
#4031185
0!
#4041602
1!
b1011001100110100 "
b0100110011001100 #
#4052018
0!
#4062435
1!
b0100110011001100 "
b1011001100110100 #
#4072851
0!
#4083268
1!
b0100110011001100 "
b0100110011001100 #
#4093684
0!
#4104101
1!
b1011001100110100 "
b1011001100110100 #
#4114517
0!
#4124934
1!
b1011001100110100 "
b0100110011001100 #
#4135350
0!
#4145767
1!
b0100110011001100 "
b1011001100110100 #
#4156183
0!
#4166600
1!
b0100110011001100 "
b0100110011001100 #
#4177016
0!
#4187433
1!
b1011001100110100 "
b1011001100110100 #
#4197849
0!
#4208266
1!
b1011001100110100 "
b0100110011001100 #
#4218682
0!
#4229099
1!
b0100110011001100 "
b1011001100110100 #
#4239515
0!
#4249932
1!
b0100110011001100 "
b0100110011001100 #
#4260348
0!
#4270765
1!
b1011001100110100 "
b1011001100110100 #
#4281181
0!
#4291598
1!
b1011001100110100 "
b0100110011001100 #
#4302014
0!
#4312431
1!
b0100110011001100 "
b1011001100110100 #
#4322847
0!
#4333264
1!
b0100110011001100 "
b0100110011001100 #
#4343680
0!
#4354097
1!
b1011001100110100 "
b1011001100110100 #
#4364513
0!
#4374930
1!
b1011001100110100 "
b0100110011001100 #
#4385346
0!
#4395763
1!
b0100110011001100 "
b1011001100110100 #
#4406179
0!
#4416596
1!
b0100110011001100 "
b0100110011001100 #
#4427012
0!
#4437429
1!
b1011001100110100 "
b1011001100110100 #
#4447845
0!
#4458262
1!
b1011001100110100 "
b0100110011001100 #
#4468678
0!
#4479095
1!
b0100110011001100 "
b1011001100110100 #
#4489511
0!
#4499928
1!
b0100110011001100 "
b0100110011001100 #
#4510344
0!
#4520761
1!
b1011001100110100 "
b1011001100110100 #
#4531177
0!
#4541594
1!
b1011001100110100 "
b0100110011001100 #
#4552010
0!
#4562427
1!
b0100110011001100 "
b1011001100110100 #
#4572843
0!
#4583260
1!
b0100110011001100 "
b0100110011001100 #
#4593676
0!
#4604093
1!
b1011001100110100 "
b1011001100110100 #
#4614509
0!
#4624926
1!
b1011001100110100 "
b0100110011001100 #
#4635342
0!
#4645759
1!
b0100110011001100 "
b1011001100110100 #
#4656175
0!
#4666592
1!
b0100110011001100 "
b0100110011001100 #
#4677008
0!
#4687425
1!
b1011001100110100 "
b1011001100110100 #
#4697841
0!
#4708258
1!
b1011001100110100 "
b0100110011001100 #
#4718674
0!
#4729091
1!
b0100110011001100 "
b1011001100110100 #
#4739507
0!
#4749924
1!
b0100110011001100 "
b0100110011001100 #
#4760340
0!
#4770757
1!
b1011001100110100 "
b1011001100110100 #
#4781173
0!
#4791590
1!
b1011001100110100 "
b0100110011001100 #
#4802006
0!
#4812423
1!
b0100110011001100 "
b1011001100110100 #
#4822839
0!
#4833256
1!
b0100110011001100 "
b0100110011001100 #
#4843672
0!
#4854089
1!
b1011001100110100 "
b1011001100110100 #
#4864505
0!
#4874922
1!
b1011001100110100 "
b0100110011001100 #
#4885338
0!
#4895755
1!
b0100110011001100 "
b1011001100110100 #
#4906171
0!
#4916588
1!
b0100110011001100 "
b0100110011001100 #
#4927004
0!
#4937421
1!
b1011001100110100 "
b1011001100110100 #
#4947837
0!
#4958254
1!
b1011001100110100 "
b0100110011001100 #
#4968670
0!
#4979087
1!
b0100110011001100 "
b1011001100110100 #
#4989503
0!
#4999920
1!
b0100110011001100 "
b0100110011001100 #
#5010336
0!
#5020753
1!
b1011001100110100 "
b1011001100110100 #
#5031169
0!
#5041586
1!
b1011001100110100 "
b0100110011001100 #
#5052002
0!
#5062419
1!
b0100110011001100 "
b1011001100110100 #
#5072835
0!
#5083252
1!
b0100110011001100 "
b0100110011001100 #
#5093668
0!
#5104085
1!
b1011001100110100 "
b1011001100110100 #
#5114501
0!
#5124918
1!
b1011001100110100 "
b0100110011001100 #
#5135334
0!
#5145751
1!
b0100110011001100 "
b1011001100110100 #
#5156167
0!
#5166584
1!
b0100110011001100 "
b0100110011001100 #
#5177000
0!
#5187417
1!
b1011001100110100 "
b1011001100110100 #
#5197833
0!
#5208250
1!
b1011001100110100 "
b0100110011001100 #
#5218666
0!
#5229083
1!
b0100110011001100 "
b1011001100110100 #
#5239499
0!
#5249916
1!
b0100110011001100 "
b0100110011001100 #
#5260332
0!
#5270749
1!
b1011001100110100 "
b1011001100110100 #
#5281165
0!
#5291582
1!
b1011001100110100 "
b0100110011001100 #
#5301998
0!
#5312415
1!
b0100110011001100 "
b1011001100110100 #
#5322831
0!
#5333248
1!
b0100110011001100 "
b0100110011001100 #
