fixtures/pro/stage/ps2_visualizer/mouse_demo.vcd
$version Generated by tool/generate_ps2_visualizer_fixtures.dart $end
$comment Mouse demo — 60-px square trace then L/R/M button cycle for visual verification of the PS/2 mouse visualizer. $end
$date 2026-05-04 $end
$timescale 1ns $end
$scope module top $end
$scope module ps2 $end
$var wire 1 ! clock $end
$var wire 1 " data $end
$upscope $end
$upscope $end
$enddefinitions $end
$dumpvars
1!
1"
$end
#20
0"
#50
0!
#100
1!
#150
0!
#200
1!
#250
0!
#300
1!
#350
0!
#400
1!
#420
1"
#450
0!
#500
1!
#520
0"
#550
0!
#600
1!
#650
0!
#700
1!
#750
0!
#800
1!
#850
0!
#900
1!
#950
0!
#1000
1!
#1020
1"
#1050
0!
#1100
1!
#1320
0"
#1350
0!
#1400
1!
#1450
0!
#1500
1!
#1550
0!
#1600
1!
#1620
1"
#1650
0!
#1700
1!
#1750
0!
#1800
1!
#1850
0!
#1900
1!
#1950
0!
#2000
1!
#2020
0"
#2050
0!
#2100
1!
#2150
0!
#2200
1!
#2220
1"
#2250
0!
#2300
1!
#2350
0!
#2400
1!
#2620
0"
#2650
0!
#2700
1!
#2750
0!
#2800
1!
#2850
0!
#2900
1!
#2950
0!
#3000
1!
#3050
0!
#3100
1!
#3150
0!
#3200
1!
#3250
0!
#3300
1!
#3350
0!
#3400
1!
#3450
0!
#3500
1!
#3520
1"
#3550
0!
#3600
1!
#3650
0!
#3700
1!
#3920
0"
#3950
0!
#4000
1!
#4050
0!
#4100
1!
#4150
0!
#4200
1!
#4250
0!
#4300
1!
#4320
1"
#4350
0!
#4400
1!
#4420
0"
#4450
0!
#4500
1!
#4520
1"
#4550
0!
#4600
1!
#4620
0"
#4650
0!
#4700
1!
#4750
0!
#4800
1!
#4820
1"
#4850
0!
#4900
1!
#4950
0!
#5000
1!
#5220
0"
#5250
0!
#5300
1!
#5350
0!
#5400
1!
#5450
0!
#5500
1!
#5550
0!
#5600
1!
#5650
0!
#5700
1!
#5750
0!
#5800
1!
#5850
0!
#5900
1!
#5950
0!
#6000
1!
#6050
0!
#6100
1!
#6120
1"
#6150
0!
#6200
1!
#6250
0!
#6300
1!
#6520
0"
#6550
0!
#6600
1!
#6650
0!
#6700
1!
#6750
0!
#6800
1!
#6820
1"
#6850
0!
#6900
1!
#6920
0"
#6950
0!
#7000
1!
#7050
0!
#7100
1!
#7150
0!
#7200
1!
#7220
1"
#7250
0!
#7300
1!
#7350
0!
#7400
1!
#7420
0"
#7450
0!
#7500
1!
#7520
1"
#7550
0!
#7600
1!
#7820
0"
#7850
0!
#7900
1!
#7950
0!
#8000
1!
#8050
0!
#8100
1!
#8150
0!
#8200
1!
#8220
1"
#8250
0!
#8300
1!
#8350
0!
#8400
1!
#8420
0"
#8450
0!
#8500
1!
#8550
0!
#8600
1!
#8650
0!
#8700
1!
#8720
1"
#8750
0!
#8800
1!
#8850
0!
#8900
1!
#9120
0"
#9150
0!
#9200
1!
#9250
0!
#9300
1!
#9350
0!
#9400
1!
#9420
1"
#9450
0!
#9500
1!
#9520
0"
#9550
0!
#9600
1!
#9650
0!
#9700
1!
#9750
0!
#9800
1!
#9820
1"
#9850
0!
#9900
1!
#9950
0!
#10000
1!
#10020
0"
#10050
0!
#10100
1!
#10120
1"
#10150
0!
#10200
1!
#10420
0"
#10450
0!
#10500
1!
#10550
0!
#10600
1!
#10650
0!
#10700
1!
#10750
0!
#10800
1!
#10850
0!
#10900
1!
#10950
0!
#11000
1!
#11050
0!
#11100
1!
#11150
0!
#11200
1!
#11250
0!
#11300
1!
#11320
1"
#11350
0!
#11400
1!
#11450
0!
#11500
1!
#11720
0"
#11750
0!
#11800
1!
#11850
0!
#11900
1!
#11950
0!
#12000
1!
#12050
0!
#12100
1!
#12120
1"
#12150
0!
#12200
1!
#12220
0"
#12250
0!
#12300
1!
#12350
0!
#12400
1!
#12450
0!
#12500
1!
#12550
0!
#12600
1!
#12650
0!
#12700
1!
#12720
1"
#12750
0!
#12800
1!
#13020
0"
#13050
0!
#13100
1!
#13150
0!
#13200
1!
#13250
0!
#13300
1!
#13350
0!
#13400
1!
#13450
0!
#13500
1!
#13550
0!
#13600
1!
#13650
0!
#13700
1!
#13750
0!
#13800
1!
#13850
0!
#13900
1!
#13920
1"
#13950
0!
#14000
1!
#14050
0!
#14100
1!
#14320
0"
#14350
0!
#14400
1!
#14450
0!
#14500
1!
#14550
0!
#14600
1!
#14620
1"
#14650
0!
#14700
1!
#14750
0!
#14800
1!
#14850
0!
#14900
1!
#14950
0!
#15000
1!
#15020
0"
#15050
0!
#15100
1!
#15150
0!
#15200
1!
#15220
1"
#15250
0!
#15300
1!
#15350
0!
#15400
1!
#15620
0"
#15650
0!
#15700
1!
#15720
1"
#15750
0!
#15800
1!
#15820
0"
#15850
0!
#15900
1!
#15950
0!
#16000
1!
#16020
1"
#16050
0!
#16100
1!
#16120
0"
#16150
0!
#16200
1!
#16250
0!
#16300
1!
#16350
0!
#16400
1!
#16450
0!
#16500
1!
#16520
1"
#16550
0!
#16600
1!
#16650
0!
#16700
1!
#16920
0"
#16950
0!
#17000
1!
#17050
0!
#17100
1!
#17120
1"
#17150
0!
#17200
1!
#17250
0!
#17300
1!
#17350
0!
#17400
1!
#17450
0!
#17500
1!
#17520
0"
#17550
0!
#17600
1!
#17650
0!
#17700
1!
#17750
0!
#17800
1!
#17820
1"
#17850
0!
#17900
1!
#17950
0!
#18000
1!
#18220
0"
#18250
0!
#18300
1!
#18350
0!
#18400
1!
#18450
0!
#18500
1!
#18550
0!
#18600
1!
#18650
0!
#18700
1!
#18750
0!
#18800
1!
#18850
0!
#18900
1!
#18950
0!
#19000
1!
#19050
0!
#19100
1!
#19120
1"
#19150
0!
#19200
1!
#19250
0!
#19300
1!
#19520
0"
#19550
0!
#19600
1!
#19650
0!
#19700
1!
#19750
0!
#19800
1!
#19850
0!
#19900
1!
#19920
1"
#19950
0!
#20000
1!
#20020
0"
#20050
0!
#20100
1!
#20150
0!
#20200
1!
#20250
0!
#20300
1!
#20350
0!
#20400
1!
#20450
0!
#20500
1!
#20520
1"
#20550
0!
#20600
1!
#20820
0"
#20850
0!
#20900
1!
#20950
0!
#21000
1!
#21050
0!
#21100
1!
#21150
0!
#21200
1!
#21250
0!
#21300
1!
#21350
0!
#21400
1!
#21450
0!
#21500
1!
#21550
0!
#21600
1!
#21650
0!
#21700
1!
#21720
1"
#21750
0!
#21800
1!
#21850
0!
#21900
1!
#22120
0"
#22150
0!
#22200
1!
#22250
0!
#22300
1!
#22350
0!
#22400
1!
#22450
0!
#22500
1!
#22550
0!
#22600
1!
#22650
0!
#22700
1!
#22750
0!
#22800
1!
#22850
0!
#22900
1!
#22950
0!
#23000
1!
#23020
1"
#23050
0!
#23100
1!
#23150
0!
#23200
1!
#23420
0"
#23450
0!
#23500
1!
#23550
0!
#23600
1!
#23620
1"
#23650
0!
#23700
1!
#23720
0"
#23750
0!
#23800
1!
#23820
1"
#23850
0!
#23900
1!
#23920
0"
#23950
0!
#24000
1!
#24020
1"
#24050
0!
#24100
1!
#24120
0"
#24150
0!
#24200
1!
#24250
0!
#24300
1!
#24350
0!
#24400
1!
#24420
1"
#24450
0!
#24500
1!
#24720
0"
#24750
0!
#24800
1!
#24850
0!
#24900
1!
#24950
0!
#25000
1!
#25050
0!
#25100
1!
#25150
0!
#25200
1!
#25250
0!
#25300
1!
#25350
0!
#25400
1!
#25450
0!
#25500
1!
#25550
0!
#25600
1!
#25620
1"
#25650
0!
#25700
1!
#25750
0!
#25800
1!
#26020
0"
#26050
0!
#26100
1!
#26150
0!
#26200
1!
#26220
1"
#26250
0!
#26300
1!
#26320
0"
#26350
0!
#26400
1!
#26450
0!
#26500
1!
#26550
0!
#26600
1!
#26620
1"
#26650
0!
#26700
1!
#26750
0!
#26800
1!
#26850
0!
#26900
1!
#26950
0!
#27000
1!
#27050
0!
#27100
1!
#27320
0"
#27350
0!
#27400
1!
#27450
0!
#27500
1!
#27550
0!
#27600
1!
#27650
0!
#27700
1!
#27720
1"
#27750
0!
#27800
1!
#27820
0"
#27850
0!
#27900
1!
#27950
0!
#28000
1!
#28050
0!
#28100
1!
#28150
0!
#28200
1!
#28250
0!
#28300
1!
#28320
1"
#28350
0!
#28400
1!
#28620
0"
#28650
0!
#28700
1!
#28750
0!
#28800
1!
#28850
0!
#28900
1!
#28950
0!
#29000
1!
#29050
0!
#29100
1!
#29150
0!
#29200
1!
#29250
0!
#29300
1!
#29350
0!
#29400
1!
#29450
0!
#29500
1!
#29520
1"
#29550
0!
#29600
1!
#29650
0!
#29700
1!
#29920
0"
#29950
0!
#30000
1!
#30050
0!
#30100
1!
#30150
0!
#30200
1!
#30250
0!
#30300
1!
#30350
0!
#30400
1!
#30450
0!
#30500
1!
#30550
0!
#30600
1!
#30650
0!
#30700
1!
#30750
0!
#30800
1!
#30820
1"
#30850
0!
#30900
1!
#30950
0!
#31000
1!
#31220
0"
#31250
0!
#31300
1!
#31350
0!
#31400
1!
#31450
0!
#31500
1!
#31520
1"
#31550
0!
#31600
1!
#31650
0!
#31700
1!
#31750
0!
#31800
1!
#31820
0"
#31850
0!
#31900
1!
#31950
0!
#32000
1!
#32050
0!
#32100
1!
#32150
0!
#32200
1!
#32220
1"
#32250
0!
#32300
1!
#32520
0"
#32550
0!
#32600
1!
#32650
0!
#32700
1!
#32720
1"
#32750
0!
#32800
1!
#32820
0"
#32850
0!
#32900
1!
#32950
0!
#33000
1!
#33050
0!
#33100
1!
#33120
1"
#33150
0!
#33200
1!
#33250
0!
#33300
1!
#33350
0!
#33400
1!
#33450
0!
#33500
1!
#33550
0!
#33600
1!
#33820
0"
#33850
0!
#33900
1!
#33950
0!
#34000
1!
#34050
0!
#34100
1!
#34150
0!
#34200
1!
#34250
0!
#34300
1!
#34350
0!
#34400
1!
#34450
0!
#34500
1!
#34550
0!
#34600
1!
#34650
0!
#34700
1!
#34720
1"
#34750
0!
#34800
1!
#34850
0!
#34900
1!
#35120
0"
#35150
0!
#35200
1!
#35250
0!
#35300
1!
#35350
0!
#35400
1!
#35450
0!
#35500
1!
#35520
1"
#35550
0!
#35600
1!
#35620
0"
#35650
0!
#35700
1!
#35750
0!
#35800
1!
#35850
0!
#35900
1!
#35950
0!
#36000
1!
#36050
0!
#36100
1!
#36120
1"
#36150
0!
#36200
1!
#36420
0"
#36450
0!
#36500
1!
#36550
0!
#36600
1!
#36650
0!
#36700
1!
#36750
0!
#36800
1!
#36850
0!
#36900
1!
#36950
0!
#37000
1!
#37050
0!
#37100
1!
#37150
0!
#37200
1!
#37250
0!
#37300
1!
#37320
1"
#37350
0!
#37400
1!
#37450
0!
#37500
1!
#37720
0"
#37750
0!
#37800
1!
#37850
0!
#37900
1!
#37950
0!
#38000
1!
#38050
0!
#38100
1!
#38150
0!
#38200
1!
#38250
0!
#38300
1!
#38350
0!
#38400
1!
#38450
0!
#38500
1!
#38550
0!
#38600
1!
#38620
1"
#38650
0!
#38700
1!
#38750
0!
#38800
1!
#39020
0"
#39050
0!
#39100
1!
#39150
0!
#39200
1!
#39250
0!
#39300
1!
#39350
0!
#39400
1!
#39420
1"
#39450
0!
#39500
1!
#39520
0"
#39550
0!
#39600
1!
#39650
0!
#39700
1!
#39750
0!
#39800
1!
#39850
0!
#39900
1!
#39950
0!
#40000
1!
#40020
1"
#40050
0!
#40100
1!
#40320
0"
#40350
0!
#40400
1!
#40450
0!
#40500
1!
#40550
0!
#40600
1!
#40650
0!
#40700
1!
#40750
0!
#40800
1!
#40850
0!
#40900
1!
#40950
0!
#41000
1!
#41050
0!
#41100
1!
#41150
0!
#41200
1!
#41220
1"
#41250
0!
#41300
1!
#41350
0!
#41400
1!
#41620
0"
#41650
0!
#41700
1!
#41750
0!
#41800
1!
#41820
1"
#41850
0!
#41900
1!
#41950
0!
#42000
1!
#42050
0!
#42100
1!
#42150
0!
#42200
1!
#42220
0"
#42250
0!
#42300
1!
#42350
0!
#42400
1!
#42450
0!
#42500
1!
#42520
1"
