fixtures/pro/protocol/ethernet/generated/ethernet_rmii_errors.vcd
$timescale 1ns $end
$scope module tb $end
$var wire 1 ! ref_clk $end
$var wire 1 # tx_en $end
$var wire 1 $ crs_dv $end
$var wire 2 % txd $end
$var wire 2 & rxd $end
$var wire 1 ' tx_er $end
$var wire 1 ( rx_er $end
$upscope $end
$enddefinitions $end
$dumpvars
0!
0#
0$
b00 %
b00 &
0'
0(
$end
#0
0!
#5
1!
#10
0!
#12
1$
b10 &
#15
1!
#20
0!
#22
b00 &
#25
1!
#30
0!
#35
1!
#40
0!
#45
1!
#50
0!
#55
1!
#60
0!
#65
1!
#70
0!
#75
1!
#80
0!
#85
1!
#90
0!
#95
1!
#100
0!
#105
1!
#110
0!
#115
1!
#120
0!
#125
1!
#130
0!
#135
1!
#140
0!
#145
1!
#150
0!
#155
1!
#160
0!
#165
1!
#170
0!
#175
1!
#180
0!
#185
1!
#190
0!
#195
1!
#200
0!
#205
1!
#210
0!
#212
b10 &
#215
1!
#220
0!
#222
b00 &
#225
1!
#230
0!
#235
1!
#240
0!
#245
1!
#250
0!
#252
b10 &
#255
1!
#260
0!
#262
b00 &
#265
1!
#270
0!
#275
1!
#280
0!
#285
1!
#290
0!
#295
1!
#300
0!
#305
1!
#310
0!
#315
1!
#320
0!
#325
1!
#330
0!
#335
1!
#340
0!
#345
1!
#350
0!
#355
1!
#360
0!
#365
1!
#370
0!
#375
1!
#380
0!
#385
1!
#390
0!
#395
1!
#400
0!
#405
1!
#410
0!
#415
1!
#420
0!
#425
1!
#430
0!
#435
1!
#440
0!
#445
1!
#450
0!
#452
b01 &
#455
1!
#460
0!
#462
b00 &
#465
1!
#470
0!
#475
1!
#480
0!
#485
1!
#490
0!
#495
1!
#500
0!
#502
b10 &
#505
1!
#510
0!
#512
b00 &
#515
1!
#520
0!
#525
1!
#530
0!
#535
1!
#540
0!
#545
1!
#550
0!
#555
1!
#560
0!
#565
1!
#570
0!
#572
b01 &
#575
1!
#580
0!
#585
1!
#590
0!
#592
b00 &
#595
1!
#600
0!
#602
b01 &
#605
1!
#610
0!
#612
b00 &
#615
1!
#620
0!
#625
1!
#630
0!
#635
1!
#640
0!
#645
1!
#650
0!
#655
1!
#660
0!
#665
1!
#670
0!
#675
1!
#680
0!
#685
1!
#690
0!
#695
1!
#700
0!
#702
b11 &
#705
1!
#710
0!
#712
b01 &
#715
1!
#720
0!
#722
b00 &
#725
1!
#730
0!
#735
1!
#740
0!
#745
1!
#750
0!
#755
1!
#760
0!
#765
1!
#770
0!
#775
1!
#780
0!
#785
1!
#790
0!
#795
1!
#800
0!
#805
1!
#810
0!
#815
1!
#820
0!
#825
1!
#830
0!
#835
1!
#840
0!
#842
b01 &
#845
1!
#850
0!
#852
b00 &
#855
1!
#860
0!
#865
1!
#870
0!
#875
1!
#880
0!
#885
1!
#890
0!
#895
1!
#900
0!
#905
1!
#910
0!
#915
1!
#920
0!
#922
b01 &
#925
1!
#930
0!
#935
1!
#940
0!
#942
b00 &
#945
1!
#950
0!
#952
b01 &
#955
1!
#960
0!
#962
b00 &
#965
1!
#970
0!
#975
1!
#980
0!
#985
1!
#990
0!
#995
1!
#1000
0!
#1005
1!
#1010
0!
#1015
1!
#1020
0!
#1025
1!
#1030
0!
#1035
1!
#1040
0!
#1045
1!
#1050
0!
#1052
b10 &
#1055
1!
#1060
0!
#1065
1!
#1070
0!
#1072
b00 &
#1075
1!
#1080
0!
#1085
1!
#1090
0!
#1095
1!
#1100
0!
#1105
1!
#1110
0!
#1115
1!
#1120
0!
#1125
1!
#1130
0!
#1135
1!
#1140
0!
#1145
1!
#1150
0!
#1155
1!
#1160
0!
#1165
1!
#1170
0!
#1172
b01 &
#1175
1!
#1180
0!
#1182
b00 &
#1185
1!
#1190
0!
#1195
1!
#1200
0!
#1205
1!
#1210
0!
#1212
b10 &
#1215
1!
#1220
0!
#1225
1!
#1230
0!
#1232
b00 &
#1235
1!
#1240
0!
#1245
1!
#1250
0!
#1255
1!
#1260
0!
#1265
1!
#1270
0!
#1275
1!
#1280
0!
#1285
1!
#1290
0!
#1295
1!
#1300
0!
#1305
1!
#1310
0!
#1315
1!
#1320
0!
#1325
1!
#1330
0!
#1332
b10 &
#1335
1!
#1340
0!
#1342
b00 &
#1345
1!
#1350
0!
#1355
1!
#1360
0!
#1365
1!
#1370
0!
#1375
1!
#1380
0!
#1385
1!
#1390
0!
#1392
b11 &
#1395
1!
#1400
0!
#1402
b00 &
#1405
1!
#1410
0!
#1412
b01 &
#1415
1!
#1420
0!
#1422
b10 &
#1425
1!
#1430
0!
#1432
b11 &
#1435
1!
#1440
0!
#1442
b00 &
#1445
1!
#1450
0!
#1455
1!
#1460
0!
#1465
1!
#1470
0!
#1475
1!
#1480
0!
#1485
1!
#1490
0!
#1492
b01 &
#1495
1!
#1500
0!
#1505
1!
#1510
0!
#1512
b11 &
#1515
1!
#1520
0!
#1522
b00 &
#1525
1!
#1530
0!
#1535
1!
#1540
0!
#1545
1!
#1550
0!
#1555
1!
#1560
0!
#1565
1!
#1570
0!
#1575
1!
#1580
0!
#1582
b10 &
#1585
1!
#1590
0!
#1592
b00 &
