fixtures/pro/protocol/ethernet/generated/ethernet_mii_basic.vcd
$timescale 1ns $end
$scope module tb $end
$var wire 1 ! tx_clk $end
$var wire 1 " rx_clk $end
$var wire 1 # tx_en $end
$var wire 1 $ rx_dv $end
$var wire 4 % txd $end
$var wire 4 & rxd $end
$var wire 1 ' tx_er $end
$var wire 1 ( rx_er $end
$upscope $end
$enddefinitions $end
$dumpvars
0!
0"
0#
0$
b0000 %
b0000 &
0'
0(
$end
#0
0!
0"
#5
1!
1"
#10
0!
0"
#12
1$
b0010 &
#15
1!
1"
#20
0!
0"
#22
b0000 &
#25
1!
1"
#30
0!
0"
#35
1!
1"
#40
0!
0"
#45
1!
1"
#50
0!
0"
#55
1!
1"
#60
0!
0"
#65
1!
1"
#70
0!
0"
#75
1!
1"
#80
0!
0"
#85
1!
1"
#90
0!
0"
#95
1!
1"
#100
0!
0"
#105
1!
1"
#110
0!
0"
#112
b0010 &
#115
1!
1"
#120
0!
0"
#122
b0000 &
#125
1!
1"
#130
0!
0"
#132
b0010 &
#135
1!
1"
#140
0!
0"
#142
b0000 &
#145
1!
1"
#150
0!
0"
#155
1!
1"
#160
0!
0"
#165
1!
1"
#170
0!
0"
#175
1!
1"
#180
0!
0"
#185
1!
1"
#190
0!
0"
#195
1!
1"
#200
0!
0"
#205
1!
1"
#210
0!
0"
#215
1!
1"
#220
0!
0"
#225
1!
1"
#230
0!
0"
#232
b0001 &
#235
1!
1"
#240
0!
0"
#242
b0000 &
#245
1!
1"
#250
0!
0"
#252
b1000 &
#255
1!
1"
#260
0!
0"
#262
b0000 &
#265
1!
1"
#270
0!
0"
#275
1!
1"
#280
0!
0"
#285
1!
1"
#290
0!
0"
#292
b0101 &
#295
1!
1"
#300
0!
0"
#302
b0100 &
#305
1!
1"
#310
0!
0"
#312
b0000 &
#315
1!
1"
#320
0!
0"
#325
1!
1"
#330
0!
0"
#335
1!
1"
#340
0!
0"
#345
1!
1"
#350
0!
0"
#352
b1100 &
#355
1!
1"
#360
0!
0"
#362
b0001 &
#365
1!
1"
#370
0!
0"
#372
b0000 &
#375
1!
1"
#380
0!
0"
#385
1!
1"
#390
0!
0"
#395
1!
1"
#400
0!
0"
#405
1!
1"
#410
0!
0"
#415
1!
1"
#420
0!
0"
#422
b0100 &
#425
1!
1"
#430
0!
0"
#432
b0000 &
#435
1!
1"
#440
0!
0"
#445
1!
1"
#450
0!
0"
#455
1!
1"
#460
0!
0"
#462
b0100 &
#465
1!
1"
#470
0!
0"
#472
b0001 &
#475
1!
1"
#480
0!
0"
#485
1!
1"
#490
0!
0"
#492
b0000 &
#495
1!
1"
#500
0!
0"
#505
1!
1"
#510
0!
0"
#515
1!
1"
#520
0!
0"
#525
1!
1"
#530
0!
0"
#532
b1010 &
#535
1!
1"
#540
0!
0"
#542
b0000 &
#545
1!
1"
#550
0!
0"
#555
1!
1"
#560
0!
0"
#565
1!
1"
#570
0!
0"
#575
1!
1"
#580
0!
0"
#585
1!
1"
#590
0!
0"
#592
b0001 &
#595
1!
1"
#600
0!
0"
#602
b0000 &
#605
1!
1"
#610
0!
0"
#612
b1010 &
#615
1!
1"
#620
0!
0"
#622
b0000 &
#625
1!
1"
#630
0!
0"
#635
1!
1"
#640
0!
0"
#645
1!
1"
#650
0!
0"
#655
1!
1"
#660
0!
0"
#665
1!
1"
#670
0!
0"
#672
b0010 &
#675
1!
1"
#680
0!
0"
#682
b0000 &
#685
1!
1"
#690
0!
0"
#695
1!
1"
#700
0!
0"
#702
b0011 &
#705
1!
1"
#710
0!
0"
#712
b1001 &
#715
1!
1"
#720
0!
0"
#722
b0011 &
#725
1!
1"
#730
0!
0"
#732
b0000 &
#735
1!
1"
#740
0!
0"
#745
1!
1"
#750
0!
0"
#752
b0101 &
#755
1!
1"
#760
0!
0"
#762
b0011 &
#765
1!
1"
#770
0!
0"
#772
b0000 &
#775
1!
1"
#780
0!
0"
#785
1!
1"
#790
0!
0"
#792
b1000 &
#795
1!
1"
#800
0!
0"
#802
b0000 &
