fixtures/pro/protocol/avalon_st/generated/avalon_st_basic.vcd
$timescale 1ns $end
$scope module tb $end
$var wire 1 ! clk $end
$var wire 1 # valid $end
$var wire 1 % startofpacket $end
$var wire 1 & endofpacket $end
$var wire 32 ' data $end
$var wire 2 ( empty $end
$upscope $end
$enddefinitions $end
$dumpvars
0!
0#
0%
0&
b00000000000000000000000000000000 '
b00 (
$end
#0
0!
#5
1!
#10
0!
#12
1#
1%
1&
b11101111101111101010110111011110 '
#15
1!
#20
0!
#22
0#
0%
0&
#25
1!
#30
0!
#35
1!
#40
0!
#45
1!
#50
0!
#55
1!
#60
0!
#62
1%
b00000011000000100000000100000000 '
1#
#65
1!
#70
0!
#72
0%
b00010011000100100001000100010000 '
#75
1!
#80
0!
#82
b00100011001000100010000100100000 '
#85
1!
#90
0!
#92
1&
b00110011001100100011000100110000 '
#95
1!
#100
0!
#102
0#
0&
#105
1!
#110
0!
#115
1!
#120
0!
#125
1!
#130
0!
#135
1!
#140
0!
#142
1#
1%
b10100011101000101010000110100000 '
#145
1!
#150
0!
#152
0%
b10110011101100101011000110110000 '
#155
1!
#160
0!
#162
1&
b00000000000000001100000111000000 '
b10 (
#165
1!
#170
0!
#172
0#
0&
