fixtures/pro/protocol/avalon_st/generated/avalon_st_errors.vcd
$timescale 1ns $end
$scope module tb $end
$var wire 1 ! clk $end
$var wire 1 " reset $end
$var wire 1 # valid $end
$var wire 1 % startofpacket $end
$var wire 1 & endofpacket $end
$var wire 32 ' data $end
$var wire 1 * error $end
$upscope $end
$enddefinitions $end
$dumpvars
0!
0"
0#
0%
0&
b00000000000000000000000000000000 '
0*
$end
#0
0!
#5
1!
#10
0!
#12
1#
1%
b10101101101011001010101110101010 '
#15
1!
#20
0!
#22
0%
b10110001101100001010111110101110 '
#25
1!
#30
0!
#32
b00010011000100100001000100010000 '
1%
1&
#35
1!
#40
0!
#42
0#
0%
0&
#45
1!
#50
0!
#55
1!
#60
0!
#65
1!
#70
0!
#75
1!
#80
0!
#82
1#
1%
b00100011001000100010000100100000 '
#85
1!
#90
0!
#92
0%
1&
b00100111001001100010010100100100 '
1*
#95
1!
#100
0!
#102
0#
0&
#105
1!
#110
0!
#115
1!
#120
0!
#125
1!
#130
0!
#135
1!
#140
0!
#142
1#
1%
b11100011111000101110000111100000 '
#145
1!
#150
0!
#152
0%
b11100111111001101110010111100100 '
#155
1!
#160
0!
#162
b11101011111010101110100111101000 '
#165
1!
#170
0!
#172
1"
0#
#175
1!
#180
0!
#182
0"
