fixtures/open-core/stage/boards/nexys_a7/nexys_a7_demo_vector.vcd
$date
  2026-06-07T00:00:00.000Z
$end
$version
  WaveCrux board demo fixture generator
$end
$comment
  Digilent Nexys A7 out-of-box demo — vector buses.
  LED show: cylon / VU bar / chase / switch-mirror / expand / sparkle.
  Seven-seg: decoded readout — counter / accelerometer axes (all digits live). Buttons: staggered presses.
  Re-generate with `dart run tool/generate_board_demo_fixtures.dart`.
$end
$timescale 1 ns $end
$scope module top $end
$var wire 16 ! leds $end
$var wire 16 " sws $end
$var wire 1 # btnC $end
$var wire 1 $ btnU $end
$var wire 1 % btnL $end
$var wire 1 & btnR $end
$var wire 1 ' btnD $end
$var wire 4 ( digit0 $end
$var wire 4 ) digit1 $end
$var wire 4 * digit2 $end
$var wire 4 + digit3 $end
$var wire 4 , digit4 $end
$var wire 4 - digit5 $end
$var wire 4 . digit6 $end
$var wire 4 / digit7 $end
$upscope $end
$enddefinitions $end
#0
$dumpvars
b1 !
b0 "
0#
0$
0%
0&
0'
b0 (
b0 )
b0 *
b1000 +
b0 ,
b0 -
b0 .
b0 /
$end
#40
b1001 (
b110 )
b11 *
b1111 ,
b1000 -
b10 .
#80
b11 (
b1101 )
b110 *
b1 -
b101 .
#120
b1101 (
b11 )
b1010 *
b1110 ,
b1010 -
b111 .
#160
b10 !
b111 (
b1010 )
b1101 *
b1101 ,
b11 -
b1010 .
#200
b1 (
b1 )
b1 *
b1001 +
b1100 -
b1100 .
#240
b1010 (
b111 )
b100 *
b1100 ,
b101 -
b1111 .
#280
b100 (
b1110 )
b111 *
b1011 ,
b1110 -
b1 .
b1 /
#320
b100 !
b1110 (
b100 )
b1011 *
b111 -
b100 .
#360
b1000 (
b1011 )
b1110 *
b1010 ,
b0 -
b111 .
#400
b10 (
b10 )
b10 *
b1010 +
b1001 -
b1001 .
#440
b1011 (
b1000 )
b101 *
b1001 ,
b10 -
b1100 .
#480
b1000 !
b1 "
b101 (
b1111 )
b1000 *
b1000 ,
b1011 -
b1110 .
#520
b1111 (
b101 )
b1100 *
b100 -
b1 .
b10 /
#560
b11 "
b1001 (
b1100 )
b1111 *
b111 ,
b1101 -
b11 .
#600
b10000 !
b11 (
b11 )
b11 *
b1011 +
b110 ,
b110 -
b110 .
#640
b1100 (
b1001 )
b110 *
b1111 -
b1000 .
#680
b111 "
b110 (
b0 )
b1010 *
b101 ,
b1000 -
b1011 .
#720
b0 (
b111 )
b1101 *
b100 ,
b1 -
b1110 .
#760
b100000 !
b1010 (
b1101 )
b0 *
b1100 +
b1010 -
b0 .
b11 /
#800
b1111 "
b100 (
b100 )
b100 *
b11 ,
b11 -
b11 .
#840
b1101 (
b1010 )
b111 *
b10 ,
b1100 -
b101 .
#880
b111 (
b1 )
b1011 *
b101 -
b1000 .
#920
b1000000 !
b11110 "
b1 (
b1000 )
b1110 *
b1 ,
b1110 -
b1010 .
#960
b1011 (
b1110 )
b1 *
b1101 +
b0 ,
b111 -
b1101 .
#1000
b111110 "
1'
b101 (
b101 )
b101 *
b0 -
b0 .
b100 /
#1040
b1110 (
b1011 )
b1000 *
b1111 ,
b1000 -
b10 .
#1080
b10000000 !
b1000 (
b10 )
b1100 *
b1110 ,
b1 -
b101 .
#1120
b1111100 "
b10 (
b1001 )
b1111 *
b1010 -
b111 .
#1160
b1100 (
b1111 )
b10 *
b1110 +
b1101 ,
b11 -
b1010 .
#1200
b100000000 !
b110 (
b110 )
b110 *
b1100 -
b1100 .
#1240
b11111100 "
b1111 (
b1100 )
b1001 *
b1100 ,
b101 -
b1111 .
#1280
b1001 (
b11 )
b1101 *
b1011 ,
b1110 -
b1 .
b101 /
#1320
b11 (
b1010 )
b0 *
b1111 +
b111 -
b100 .
#1360
b1000000000 !
b111111001 "
0'
b1101 (
b0 )
b100 *
b1010 ,
b0 -
b111 .
#1400
b111 (
b111 )
b111 *
b1001 ,
b1001 -
b1001 .
#1440
b1111111001 "
b0 (
b1110 )
b1010 *
b10 -
b1100 .
#1480
b1010 (
b100 )
b1110 *
b1000 ,
b1011 -
b1110 .
#1520
b10000000000 !
b111 ,
b100 -
b1 .
b110 /
#1560
b11111110001 "
b0 (
b1110 )
b1010 *
b1101 -
b11 .
#1600
b110 (
b111 )
b111 *
b110 ,
b110 -
b110 .
#1640
b1101 (
b0 )
b100 *
b101 ,
b1111 -
b1000 .
#1680
b100000000000 !
b111111110011 "
b11 (
b1010 )
b0 *
b1000 -
b1011 .
#1720
b1001 (
b11 )
b1101 *
b1110 +
b100 ,
b1 -
b1110 .
#1760
b1111 (
b1100 )
b1001 *
b11 ,
b1010 -
b0 .
b111 /
#1800
b1000000000000 !
b1111111100010 "
b101 (
b110 )
b110 *
b11 -
b11 .
#1840
b1100 (
b1111 )
b10 *
b10 ,
b1100 -
b101 .
#1880
b11111111100010 "
b10 (
b1001 )
b1111 *
b1101 +
b1 ,
b101 -
b1000 .
#1920
b1000 (
b10 )
b1100 *
b1110 -
b1010 .
#1960
b10000000000000 !
b1110 (
b1011 )
b1000 *
b0 ,
b111 -
b1101 .
#2000
b111111111000010 "
1#
b100 (
b101 )
b101 *
b0 -
b0 .
b1000 /
#2040
b111111111000110 "
b1011 (
b1110 )
b1 *
b1111 ,
b1000 -
b10 .
#2080
b1 (
b1000 )
b1110 *
b1100 +
b1110 ,
b1 -
b101 .
#2120
b100000000000000 !
b1111111111000110 "
b111 (
b1 )
b1011 *
b1010 -
b111 .
#2160
b1101 (
b1010 )
b111 *
b1101 ,
b11 -
b1010 .
#2200
b11 (
b100 )
b100 *
b1100 ,
b1100 -
b1100 .
#2240
b1111111110000100 "
b1010 (
b1101 )
b0 *
b101 -
b1111 .
#2280
b1000000000000000 !
b1111111110000101 "
b0 (
b111 )
b1101 *
b1011 +
b1011 ,
b1110 -
b1 .
b1001 /
#2320
b110 (
b0 )
b1010 *
b1010 ,
b111 -
b100 .
#2360
b1111111110001101 "
0#
b1100 (
b1001 )
b110 *
b0 -
b111 .
#2400
b100000000000000 !
b11 (
b11 )
b11 *
b1001 ,
b1001 -
b1001 .
#2440
b1111111100001101 "
b1001 (
b1100 )
b1111 *
b1010 +
b1000 ,
b10 -
b1100 .
#2480
b1111 (
b101 )
b1100 *
b1011 -
b1110 .
#2520
b101 (
b1111 )
b1000 *
b111 ,
b100 -
b1 .
b1010 /
#2560
b10000000000000 !
b1011 (
b1000 )
b101 *
b110 ,
b1101 -
b11 .
#2600
b10 (
b10 )
b10 *
b110 -
b110 .
#2640
b1000 (
b1011 )
b1110 *
b1001 +
b101 ,
b1111 -
b1000 .
#2680
b1111111000011001 "
b1110 (
b100 )
b1011 *
b100 ,
b1000 -
b1011 .
#2720
b1000000000000 !
b1111111000011000 "
b100 (
b1110 )
b111 *
b1 -
b1110 .
#2760
b1010 (
b111 )
b100 *
b11 ,
b1010 -
b0 .
b1011 /
#2800
b1111111000011010 "
b1 (
b1 )
b1 *
b11 -
b11 .
#2840
b111 (
b1010 )
b1101 *
b1000 +
b10 ,
b1100 -
b101 .
#2880
b100000000000 !
b1111110000011010 "
b1101 (
b11 )
b1010 *
b1 ,
b101 -
b1000 .
#2920
b11 (
b1101 )
b110 *
b1110 -
b1010 .
#2960
b1001 (
b110 )
b11 *
b0 ,
b111 -
b1101 .
#3000
b111111111 !
b1111110000111010 "
b0 (
b0 )
b0 *
b1111 ,
b1111 -
b1111 .
#3040
b110 (
b1001 )
b1100 *
b111 +
b1000 -
b10 .
b1100 /
#3080
b1100 (
b10 )
b1001 *
b1110 ,
b1 -
b101 .
#3120
b11111111 !
b1111100000110010 "
b10 (
b1100 )
b101 *
b1101 ,
b1010 -
b111 .
#3160
b1111100000110011 "
b1000 (
b101 )
b10 *
b11 -
b1010 .
#3200
b1111 (
b1110 )
b1110 *
b110 +
b1100 ,
b1100 -
b1100 .
#3240
b101 (
b1000 )
b1011 *
b1011 ,
b101 -
b1111 .
#3280
b1111111 !
b1011 (
b1 )
b1000 *
b1110 -
b1 .
b1101 /
#3320
b1111000000110011 "
b1 (
b1011 )
b100 *
b1010 ,
b111 -
b100 .
#3360
b1111000001110101 "
b111 (
b100 )
b1 *
b1001 ,
b0 -
b111 .
#3400
b111111 !
b1110 (
b1101 )
b1101 *
b101 +
b1001 -
b1001 .
#3440
b100 (
b111 )
b1010 *
b1000 ,
b10 -
b1100 .
#3480
b1010 (
b0 )
b111 *
b111 ,
b1011 -
b1110 .
#3520
b11111 !
1$
b0 (
b1010 )
b11 *
b100 -
b1 .
b1110 /
#3560
b1110000001100101 "
b110 (
b11 )
b0 *
b110 ,
b1101 -
b11 .
#3600
b1110000001100100 "
b1101 (
b1100 )
b1100 *
b100 +
b110 -
b110 .
#3640
b1111 !
b11 (
b110 )
b1001 *
b101 ,
b1111 -
b1000 .
#3680
b1110000011100100 "
b1001 (
b1111 )
b101 *
b100 ,
b1000 -
b1011 .
#3720
b1111 (
b1000 )
b10 *
b1 -
b1110 .
#3760
b1100000011100100 "
b101 (
b10 )
b1111 *
b11 +
b11 ,
b1010 -
b0 .
b1111 /
#3800
b111 !
b1100 (
b1011 )
b1011 *
b10 ,
b11 -
b11 .
#3840
b10 (
b101 )
b1000 *
b1100 -
b101 .
#3880
0$
b1000 (
b1110 )
b100 *
b1 ,
b101 -
b1000 .
#3920
b11 !
b1100000011101110 "
b1110 (
b111 )
b1 *
b0 ,
b1110 -
b1010 .
#3960
b100 (
b1 )
b1110 *
b10 +
b111 -
b1101 .
#4000
b1000000111001110 "
b1011 (
b1010 )
b1010 *
b1111 ,
b1111 -
b1111 .
#4040
b1 !
b1000000111001010 "
b1 (
b100 )
b111 *
b0 ,
b111 -
b1101 .
#4080
b1000000111001011 "
b111 (
b1101 )
b11 *
b1110 -
b1010 .
#4120
b1101 (
b110 )
b0 *
b1 ,
b101 -
b1000 .
#4160
b0 !
b11 (
b0 )
b1101 *
b1 +
b10 ,
b1100 -
b101 .
#4200
b111001011 "
b1010 (
b1001 )
b1001 *
b11 -
b11 .
#4240
b0 (
b11 )
b110 *
b11 ,
b1010 -
b0 .
#4280
b110 (
b1100 )
b10 *
b100 ,
b1 -
b1110 .
b1110 /
#4320
b1 !
b1111001011 "
b1100 (
b101 )
b1111 *
b0 +
b1000 -
b1011 .
#4360
b10 (
b1111 )
b1011 *
b101 ,
b1111 -
b1000 .
#4400
b1001 (
b1000 )
b1000 *
b110 -
b110 .
#4440
b11 !
b1110001011 "
b1111 (
b1 )
b101 *
b110 ,
b1101 -
b11 .
#4480
b1110011001 "
b101 (
b1011 )
b1 *
b111 ,
b100 -
b1 .
#4520
b1110011000 "
b1011 -
b1110 .
b1101 /
#4560
b111 !
b1111 (
b1 )
b101 *
b1000 ,
b10 -
b1100 .
#4600
b1001 (
b1000 )
b1000 *
b1001 ,
b1001 -
b1001 .
#4640
b10 (
b1111 )
b1011 *
b0 -
b111 .
#4680
b1111 !
b11110010000 "
b1100 (
b101 )
b1111 *
b1010 ,
b111 -
b100 .
#4720
b11110010100 "
b110 (
b1100 )
b10 *
b1 +
b1011 ,
b1110 -
b1 .
#4760
b0 (
b11 )
b110 *
b101 -
b1111 .
b1100 /
#4800
b1010 (
b1001 )
b1001 *
b1100 ,
b1100 -
b1100 .
#4840
b11111 !
b11 (
b0 )
b1101 *
b1101 ,
b11 -
b1010 .
#4880
b11100010100 "
b1101 (
b110 )
b0 *
b10 +
b1010 -
b111 .
#4920
b111 (
b1101 )
b11 *
b1110 ,
b1 -
b101 .
#4960
b111111 !
b11100010101 "
b1 (
b100 )
b111 *
b1111 ,
b1000 -
b10 .
#5000
b111100110101 "
1%
b1011 (
b1010 )
b1010 *
b1111 -
b1111 .
b1011 /
#5040
b111100110111 "
b100 (
b1 )
b1110 *
b0 ,
b111 -
b1101 .
#5080
b1111111 !
b1110 (
b111 )
b1 *
b11 +
b1 ,
b1110 -
b1010 .
#5120
b1000 (
b1110 )
b100 *
b101 -
b1000 .
#5160
b10 (
b101 )
b1000 *
b10 ,
b1100 -
b101 .
#5200
b11111111 !
b1100 (
b1011 )
b1011 *
b11 ,
b11 -
b11 .
#5240
b101 (
b10 )
b1111 *
b1010 -
b0 .
#5280
b1111 (
b1000 )
b10 *
b100 +
b100 ,
b1 -
b1110 .
b1010 /
#5320
b1111000110111 "
b1001 (
b1111 )
b101 *
b1000 -
b1011 .
#5360
b111111111 !
b1111000100011 "
0%
b11 (
b110 )
b1001 *
b101 ,
b1111 -
b1000 .
#5400
b1111000100010 "
b1101 (
b1100 )
b1100 *
b110 ,
b110 -
b110 .
#5440
b110 (
b11 )
b0 *
b101 +
b1101 -
b11 .
#5480
b1111111111 !
b1111000101010 "
b0 (
b1010 )
b11 *
b111 ,
b100 -
b1 .
#5520
b1010 (
b0 )
b111 *
b1000 ,
b1011 -
b1110 .
b1001 /
#5560
b1111001101010 "
b100 (
b111 )
b1010 *
b10 -
b1100 .
#5600
b11111111111 !
b1111001101000 "
b1110 (
b1101 )
b1101 *
b1001 ,
b1001 -
b1001 .
#5640
b11111001101000 "
b111 (
b100 )
b1 *
b110 +
b1010 ,
b0 -
b111 .
#5680
b1 (
b1011 )
b100 *
b111 -
b100 .
#5720
b111111111111 !
b1011 (
b1 )
b1000 *
b1011 ,
b1110 -
b1 .
#5760
b11110001101000 "
b101 (
b1000 )
b1011 *
b1100 ,
b101 -
b1111 .
b1000 /
#5800
b1111 (
b1110 )
b1110 *
b1100 -
b1100 .
#5840
b1000 (
b101 )
b10 *
b111 +
b1101 ,
b11 -
b1010 .
#5880
b1111111111111 !
b11110001101001 "
b10 (
b1100 )
b101 *
b1110 ,
b1010 -
b111 .
#5920
b1100 (
b10 )
b1001 *
b1 -
b101 .
#5960
b110 (
b1001 )
b1100 *
b1111 ,
b1000 -
b10 .
#6000
b1001001001001001 !
b111110001001001 "
b0 (
b0 )
b0 *
b1000 +
b0 ,
b0 -
b0 .
#6040
b111110001001101 "
b1001 (
b110 )
b11 *
b111 -
b1101 .
b111 /
#6080
b11 (
b1101 )
b110 *
b1 ,
b1110 -
b1010 .
#6120
b111110011001101 "
b1101 (
b11 )
b1010 *
b101 -
b1000 .
#6160
b111110011001111 "
b111 (
b1010 )
b1101 *
b10 ,
b1100 -
b101 .
#6200
b100100100100100 !
b111100011001111 "
b1 (
b1 )
b1 *
b1001 +
b11 ,
b11 -
b11 .
#6240
b111100011010111 "
b1010 (
b111 )
b100 *
b1010 -
b0 .
#6280
b100 (
b1110 )
b111 *
b100 ,
b1 -
b1110 .
b110 /
#6320
b1111100011010110 "
b1110 (
b100 )
b1011 *
b101 ,
b1000 -
b1011 .
#6360
b1000 (
b1011 )
b1110 *
b1111 -
b1000 .
#6400
b10010010010010 !
b10 (
b10 )
b10 *
b1010 +
b110 ,
b110 -
b110 .
#6440
b1011 (
b1000 )
b101 *
b111 ,
b1101 -
b11 .
#6480
b101 (
b1111 )
b1000 *
b100 -
b1 .
#6520
1&
b1111 (
b101 )
b1100 *
b1000 ,
b1011 -
b1110 .
b101 /
#6560
b1001 (
b1100 )
b1111 *
b1001 ,
b10 -
b1100 .
#6600
b1001001001001001 !
b11 (
b11 )
b11 *
b1011 +
b1001 -
b1001 .
#6640
b1111000011010110 "
b1100 (
b1001 )
b110 *
b1010 ,
b0 -
b111 .
#6680
b1111000110010110 "
b110 (
b0 )
b1010 *
b1011 ,
b111 -
b100 .
#6720
b1111000110010000 "
b0 (
b111 )
b1101 *
b1110 -
b1 .
#6760
b1111000110010001 "
b1010 (
b1101 )
b0 *
b1100 +
b1100 ,
b101 -
b1111 .
b100 /
#6800
b100100100100100 !
b100 (
b100 )
b100 *
b1101 ,
b1100 -
b1100 .
#6840
b1101 (
b1010 )
b111 *
b11 -
b1010 .
#6880
0&
b111 (
b1 )
b1011 *
b1110 ,
b1010 -
b111 .
#6920
b1 (
b1000 )
b1110 *
b1 -
b101 .
#6960
b1011 (
b1110 )
b1 *
b1101 +
b1111 ,
b1000 -
b10 .
#7000
b10010010010010 !
b1111000110110001 "
b101 (
b101 )
b101 *
b0 ,
b0 -
b0 .
#7040
b1111000110111001 "
b1110 (
b1011 )
b1000 *
b111 -
b1101 .
b11 /
#7080
b1110000110111001 "
b1000 (
b10 )
b1100 *
b1 ,
b1110 -
b1010 .
#7120
b1110000110101001 "
b10 (
b1001 )
b1111 *
b10 ,
b101 -
b1000 .
#7160
b1100 (
b1111 )
b10 *
b1110 +
b1100 -
b101 .
#7200
b1001001001001001 !
b1110001110101000 "
b110 (
b110 )
b110 *
b11 ,
b11 -
b11 .
#7240
b1111 (
b1100 )
b1001 *
b100 ,
b1010 -
b0 .
#7280
b1110001110101010 "
b1001 (
b11 )
b1101 *
b1 -
b1110 .
b10 /
#7320
b1110001100101010 "
b11 (
b1010 )
b0 *
b1111 +
b101 ,
b1000 -
b1011 .
#7360
b1101 (
b0 )
b100 *
b110 ,
b1111 -
b1000 .
#7400
b100100100100100 !
b1110001100101110 "
b111 (
b111 )
b111 *
b110 -
b110 .
#7440
b0 (
b1110 )
b1010 *
b111 ,
b1101 -
b11 .
#7480
b1010 (
b100 )
b1110 *
b1000 ,
b100 -
b1 .
#7520
b1100001100101110 "
b1011 -
b1110 .
b1 /
#7560
b0 (
b1110 )
b1010 *
b1001 ,
b10 -
b1100 .
#7600
b10010010010010 !
b110 (
b111 )
b111 *
b1010 ,
b1001 -
b1001 .
#7640
b1101 (
b0 )
b100 *
b0 -
b111 .
#7680
b1100001100101111 "
b11 (
b1010 )
b0 *
b1011 ,
b111 -
b100 .
#7720
b1001 (
b11 )
b1101 *
b1110 +
b1110 -
b1 .
#7760
b1100011100101111 "
b1111 (
b1100 )
b1001 *
b1100 ,
b101 -
b1111 .
b0 /
#7800
b1001001001001001 !
b1100011101100111 "
b101 (
b110 )
b110 *
b1101 ,
b1100 -
b1100 .
#7840
b1100011101100101 "
b1100 (
b1111 )
b10 *
b11 -
b1010 .
#7880
b10 (
b1001 )
b1111 *
b1101 +
b1110 ,
b1010 -
b111 .
#7920
b1000 (
b10 )
b1100 *
b1111 ,
b1 -
b101 .
#7960
b1000011101100101 "
b1110 (
b1011 )
b1000 *
b1000 -
b10 .
#8000
b100100100100100 !
b1000011001000101 "
1'
b100 (
b101 )
b101 *
b0 ,
b0 -
b0 .
#8040
b1000011001010001 "
b1011 (
b1110 )
b1 *
b1111 ,
b1000 -
b10 .
#8080
b1 (
b1000 )
b1110 *
b1100 +
b1 -
b101 .
#8120
b1000011001010000 "
b111 (
b1 )
b1011 *
b1110 ,
b1010 -
b111 .
#8160
b1101 (
b1010 )
b111 *
b1101 ,
b11 -
b1010 .
#8200
b10010010010010 !
b11 (
b100 )
b100 *
b1100 -
b1100 .
#8240
b1010 (
b1101 )
b0 *
b1100 ,
b101 -
b1111 .
#8280
b0 (
b111 )
b1101 *
b1011 +
b1011 ,
b1110 -
b1 .
b1 /
#8320
b1000111001010000 "
b110 (
b0 )
b1010 *
b111 -
b100 .
#8360
0'
b1100 (
b1001 )
b110 *
b1010 ,
b0 -
b111 .
#8400
b1001001001001001 !
b111001010010 "
b11 (
b11 )
b11 *
b1001 -
b1001 .
#8440
b1001 (
b1100 )
b1111 *
b1010 +
b1001 ,
b10 -
b1100 .
#8480
b1111 (
b101 )
b1100 *
b1000 ,
b1011 -
b1110 .
#8520
b101 (
b1111 )
b1000 *
b100 -
b1 .
b10 /
#8560
b111011010011 "
b1011 (
b1000 )
b101 *
b111 ,
b1101 -
b11 .
#8600
b100100100100100 !
b111011011011 "
b10 (
b10 )
b10 *
b110 ,
b110 -
b110 .
#8640
b110011011011 "
b1000 (
b1011 )
b1110 *
b1001 +
b1111 -
b1000 .
#8680
b1110 (
b100 )
b1011 *
b101 ,
b1000 -
b1011 .
#8720
b110011011111 "
b100 (
b1110 )
b111 *
b100 ,
b1 -
b1110 .
#8760
b1010 (
b111 )
b100 *
b1010 -
b0 .
b11 /
#8800
b10010010010010 !
b1 (
b1 )
b1 *
b11 ,
b11 -
b11 .
#8840
b111 (
b1010 )
b1101 *
b1000 +
b10 ,
b1100 -
b101 .
#8880
b1110010011111 "
b1101 (
b11 )
b1010 *
b101 -
b1000 .
#8920
b1110010001111 "
b11 (
b1101 )
b110 *
b1 ,
b1110 -
b1010 .
#8960
b1110010001101 "
b1001 (
b110 )
b11 *
b0 ,
b111 -
b1101 .
#9000
b1110010101100 !
b1110010101100 "
1#
b0 (
b0 )
b0 *
b0 -
b0 .
b100 /
#9040
b110 (
b1001 )
b1100 *
b111 +
b1111 ,
b1000 -
b10 .
#9080
b1100 (
b10 )
b1001 *
b1110 ,
b1 -
b101 .
#9120
b10 (
b1100 )
b101 *
b1010 -
b111 .
#9160
b1000 (
b101 )
b10 *
b1101 ,
b11 -
b1010 .
#9200
b1111 (
b1110 )
b1110 *
b110 +
b1100 -
b1100 .
#9240
b101 (
b1000 )
b1011 *
b1100 ,
b101 -
b1111 .
#9280
b1011 (
b1 )
b1000 *
b1011 ,
b1110 -
b1 .
b101 /
#9320
b1100110101100 !
b1100110101100 "
b1 (
b1011 )
b100 *
b111 -
b100 .
#9360
b1100110100100 !
b1100110100100 "
0#
b111 (
b100 )
b1 *
b1010 ,
b0 -
b111 .
#9400
b11100110100000 !
b11100110100000 "
b1110 (
b1101 )
b1101 *
b101 +
b1001 ,
b1001 -
b1001 .
#9440
b100 (
b111 )
b1010 *
b10 -
b1100 .
#9480
b11100110100001 !
b11100110100001 "
b1010 (
b0 )
b111 *
b1000 ,
b1011 -
b1110 .
#9520
b11100110100011 !
b11100110100011 "
b0 (
b1010 )
b11 *
b111 ,
b100 -
b1 .
b110 /
#9560
b110 (
b11 )
b0 *
b1101 -
b11 .
#9600
b1101 (
b1100 )
b1100 *
b100 +
b110 ,
b110 -
b110 .
#9640
b11 (
b110 )
b1001 *
b101 ,
b1111 -
b1000 .
#9680
b1001 (
b1111 )
b101 *
b1000 -
b1011 .
#9720
b1111 (
b1000 )
b10 *
b100 ,
b1 -
b1110 .
#9760
b11100100100011 !
b11100100100011 "
b101 (
b10 )
b1111 *
b11 +
b11 ,
b1010 -
b0 .
b111 /
#9800
b11100100110011 !
b11100100110011 "
b1100 (
b1011 )
b1011 *
b11 -
b11 .
#9840
b10 (
b101 )
b1000 *
b10 ,
b1100 -
b101 .
#9880
b1000 (
b1110 )
b100 *
b1 ,
b101 -
b1000 .
#9920
b11100100110010 !
b11100100110010 "
b1110 (
b111 )
b1 *
b1110 -
b1010 .
#9960
b111000100110010 !
b111000100110010 "
b100 (
b1 )
b1110 *
b10 +
b0 ,
b111 -
b1101 .
#10000
b111000101010010 !
b111000101010010 "
b1011 (
b1010 )
b1010 *
b0 -
b0 .
b1000 /
#10040
b1 (
b100 )
b111 *
b1111 ,
b1000 -
b10 .
#10080
b111001101010100 !
b111001101010100 "
b111 (
b1101 )
b11 *
b1110 ,
b1 -
b101 .
#10120
b1101 (
b110 )
b0 *
b1010 -
b111 .
#10160
b111001101011100 !
b111001101011100 "
b11 (
b0 )
b1101 *
b1 +
b1101 ,
b11 -
b1010 .
#10200
b1010 (
b1001 )
b1001 *
b1100 ,
b1100 -
b1100 .
#10240
b0 (
b11 )
b110 *
b101 -
b1111 .
#10280
b110 (
b1100 )
b10 *
b1011 ,
b1110 -
b1 .
b1001 /
#10320
b1100 (
b101 )
b1111 *
b0 +
b1010 ,
b111 -
b100 .
#10360
b111001101011101 !
b111001101011101 "
b10 (
b1111 )
b1011 *
b0 -
b111 .
#10400
b1001 (
b1000 )
b1000 *
b1001 ,
b1001 -
b1001 .
#10440
b1111 (
b1 )
b101 *
b1000 ,
b10 -
b1100 .
#10480
b101 (
b1011 )
b1 *
b1011 -
b1110 .
#10520
b1111001101011101 !
b1111001101011101 "
1$
b111 ,
b100 -
b1 .
b1010 /
#10560
b1111 (
b1 )
b101 *
b110 ,
b1101 -
b11 .
#10600
b1001 (
b1000 )
b1000 *
b110 -
b110 .
#10640
b1110001001011111 !
b1110001001011111 "
b10 (
b1111 )
b1011 *
b101 ,
b1111 -
b1000 .
#10680
b1110001001001111 !
b1110001001001111 "
b1100 (
b101 )
b1111 *
b100 ,
b1000 -
b1011 .
#10720
b1110001001001011 !
b1110001001001011 "
b110 (
b1100 )
b10 *
b1 +
b1 -
b1110 .
#10760
b0 (
b11 )
b110 *
b11 ,
b1010 -
b0 .
b1011 /
#10800
b1110001001001010 !
b1110001001001010 "
b1010 (
b1001 )
b1001 *
b11 -
b11 .
#10840
b11 (
b0 )
b1101 *
b10 ,
b1100 -
b101 .
#10880
b1110011001001010 !
b1110011001001010 "
0$
b1101 (
b110 )
b0 *
b10 +
b1 ,
b101 -
b1000 .
#10920
b1110011001000010 !
b1110011001000010 "
b111 (
b1101 )
b11 *
b1110 -
b1010 .
#10960
b1 (
b100 )
b111 *
b0 ,
b111 -
b1101 .
#11000
b1110011011100010 !
b1110011011100010 "
b1011 (
b1010 )
b1010 *
b1111 ,
b1111 -
b1111 .
#11040
b100 (
b1 )
b1110 *
b1000 -
b10 .
b1100 /
#11080
b1110 (
b111 )
b1 *
b11 +
b1110 ,
b1 -
b101 .
#11120
b1110011010100010 !
b1110011010100010 "
b1000 (
b1110 )
b100 *
b1101 ,
b1010 -
b111 .
#11160
b10 (
b101 )
b1000 *
b11 -
b1010 .
#11200
b1110011010100000 !
b1110011010100000 "
b1100 (
b1011 )
b1011 *
b1100 ,
b1100 -
b1100 .
#11240
b101 (
b10 )
b1111 *
b1011 ,
b101 -
b1111 .
#11280
b1100011010100001 !
b1100011010100001 "
b1111 (
b1000 )
b10 *
b100 +
b1110 -
b1 .
b1101 /
#11320
b1001 (
b1111 )
b101 *
b1010 ,
b111 -
b100 .
#11360
b11 (
b110 )
b1001 *
b1001 ,
b0 -
b111 .
#11400
b1100011010100101 !
b1100011010100101 "
b1101 (
b1100 )
b1100 *
b1001 -
b1001 .
#11440
b110 (
b11 )
b0 *
b101 +
b1000 ,
b10 -
b1100 .
#11480
b0 (
b1010 )
b11 *
b111 ,
b1011 -
b1110 .
#11520
b1100010010100101 !
b1100010010100101 "
b1010 (
b0 )
b111 *
b100 -
b1 .
b1110 /
#11560
b100 (
b111 )
b1010 *
b110 ,
b1101 -
b11 .
#11600
b1100010010110101 !
b1100010010110101 "
b1110 (
b1101 )
b1101 *
b110 -
b110 .
#11640
b1100110010110101 !
b1100110010110101 "
b111 (
b100 )
b1 *
b110 +
b101 ,
b1111 -
b1000 .
#11680
b1 (
b1011 )
b100 *
b100 ,
b1000 -
b1011 .
#11720
b1100110010111100 !
b1100110010111100 "
b1011 (
b1 )
b1000 *
b1 -
b1110 .
#11760
b1100110010111110 !
b1100110010111110 "
b101 (
b1000 )
b1011 *
b11 ,
b1010 -
b0 .
b1111 /
#11800
b1111 (
b1110 )
b1110 *
b10 ,
b11 -
b11 .
#11840
b1000 (
b101 )
b10 *
b111 +
b1100 -
b101 .
#11880
b10 (
b1100 )
b101 *
b1 ,
b101 -
b1000 .
#11920
b1100 (
b10 )
b1001 *
b0 ,
b1110 -
b1010 .
#11960
b1000110010111110 !
b1000110010111110 "
b110 (
b1001 )
b1100 *
b111 -
b1101 .
#12000
b0 !
b1000110110011110 "
1%
b0 (
b0 )
b0 *
b1000 +
b1111 ,
b1111 -
b1111 .
#12040
b1001 (
b110 )
b11 *
b0 ,
b111 -
b1101 .
#12080
b1000110110011010 "
b11 (
b1101 )
b110 *
b1110 -
b1010 .
#12120
b1101 (
b11 )
b1010 *
b1 ,
b101 -
b1000 .
#12160
b110000000 !
b1000110110011011 "
b111 (
b1010 )
b1101 *
b10 ,
b1100 -
b101 .
#12200
b1000110100011011 "
b1 (
b1 )
b1 *
b1001 +
b11 -
b11 .
#12240
b1000110101011011 "
b1010 (
b111 )
b100 *
b11 ,
b1010 -
b0 .
#12280
b100 (
b1110 )
b111 *
b100 ,
b1 -
b1110 .
b1110 /
#12320
b1111000000 !
b1000110101011001 "
b1110 (
b100 )
b1011 *
b1000 -
b1011 .
#12360
0%
b1000 (
b1011 )
b1110 *
b101 ,
b1111 -
b1000 .
#12400
b1001100101011001 "
b10 (
b10 )
b10 *
b1010 +
b110 -
b110 .
#12440
b1011 (
b1000 )
b101 *
b110 ,
b1101 -
b11 .
#12480
b11111100000 !
b1001100101000001 "
b101 (
b1111 )
b1000 *
b111 ,
b100 -
b1 .
#12520
b1111 (
b101 )
b1100 *
b1011 -
b1110 .
b1101 /
#12560
b1001 (
b1100 )
b1111 *
b1000 ,
b10 -
b1100 .
#12600
b111111110000 !
b1100101000000 "
b11 (
b11 )
b11 *
b1011 +
b1001 ,
b1001 -
b1001 .
#12640
b1100 (
b1001 )
b110 *
b0 -
b111 .
#12680
b110 (
b0 )
b1010 *
b1010 ,
b111 -
b100 .
#12720
b0 (
b111 )
b1101 *
b1011 ,
b1110 -
b1 .
#12760
b1111111111000 !
b1100101000100 "
b1010 (
b1101 )
b0 *
b1100 +
b101 -
b1111 .
b1100 /
#12800
b100 (
b100 )
b100 *
b1100 ,
b1100 -
b1100 .
#12840
b1101 (
b1010 )
b111 *
b1101 ,
b11 -
b1010 .
#12880
b1100101000110 "
b111 (
b1 )
b1011 *
b1010 -
b111 .
#12920
b11111111111100 !
b1 (
b1000 )
b1110 *
b1110 ,
b1 -
b101 .
#12960
b1101101000110 "
b1011 (
b1110 )
b1 *
b1101 +
b1111 ,
b1000 -
b10 .
#13000
b1101101100110 "
b101 (
b101 )
b101 *
b1111 -
b1111 .
b1011 /
#13040
b1110 (
b1011 )
b1000 *
b0 ,
b111 -
b1101 .
#13080
b111111111111110 !
b1101101100111 "
b1000 (
b10 )
b1100 *
b1 ,
b1110 -
b1010 .
#13120
b10 (
b1001 )
b1111 *
b101 -
b1000 .
