fixtures/pro/stage/boards/nexys_video/nexys_video_demo_per_bit.vcd
$date
  2026-06-07T00:00:00.000Z
$end
$version
  WaveCrux Pro board demo fixture generator
$end
$comment
  Digilent Nexys Video out-of-box demo — individual per-bit signals.
  LED show: cylon / VU bar / chase / switch-mirror / expand / sparkle.
  Live peripherals: HDMI raster, audio sine, ADC, etc.
  Re-generate with `dart run tool/generate_board_demo_fixtures.dart`.
$end
$timescale 1 ns $end
$scope module top $end
$var wire 1 ! led0 $end
$var wire 1 " led1 $end
$var wire 1 # led2 $end
$var wire 1 $ led3 $end
$var wire 1 % led4 $end
$var wire 1 & led5 $end
$var wire 1 ' led6 $end
$var wire 1 ( led7 $end
$var wire 1 ) sw0 $end
$var wire 1 * sw1 $end
$var wire 1 + sw2 $end
$var wire 1 , sw3 $end
$var wire 1 - sw4 $end
$var wire 1 . sw5 $end
$var wire 1 / sw6 $end
$var wire 1 0 sw7 $end
$var wire 1 1 btnC $end
$var wire 1 2 btnU $end
$var wire 1 3 btnL $end
$var wire 1 4 btnR $end
$var wire 1 5 btnD $end
$var wire 16 6 hdmi_in_data $end
$var wire 1 7 hdmi_in_pixel_clk $end
$var wire 1 8 hdmi_in_hsync $end
$var wire 1 9 hdmi_in_vsync $end
$var wire 1 : hdmi_in_de $end
$var wire 16 ; hdmi_out_data $end
$var wire 1 < hdmi_out_pixel_clk $end
$var wire 1 = hdmi_out_hsync $end
$var wire 1 > hdmi_out_vsync $end
$var wire 1 ? hdmi_out_de $end
$var wire 16 @ oled $end
$var wire 16 A audio_codec $end
$upscope $end
$enddefinitions $end
#0
$dumpvars
1!
0"
0#
0$
0%
0&
0'
0(
0)
0*
0+
0,
0-
0.
0/
00
01
02
03
04
05
b0 6
07
18
19
1:
b111 ;
0<
1=
1>
1?
b0 @
b1000000000000000 A
$end
#40
17
1<
b1000101011111010 A
#80
b1000000000001 6
07
b1000000001000 ;
0<
b1001010111011000 A
#120
17
1<
b1010000001111101 A
#160
0!
1"
b10000000000010 6
07
b10000000001001 ;
0<
b1010101011001110 A
#200
17
1<
b1011010010110001 A
#240
b11000000000011 6
07
b11000000001010 ;
0<
b1011111000001100 A
#280
17
1<
b1100011011000110 A
#320
0"
1#
b100000000000100 6
07
b100000000001011 ;
0<
b1 @
b1100111011001001 A
#360
17
1<
b1101011000000000 A
#400
b101000000000101 6
07
b101000000001100 ;
0<
b1101110001011001 A
#440
17
1<
b1110000111000100 A
#480
0#
1$
1)
b110000000000110 6
07
b110000000001101 ;
0<
b1110011000110001 A
#520
17
1<
b1110100110010111 A
#560
1*
b111000000000111 6
07
b111000000001110 ;
0<
b1110101111101011 A
#600
0$
1%
17
1<
b10 @
b1110110100101001 A
#640
b1000000000001000 6
07
b1000000000001111 ;
0<
b1110110101001100 A
#680
1+
17
1<
b1110110001010101 A
#720
b1001000000001001 6
07
b1001000000010000 ;
0<
b1110101001000110 A
#760
0%
1&
17
1<
b1110011100100100 A
#800
1,
b1010000000001010 6
07
b1010000000010001 ;
0<
b1110001011110111 A
#840
17
1<
b1101110111001011 A
#880
b1011000000001011 6
07
b1011000000010010 ;
0<
b1101011110101100 A
#920
0&
1'
0)
1-
17
1<
b11 @
b1101000010101010 A
#960
b1100000000001100 6
07
b1100000000010011 ;
0<
b1100100011011000 A
#1000
1.
15
17
1<
b1100000001001010 A
#1040
b1101000000001101 6
07
b1101000000010100 ;
0<
b1011011100010101 A
#1080
0'
1(
17
1<
b1010110101010011 A
#1120
0*
1/
b1110000000001110 6
07
b1110000000010101 ;
0<
b1 @
b1010001100011010 A
#1160
17
1<
b1001100010001000 A
#1200
1'
0(
b1111000000001111 6
07
b1111000000010110 ;
0<
b110 @
b1000110110110101 A
#1240
10
17
1<
b1000001011000000 A
#1280
b0 6
07
08
0:
b0 ;
0<
0=
0?
b111011111000011 A
#1320
17
1<
b110110011011011 A
#1360
1&
0'
1)
0+
05
07
0<
b110001000100101 A
#1400
17
1<
b101011110111101 A
#1440
07
0<
b100110110111100 A
#1480
17
1<
b100010000111101 A
#1520
1%
0&
07
0<
b111 @
b11101101011001 A
#1560
0,
17
1<
b11001100100110 A
#1600
b1100001 6
07
18
1:
b1101000 ;
0<
1=
1?
b10101110111010 A
#1640
17
1<
b10010100100111 A
#1680
1$
0%
1*
b1000001100010 6
07
b1000001101001 ;
0<
b1111110000000 A
#1720
17
1<
b1101011010010 A
#1760
b10000001100011 6
07
b10000001101010 ;
0<
b1011100101001 A
#1800
1#
0$
0)
0-
17
1<
b100 @
b1010010010000 A
#1840
b11000001100100 6
07
b11000001101011 ;
0<
b1001100001100 A
#1880
17
1<
b1001010100010 A
#1920
b100000001100101 6
07
b100000001101100 ;
0<
b1001101010011 A
#1960
1"
0#
17
1<
b1010100011100 A
#2000
0.
11
b101000001100110 6
07
b101000001101101 ;
0<
b1011111111010 A
#2040
1+
17
1<
b1101111100101 A
#2080
b110000001100111 6
07
b110000001101110 ;
0<
b10000011010011 A
#2120
1!
0"
17
1<
b101 @
b10011010110111 A
#2160
b111000001101000 6
07
b111000001101111 ;
0<
b10110110000001 A
#2200
17
1<
b11 @
b11010100100001 A
#2240
0*
0/
b1000000001101001 6
07
b1000000001110000 ;
0<
b11110110000010 A
#2280
0!
1"
1)
17
1<
b100011010001111 A
#2320
b1001000001101010 6
07
b1001000001110001 ;
0<
b101000000110001 A
#2360
1,
01
17
1<
b101101001001110 A
#2400
0"
1#
b1010000001101011 6
07
b1010000001110010 ;
0<
b1100 @
b110010011001101 A
#2440
00
17
1<
b110111110010010 A
#2480
b1011000001101100 6
07
b1011000001110011 ;
0<
b111101010000001 A
#2520
17
1<
b1000010101111111 A
#2560
0#
1$
b1100000001101101 6
07
b1100000001110100 ;
0<
b1001000001101110 A
#2600
17
1<
b1001101100110011 A
#2640
b1101000001101110 6
07
b1101000001110101 ;
0<
b1010010110110010 A
#2680
0+
1-
17
1<
b1010111111001111 A
#2720
0$
1%
0)
b1110000001101111 6
07
b1110000001110110 ;
0<
b1101 @
b1011100101110001 A
#2760
17
1<
b1100001001111110 A
#2800
1*
b1111000001110000 6
07
b1111000001110111 ;
0<
b1100101011011111 A
#2840
17
1<
b1101001001111111 A
#2880
0%
1&
b0 6
07
08
0:
b0 ;
0<
0=
0?
b1101100101001001 A
#2920
17
1<
b1101111100101101 A
#2960
07
0<
b1110010000011011 A
#3000
1!
1"
1#
1$
1%
1'
1.
17
1<
b1110 @
b1110100000000110 A
#3040
07
0<
b1110101011100100 A
#3080
17
1<
b1110110010101101 A
#3120
1(
0,
07
0<
b1110110101011110 A
#3160
1)
17
1<
b1110110011110100 A
#3200
b11000010 6
07
18
1:
b11001001 ;
0<
1=
1?
b1110101101110000 A
#3240
17
1<
b1110100011010111 A
#3280
0(
b1000011000011 6
07
b1000011001010 ;
0<
b1110010100101110 A
#3320
17
1<
b1101 @
b1110000010000000 A
#3360
0*
1+
1/
b10000011000100 6
07
b10000011001011 ;
0<
b1101101011011001 A
#3400
0'
17
1<
b1101010001000110 A
#3440
b11000011000101 6
07
b11000011001100 ;
0<
b1100110011011010 A
#3480
17
1<
b1100010010100111 A
#3520
0&
12
b100000011000110 6
07
b100000011001101 ;
0<
b1011101111000011 A
#3560
0-
17
1<
b1011001001000100 A
#3600
0)
b101000011000111 6
07
b101000011001110 ;
0<
b1010 @
b1010100001000011 A
#3640
0%
17
1<
b1001110111011011 A
#3680
10
b110000011001000 6
07
b110000011001111 ;
0<
b1001001100100101 A
#3720
17
1<
b1000100000111101 A
#3760
b111000011001001 6
07
b111000011010000 ;
0<
b111110101000000 A
#3800
0$
17
1<
b111001001001011 A
#3840
b1000000011001010 6
07
b1000000011010001 ;
0<
b110011101111000 A
#3880
02
17
1<
b101110011100110 A
#3920
0#
1*
1,
b1001000011001011 6
07
b1001000011010010 ;
0<
b1011 @
b101001010101101 A
#3960
17
1<
b100100011101011 A
#4000
0.
b1010000011001100 6
07
b1010000011010011 ;
0<
b11111110110110 A
#4040
0"
0+
17
1<
b11011100101000 A
#4080
1)
b1011000011001101 6
07
b1011000011010100 ;
0<
b10111101010110 A
#4120
17
1<
b10100001010100 A
#4160
0!
b1100000011001110 6
07
b1100000011010101 ;
0<
b10001000110101 A
#4200
17
1<
b1000 @
b1110100001001 A
#4240
b1101000011001111 6
07
b1101000011010110 ;
0<
b1100011011100 A
#4280
17
1<
b1010110111010 A
#4320
1!
b1110000011010000 6
07
b1110000011010111 ;
0<
b1001110101011 A
#4360
17
1<
b1001010110100 A
#4400
b1111000011010001 6
07
b1111000011011000 ;
0<
b110 @
b1001011010111 A
#4440
1"
0/
17
1<
b1010000010101 A
#4480
0*
1-
b0 6
07
08
0:
b0 ;
0<
0=
0?
b1011001101001 A
#4520
0)
17
1<
b111 @
b1100111001111 A
#4560
1#
07
0<
b1111000111100 A
#4600
17
1<
b10001110100111 A
#4640
07
0<
b10101000000000 A
#4680
1$
0,
17
1<
b11000100110111 A
#4720
1+
07
0<
b11100100111010 A
#4760
17
1<
b100000111110100 A
#4800
b100100011 6
07
18
1:
b100101010 ;
0<
1=
1?
b11000 @
b100101101001111 A
#4840
1%
17
1<
b101010100110010 A
#4880
00
b1000100100100 6
07
b1000100101011 ;
0<
b101111110000011 A
#4920
17
1<
b110101000101000 A
#4960
1&
1)
b10000100100101 6
07
b10000100101100 ;
0<
b111010100000110 A
#5000
1.
13
17
1<
b1000000000000000 A
#5040
1*
b11000100100110 6
07
b11000100101101 ;
0<
b1000101011111010 A
#5080
1'
17
1<
b1001010111011000 A
#5120
b100000100100111 6
07
b100000100101110 ;
0<
b11001 @
b1010000001111101 A
#5160
17
1<
b1010101011001110 A
#5200
1(
b101000100101000 6
07
b101000100101111 ;
0<
b1011010010110001 A
#5240
17
1<
b1011111000001100 A
#5280
b110000100101001 6
07
b110000100110000 ;
0<
b1100011011000110 A
#5320
17
1<
b1100111011001001 A
#5360
0(
0+
0-
03
b111000100101010 6
07
b111000100110001 ;
0<
b1101011000000000 A
#5400
0)
17
1<
b11010 @
b1101110001011001 A
#5440
b1000000100101011 6
07
b1000000100110010 ;
0<
b1110000111000100 A
#5480
0'
1,
17
1<
b1110011000110001 A
#5520
b1001000100101100 6
07
b1001000100110011 ;
0<
b11000 @
b1110100110010111 A
#5560
1/
17
1<
b1110101111101011 A
#5600
0&
0*
b1010000100101101 6
07
b1010000100110100 ;
0<
b1110110100101001 A
#5640
17
1<
b1110110101001100 A
#5680
b1011000100101110 6
07
b1011000100110101 ;
0<
b1110110001010101 A
#5720
0%
17
1<
b11001 @
b1110101001000110 A
#5760
b1100000100101111 6
07
b1100000100110110 ;
0<
b1110011100100100 A
#5800
17
1<
b1110001011110111 A
#5840
b1101000100110000 6
07
b1101000100110111 ;
0<
b1101110111001011 A
#5880
0$
1)
17
1<
b1101011110101100 A
#5920
b1110000100110001 6
07
b1110000100111000 ;
0<
b1101000010101010 A
#5960
17
1<
b1100100011011000 A
#6000
0"
0#
1$
1'
0.
b1111000100110010 6
07
b1111000100111001 ;
0<
b11110 @
b1100000001001010 A
#6040
1+
17
1<
b1011011100010101 A
#6080
b0 6
07
08
0:
b0 ;
0<
0=
0?
b1010110101010011 A
#6120
10
17
1<
b1010001100011010 A
#6160
1*
07
0<
b1001100010001000 A
#6200
0!
1#
0$
1&
0'
17
1<
b1000110110110101 A
#6240
0,
1-
07
0<
b1000001011000000 A
#6280
17
1<
b111011111000011 A
#6320
0)
07
0<
b11111 @
b110110011011011 A
#6360
17
1<
b110001000100101 A
#6400
1"
0#
1%
0&
1(
b110000100 6
07
18
1:
b110001011 ;
0<
1=
1?
b101011110111101 A
#6440
17
1<
b100110110111100 A
#6480
b1000110000101 6
07
b1000110001100 ;
0<
b100010000111101 A
#6520
14
17
1<
b11101101011001 A
#6560
b10000110000110 6
07
b10000110001101 ;
0<
b11001100100110 A
#6600
1!
0"
1$
0%
1'
0(
17
1<
b11010 @
b10101110111010 A
#6640
b11000110000111 6
07
b11000110001110 ;
0<
b10010100100111 A
#6680
0/
17
1<
b1111110000000 A
#6720
0*
0+
b100000110001000 6
07
b100000110001111 ;
0<
b1101011010010 A
#6760
1)
17
1<
b1011100101001 A
#6800
0!
1#
0$
1&
0'
b101000110001001 6
07
b101000110010000 ;
0<
b1010010010000 A
#6840
17
1<
b1001100001100 A
#6880
04
b110000110001010 6
07
b110000110010001 ;
0<
b1001010100010 A
#6920
17
1<
b11011 @
b1001101010011 A
#6960
b111000110001011 6
07
b111000110010010 ;
0<
b1010100011100 A
#7000
1"
0#
1%
0&
1(
1.
17
1<
b1011111111010 A
#7040
1,
b1000000110001100 6
07
b1000000110010011 ;
0<
b1101111100101 A
#7080
17
1<
b10000011010011 A
#7120
0-
b1001000110001101 6
07
b1001000110010100 ;
0<
b10011010110111 A
#7160
17
1<
b10110110000001 A
#7200
1!
0"
1$
0%
1'
0(
0)
b1010000110001110 6
07
b1010000110010101 ;
0<
b10100 @
b11010100100001 A
#7240
17
1<
b11110110000010 A
#7280
1*
b1011000110001111 6
07
b1011000110010110 ;
0<
b100011010001111 A
#7320
00
17
1<
b101000000110001 A
#7360
b1100000110010000 6
07
b1100000110010111 ;
0<
b101101001001110 A
#7400
0!
1#
0$
1&
0'
1+
17
1<
b110010011001101 A
#7440
b1101000110010001 6
07
b1101000110011000 ;
0<
b110111110010010 A
#7480
17
1<
b111101010000001 A
#7520
b1110000110010010 6
07
b1110000110011001 ;
0<
b10101 @
b1000010101111111 A
#7560
17
1<
b1001000001101110 A
#7600
1"
0#
1%
0&
1(
b1111000110010011 6
07
b1111000110011010 ;
0<
b1001101100110011 A
#7640
17
1<
b1010010110110010 A
#7680
1)
b0 6
07
08
0:
b0 ;
0<
0=
0?
b1010111111001111 A
#7720
17
1<
b10111 @
b1011100101110001 A
#7760
07
0<
b1100001001111110 A
#7800
1!
0"
1$
0%
1'
0(
0,
1/
17
1<
b10100 @
b1100101011011111 A
#7840
0*
07
0<
b1101001001111111 A
#7880
17
1<
b1101100101001001 A
#7920
07
0<
b1101111100101101 A
#7960
17
1<
b1110010000011011 A
#8000
0!
1#
0$
1&
0'
0.
15
b111100101 6
07
18
1:
b111101100 ;
0<
1=
1?
b1110100000000110 A
#8040
0+
1-
17
1<
b1110101011100100 A
#8080
b1000111100110 6
07
b1000111101101 ;
0<
b1110110010101101 A
#8120
0)
17
1<
b10101 @
b1110110101011110 A
#8160
b10000111100111 6
07
b10000111101110 ;
0<
b1110110011110100 A
#8200
1"
0#
1%
0&
1(
17
1<
b1110101101110000 A
#8240
b11000111101000 6
07
b11000111101111 ;
0<
b1110100011010111 A
#8280
17
1<
b1110010100101110 A
#8320
b100000111101001 6
07
b100000111110000 ;
0<
b1110000010000000 A
#8360
05
17
1<
b1101101011011001 A
#8400
1!
0"
1$
0%
1'
0(
1*
b101000111101010 6
07
b101000111110001 ;
0<
b10010 @
b1101010001000110 A
#8440
17
1<
b1100110011011010 A
#8480
b110000111101011 6
07
b110000111110010 ;
0<
b1100010010100111 A
#8520
17
1<
b1011101111000011 A
#8560
1)
10
b111000111101100 6
07
b111000111110011 ;
0<
b1011001001000100 A
#8600
0!
1#
0$
1&
0'
1,
17
1<
b1010100001000011 A
#8640
b1000000111101101 6
07
b1000000111110100 ;
0<
b1001110111011011 A
#8680
17
1<
b1001001100100101 A
#8720
1+
b1001000111101110 6
07
b1001000111110101 ;
0<
b10011 @
b1000100000111101 A
#8760
17
1<
b111110101000000 A
#8800
1"
0#
1%
0&
1(
b1010000111101111 6
07
b1010000111110110 ;
0<
b1101 @
b111001001001011 A
#8840
17
1<
b110011101111000 A
#8880
0/
b1011000111110000 6
07
b1011000111110111 ;
0<
b101110011100110 A
#8920
0-
17
1<
b101001010101101 A
#8960
0*
b1100000111110001 6
07
b1100000111111000 ;
0<
b100100011101011 A
#9000
0"
1#
1$
0%
1&
0)
1.
11
17
1<
b1110 @
b11111110110110 A
#9040
b1101000111110010 6
07
b1101000111111001 ;
0<
b11011100101000 A
#9080
17
1<
b10111101010110 A
#9120
b1110000111110011 6
07
b1110000111111010 ;
0<
b10100001010100 A
#9160
17
1<
b10001000110101 A
#9200
b1111000111110100 6
07
b1111000111111011 ;
0<
b1110100001001 A
#9240
17
1<
b1100011011100 A
#9280
b0 6
07
08
0:
b0 ;
0<
0=
0?
b1010110111010 A
#9320
17
1<
b1111 @
b1001110101011 A
#9360
0$
0,
01
07
0<
b1001010110100 A
#9400
0#
0+
17
1<
b1001011010111 A
#9440
07
0<
b1010000010101 A
#9480
1!
1)
17
1<
b1011001101001 A
#9520
1"
1*
07
0<
b1100111001111 A
#9560
17
1<
b1111000111100 A
#9600
b1001000110 6
07
18
1:
b1001001101 ;
0<
1=
1?
b110000 @
b10001110100111 A
#9640
17
1<
b10101000000000 A
#9680
b1001001000111 6
07
b1001001001110 ;
0<
b11000100110111 A
#9720
17
1<
b11100100111010 A
#9760
0(
00
b10001001001000 6
07
b10001001001111 ;
0<
b100000111110100 A
#9800
1%
1-
17
1<
b100101101001111 A
#9840
b11001001001001 6
07
b11001001010000 ;
0<
b101010100110010 A
#9880
17
1<
b101111110000011 A
#9920
0!
0)
b100001001001010 6
07
b100001001010001 ;
0<
b110011 @
b110101000101000 A
#9960
17
1<
b111010100000110 A
#10000
0&
1'
0.
1/
b101001001001011 6
07
b101001001010010 ;
0<
b1000000000000000 A
#10040
17
1<
b1000101011111010 A
#10080
0"
1#
0*
1+
b110001001001100 6
07
b110001001010011 ;
0<
b1001010111011000 A
#10120
17
1<
b1010000001111101 A
#10160
1$
1,
b111001001001101 6
07
b111001001010100 ;
0<
b1010101011001110 A
#10200
17
1<
b110000 @
b1011010010110001 A
#10240
b1000001001001110 6
07
b1000001001010101 ;
0<
b1011111000001100 A
#10280
17
1<
b1100011011000110 A
#10320
b1001001001001111 6
07
b1001001001010110 ;
0<
b1100111011001001 A
#10360
1!
1)
17
1<
b1101011000000000 A
#10400
b1010001001010000 6
07
b1010001001010111 ;
0<
b1101110001011001 A
#10440
17
1<
b1110000111000100 A
#10480
b1011001001010001 6
07
b1011001001011000 ;
0<
b1110011000110001 A
#10520
12
17
1<
b110001 @
b1110100110010111 A
#10560
b1100001001010010 6
07
b1100001001011001 ;
0<
b1110101111101011 A
#10600
17
1<
b1110110100101001 A
#10640
1"
1*
b1101001001010011 6
07
b1101001001011010 ;
0<
b1110110101001100 A
#10680
0%
0-
17
1<
b1110110001010101 A
#10720
0#
0+
b1110001001010100 6
07
b1110001001011011 ;
0<
b1110101001000110 A
#10760
17
1<
b1110011100100100 A
#10800
0!
0)
b1111001001010101 6
07
b1111001001011100 ;
0<
b110110 @
b1110001011110111 A
#10840
17
1<
b1101110111001011 A
#10880
02
b0 6
07
08
0:
b0 ;
0<
0=
0?
b1101011110101100 A
#10920
0$
0,
17
1<
b1101000010101010 A
#10960
07
0<
b1100100011011000 A
#11000
1&
1(
1.
10
17
1<
b110000 @
b1100000001001010 A
#11040
07
0<
b1011011100010101 A
#11080
17
1<
b1010110101010011 A
#11120
0'
0/
07
0<
b110001 @
b1010001100011010 A
#11160
17
1<
b1001100010001000 A
#11200
0"
0*
b1010100111 6
07
18
1:
b1010101110 ;
0<
1=
1?
b1000110110110101 A
#11240
17
1<
b1000001011000000 A
#11280
1!
1)
b1001010101000 6
07
b1001010101111 ;
0<
b111011111000011 A
#11320
17
1<
b110110011011011 A
#11360
b10001010101001 6
07
b10001010110000 ;
0<
b110001000100101 A
#11400
1#
1+
17
1<
b110010 @
b101011110111101 A
#11440
b11001010101010 6
07
b11001010110001 ;
0<
b100110110111100 A
#11480
17
1<
b100010000111101 A
#11520
b100001010101011 6
07
b100001010110010 ;
0<
b11101101011001 A
#11560
17
1<
b11001100100110 A
#11600
1%
1-
b101001010101100 6
07
b101001010110011 ;
0<
b10101110111010 A
#11640
17
1<
b10010100100111 A
#11680
b110001010101101 6
07
b110001010110100 ;
0<
b1111110000000 A
#11720
0!
1$
0)
1,
17
1<
b110011 @
b1101011010010 A
#11760
1"
1*
b111001010101110 6
07
b111001010110101 ;
0<
b1011100101001 A
#11800
17
1<
b1010010010000 A
#11840
b1000001010101111 6
07
b1000001010110110 ;
0<
b1001100001100 A
#11880
17
1<
b1001010100010 A
#11920
b1001001010110000 6
07
b1001001010110111 ;
0<
b1001101010011 A
#11960
17
1<
b1010100011100 A
#12000
0"
0#
0$
0%
0&
0(
0.
13
b1010001010110001 6
07
b1010001010111000 ;
0<
b111100 @
b1011111111010 A
#12040
17
1<
b1101111100101 A
#12080
0+
b1011001010110010 6
07
b1011001010111001 ;
0<
b10000011010011 A
#12120
17
1<
b111110 @
b10011010110111 A
#12160
1$
1%
1)
b1100001010110011 6
07
b1100001010111010 ;
0<
b10110110000001 A
#12200
00
17
1<
b11010100100001 A
#12240
1/
b1101001010110100 6
07
b1101001010111011 ;
0<
b11110110000010 A
#12280
17
1<
b100011010001111 A
#12320
1#
1&
0*
b1110001010110101 6
07
b1110001010111100 ;
0<
b111111 @
b101000000110001 A
#12360
03
17
1<
b101101001001110 A
#12400
b1111001010110110 6
07
b1111001010111101 ;
0<
b110010011001101 A
#12440
17
1<
b110111110010010 A
#12480
1"
1'
0,
0-
b0 6
07
08
0:
b0 ;
0<
0=
0?
b111101010000001 A
#12520
17
1<
b1000010101111111 A
#12560
07
0<
b1001000001101110 A
#12600
1!
1(
0)
17
1<
b111100 @
b1001101100110011 A
#12640
07
0<
b1010010110110010 A
#12680
17
1<
b1010111111001111 A
#12720
07
0<
b1011100101110001 A
#12760
0!
0(
1+
17
1<
b1100001001111110 A
#12800
b1100001000 6
07
18
1:
b1100001111 ;
0<
1=
1?
b1100101011011111 A
#12840
17
1<
b1101001001111111 A
#12880
1*
b1001100001001 6
07
b1001100010000 ;
0<
b1101100101001001 A
#12920
0"
0'
17
1<
b111101 @
b1101111100101101 A
#12960
b10001100001010 6
07
b10001100010001 ;
0<
b1110010000011011 A
#13000
1.
17
1<
b1110100000000110 A
#13040
b11001100001011 6
07
b11001100010010 ;
0<
b1110101011100100 A
#13080
0#
0&
1)
17
1<
b1110110010101101 A
#13120
b100001100001100 6
07
b100001100010011 ;
0<
b1110110101011110 A
#13160
17
1<
b1110110011110100 A
#13200
0$
0%
b101001100001101 6
07
b101001100010100 ;
0<
b110100 @
b1110101101110000 A
#13240
17
1<
b1110100011010111 A
#13280
1,
b110001100001110 6
07
b110001100010101 ;
0<
b1110010100101110 A
#13320
0/
17
1<
b1110000010000000 A
#13360
1$
1%
1-
b111001100001111 6
07
b111001100010110 ;
0<
b1101101011011001 A
#13400
0+
17
1<
b1101010001000110 A
#13440
0*
10
b1000001100010000 6
07
b1000001100010111 ;
0<
b1100110011011010 A
#13480
17
1<
b1100010010100111 A
#13520
1#
1&
0)
14
b1001001100010001 6
07
b1001001100011000 ;
0<
b110101 @
b1011101111000011 A
#13560
17
1<
b1011001001000100 A
#13600
b1010001100010010 6
07
b1010001100011001 ;
0<
b1010100001000011 A
#13640
17
1<
b1001110111011011 A
#13680
1"
1'
b1011001100010011 6
07
b1011001100011010 ;
0<
b1001001100100101 A
#13720
17
1<
b1000100000111101 A
#13760
b1100001100010100 6
07
b1100001100011011 ;
0<
b111110101000000 A
#13800
1!
1(
17
1<
b110110 @
b111001001001011 A
#13840
b1101001100010101 6
07
b1101001100011100 ;
0<
b110011101111000 A
#13880
04
17
1<
b101110011100110 A
#13920
b1110001100010110 6
07
b1110001100011101 ;
0<
b101001010101101 A
#13960
0!
0(
1)
17
1<
b100100011101011 A
#14000
1*
0.
b1111001100010111 6
07
b1111001100011110 ;
0<
b11111110110110 A
#14040
0,
17
1<
b11011100101000 A
#14080
1+
b0 6
07
08
0:
b0 ;
0<
0=
0?
b10111101010110 A
#14120
0"
0'
17
1<
b110111 @
b10100001010100 A
#14160
07
0<
b10001000110101 A
#14200
17
1<
b1110100001001 A
#14240
0-
07
0<
b1100011011100 A
#14280
0#
0&
17
1<
b1010110111010 A
#14320
07
0<
b110101 @
b1001110101011 A
#14360
17
1<
b1001010110100 A
#14400
0$
0%
0)
b1101101001 6
07
18
1:
b1101110000 ;
0<
1=
1?
b101010 @
b1001011010111 A
#14440
1/
17
1<
b1010000010101 A
#14480
b1001101101010 6
07
b1001101110001 ;
0<
b1011001101001 A
#14520
17
1<
b1100111001111 A
#14560
1$
1%
0*
b10001101101011 6
07
b10001101110010 ;
0<
b1111000111100 A
#14600
17
1<
b10001110100111 A
#14640
00
b11001101101100 6
07
b11001101110011 ;
0<
b10101000000000 A
#14680
17
1<
b11000100110111 A
#14720
1#
1&
b100001101101101 6
07
b100001101110100 ;
0<
b101011 @
b11100100111010 A
#14760
0+
17
1<
b100000111110100 A
#14800
b101001101101110 6
07
b101001101110101 ;
0<
b100101101001111 A
#14840
1,
17
1<
b101010100110010 A
#14880
1"
1'
1)
b110001101101111 6
07
b110001101110110 ;
0<
b101111110000011 A
#14920
17
1<
b110101000101000 A
#14960
b111001101110000 6
07
b111001101110111 ;
0<
b111010100000110 A
#15000
0"
0#
0'
1(
1.
15
17
1<
b101000 @
b1000000000000000 A
#15040
b1000001101110001 6
07
b1000001101111000 ;
0<
b1000101011111010 A
#15080
17
1<
b1001010111011000 A
#15120
1*
b1001001101110010 6
07
b1001001101111001 ;
0<
b1010000001111101 A
#15160
1"
1#
0%
0&
1-
17
1<
b1010101011001110 A
#15200
b1010001101110011 6
07
b1010001101111010 ;
0<
b1011010010110001 A
#15240
17
1<
b1011111000001100 A
#15280
b1011001101110100 6
07
b1011001101111011 ;
0<
b1100011011000110 A
#15320
1!
0#
0)
17
1<
b101001 @
b1100111011001001 A
#15360
05
b1100001101110101 6
07
b1100001101111100 ;
0<
b1101011000000000 A
#15400
17
1<
b101111 @
b1101110001011001 A
#15440
1+
b1101001101110110 6
07
b1101001101111101 ;
0<
b1110000111000100 A
#15480
0!
0"
0$
1&
17
1<
b1110011000110001 A
#15520
b1110001101110111 6
07
b1110001101111110 ;
0<
b1110100110010111 A
#15560
0/
17
1<
b1110101111101011 A
#15600
0,
b1111001101111000 6
07
b1111001101111111 ;
0<
b101000 @
b1110110100101001 A
#15640
1#
17
1<
b1110110101001100 A
#15680
0*
b0 6
07
08
0:
b0 ;
0<
0=
0?
b1110110001010101 A
#15720
17
1<
b1110101001000110 A
#15760
1)
07
0<
b1110011100100100 A
#15800
17
1<
b1110001011110111 A
#15840
1"
1%
0&
1'
0(
07
0<
b1101110111001011 A
#15880
10
17
1<
b1101011110101100 A
#15920
07
0<
b101001 @
b1101000010101010 A
#15960
17
1<
b1100100011011000 A
#16000
1!
0#
0%
0'
1(
0.
11
b1111001010 6
07
18
1:
b1111010001 ;
0<
1=
1?
b1100000001001010 A
#16040
0-
17
1<
b1011011100010101 A
#16080
0+
b1001111001011 6
07
b1001111010010 ;
0<
b1010110101010011 A
#16120
17
1<
b1010001100011010 A
#16160
0!
1#
1$
1%
0(
b10001111001100 6
07
b10001111010011 ;
0<
b1001100010001000 A
#16200
0)
17
1<
b101010 @
b1000110110110101 A
#16240
1*
b11001111001101 6
07
b11001111010100 ;
0<
b1000001011000000 A
#16280
17
1<
b111011111000011 A
#16320
1!
0"
0#
0$
1'
1(
b100001111001110 6
07
b100001111010101 ;
0<
b110110011011011 A
#16360
01
17
1<
b110001000100101 A
#16400
1,
b101001111001111 6
07
b101001111010110 ;
0<
b101011110111101 A
#16440
17
1<
b100110110111100 A
#16480
b110001111010000 6
07
b110001111010111 ;
0<
b100010000111101 A
#16520
0!
1"
1#
1$
0'
17
1<
b101001 @
b11101101011001 A
#16560
b111001111010001 6
07
b111001111011000 ;
0<
b11001100100110 A
#16600
17
1<
b10101110111010 A
#16640
b1000001111010010 6
07
b1000001111011001 ;
0<
b10010100100111 A
#16680
0#
0$
0%
1&
1'
1)
1/
17
1<
b1111110000000 A
#16720
b1001001111010011 6
07
b1001001111011010 ;
0<
b1101011010010 A
#16760
1+
17
1<
b1011100101001 A
#16800
0*
b1010001111010100 6
07
b1010001111011011 ;
0<
b100110 @
b1010010010000 A
#16840
1!
0"
1#
0'
17
1<
b1001100001100 A
#16880
b1011001111010101 6
07
b1011001111011100 ;
0<
b1001010100010 A
#16920
1-
17
1<
b1001101010011 A
#16960
b1100001111010110 6
07
b1100001111011101 ;
0<
b1010100011100 A
#17000
0!
1"
0#
0&
1'
1.
17
1<
b1011111111010 A
#17040
b1101001111010111 6
07
b1101001111011110 ;
0<
b1101111100101 A
#17080
00
17
1<
b10000011010011 A
#17120
0)
b1110001111011000 6
07
b1110001111011111 ;
0<
b100111 @
b10011010110111 A
#17160
0,
17
1<
b10110110000001 A
#17200
1&
0(
b1111001111011001 6
07
b1111001111000000 ;
0<
b11010100100001 A
#17240
17
1<
b11110110000010 A
#17280
b0 6
07
08
0:
b0 ;
0<
0=
0?
b100011010001111 A
#17320
17
1<
b101000000110001 A
#17360
1#
1$
1(
1*
07
0<
b101101001001110 A
#17400
17
1<
b100100 @
b110010011001101 A
#17440
0+
07
0<
b110111110010010 A
#17480
17
1<
b111101010000001 A
#17520
1%
0(
12
07
0<
b1000010101111111 A
#17560
1)
17
1<
b1001000001101110 A
#17600
b10000101011 6
07
18
1:
b10000110010 ;
0<
1=
1?
b11010 @
b1001101100110011 A
#17640
17
1<
b1010010110110010 A
#17680
0#
0%
0&
b1010000101100 6
07
b1010000110011 ;
0<
b1010111111001111 A
#17720
17
1<
b11011 @
b1011100101110001 A
#17760
0/
b10010000101101 6
07
b10010000110100 ;
0<
b1100001001111110 A
#17800
0-
17
1<
b1100101011011111 A
#17840
b11010000101110 6
07
b11010000110101 ;
0<
b1101001001111111 A
#17880
1#
1%
0'
02
17
1<
b1101100101001001 A
#17920
0*
b100010000101111 6
07
b100010000110110 ;
0<
b1101111100101101 A
