fixtures/pro/protocol/axis/generated/axis_basic.vcd
$timescale 1ns $end
$scope module tb $end
$var wire 1 ! aclk $end
$var wire 1 " aresetn $end
$var wire 1 # tvalid $end
$var wire 1 % tlast $end
$var wire 32 & tdata $end
$var wire 4 ' tkeep $end
$upscope $end
$enddefinitions $end
$dumpvars
0!
0"
0#
0%
b00000000000000000000000000000000 &
b0000 '
$end
#0
0!
#1
1"
b1111 '
#5
1!
#10
0!
#12
1#
1%
b11101111101111101010110111011110 &
#15
1!
#20
0!
#22
0#
0%
#25
1!
#30
0!
#35
1!
#40
0!
#45
1!
#50
0!
#55
1!
#60
0!
#65
1!
#70
0!
#75
1!
#80
0!
#82
b00000011000000100000000100000000 &
1#
#85
1!
#90
0!
#92
b00010011000100100001000100010000 &
#95
1!
#100
0!
#102
b00100011001000100010000100100000 &
#105
1!
#110
0!
#112
1%
b00110011001100100011000100110000 &
#115
1!
#120
0!
#122
0#
0%
#125
1!
#130
0!
#135
1!
#140
0!
#145
1!
#150
0!
#155
1!
#160
0!
#165
1!
#170
0!
#175
1!
#180
0!
#182
1#
b10100011101000101010000110100000 &
#185
1!
#190
0!
#192
b10110011101100101011000110110000 &
#195
1!
#200
0!
#202
1%
b00000000000000001100000111000000 &
b0011 '
#205
1!
#210
0!
#212
0#
0%
