fixtures/pro/protocol/axis/generated/axis_errors.vcd
$timescale 1ns $end
$scope module tb $end
$var wire 1 ! aclk $end
$var wire 1 " aresetn $end
$var wire 1 # tvalid $end
$var wire 1 % tlast $end
$var wire 32 & tdata $end
$var wire 4 ' tkeep $end
$upscope $end
$enddefinitions $end
$dumpvars
0!
0"
0#
0%
b00000000000000000000000000000000 &
b0000 '
$end
#0
0!
#1
1"
b1111 '
#5
1!
#10
0!
#12
1#
b10101101101011001010101110101010 &
#15
1!
#20
0!
#22
b10111101101111001011101110111010 &
b1110 '
#25
1!
#30
0!
#32
b11001101110011001100101111001010 &
b1111 '
#35
1!
#40
0!
#42
1%
b11011101110111001101101111011010 &
#45
1!
#50
0!
#52
0%
0#
#55
1!
#60
0!
#65
1!
#70
0!
#75
1!
#80
0!
#85
1!
#90
0!
#95
1!
#100
0!
#105
1!
#110
0!
#112
1#
b00000011000000100000000100000000 &
#115
1!
#120
0!
#122
b00010011000100100001000100010000 &
#125
1!
#130
0!
#132
b00100011001000100010000100100000 &
#135
1!
#140
0!
#142
b00110011001100100011000100110000 &
#145
1!
#150
0!
#152
b01000011010000100100000101000000 &
#155
1!
#160
0!
#162
1%
b01010011010100100101000101010000 &
#165
1!
#170
0!
#172
0#
0%
#175
1!
#180
0!
#185
1!
#190
0!
#195
1!
#200
0!
#205
1!
#210
0!
#215
1!
#220
0!
#225
1!
#230
0!
#232
1#
b11100011111000101110000111100000 &
#235
1!
#240
0!
#242
b11100111111001101110010111100100 &
#245
1!
#250
0!
#252
b11101011111010101110100111101000 &
#255
1!
#260
0!
#262
0"
0#
#265
1!
#270
0!
#272
1"
