fixtures/open-core/protocol/wishbone/generated/wishbone_b3_classic_violations.vcd
$timescale 1ns $end
$scope module tb $end
$var wire 1  !  CLK $end
$var wire 1  "  RST $end
$var wire 1  #  CYC $end
$var wire 1  $  STB $end
$var wire 1  %  WE $end
$var wire 32  &  ADR $end
$var wire 32  '  DAT_O $end
$var wire 32  (  DAT_I $end
$var wire 1  )  ACK $end
$var wire 1  *  ERR $end
$var wire 1  +  RTY $end
$var wire 4  ,  SEL $end
$var wire 3  -  CTI $end
$var wire 2  .  BTE $end
$upscope $end
$enddefinitions $end
$dumpvars
0!
0"
0#
0$
0%
b00000000000000000000000000000000 &
b00000000000000000000000000000000 '
b00000000000000000000000000000000 (
0)
0*
0+
b0000 ,
b000 -
b00 .
$end
#2
1"
#5
1!
#10
0!
#12
0"
1$
b00000000000000000000000100000000 &
#15
1!
#20
0!
#22
0$
b00000000000000000000000000000000 &
#25
1!
#30
0!
#32
1)
#35
1!
#40
0!
#42
0)
#45
1!
#50
0!
#52
1#
1$
1%
b00000000000000000000000100000000 &
b11011110101011011011111011101111 '
b1111 ,
1)
1*
#55
1!
#60
0!
#62
0#
0$
0%
0)
0*
b00000000000000000000000000000000 &
b00000000000000000000000000000000 '
b0000 ,
#65
1!
#70
0!
#72
1#
1$
b00000000000000000000000100000000 &
b00010010001101000101011001111000 (
b1111 ,
b011 -
1)
#75
1!
#80
0!
#82
0#
0$
0)
b000 -
b0000 ,
b00000000000000000000000000000000 &
b00000000000000000000000000000000 (
#85
1!
#90
0!
#92
1#
1$
b00000000000000000000000100000000 &
b00010010001101000101011001111000 (
b1111 ,
b01 .
1)
#95
1!
#100
0!
#102
0#
0$
0)
b00 .
b0000 ,
b00000000000000000000000000000000 &
b00000000000000000000000000000000 (
#105
1!
#110
0!
#112
1#
1$
1%
b00000000000000000000000100000001 &
b11011110101011011011111011101111 '
b1111 ,
1)
#115
1!
#120
0!
#122
0#
0$
0%
0)
b00000000000000000000000000000000 &
b00000000000000000000000000000000 '
b0000 ,
#125
1!
#130
0!
#132
1#
1$
b00000000000000000000001000000000 &
b00010000000000000000000000000000 (
b1111 ,
b001 -
1)
#135
1!
#140
0!
#142
b00000000000000000000001000000100 &
b00100000000000000000000000000000 (
#145
1!
#150
0!
#152
b111 -
b00000000000000000000001000001000 &
b00110000000000000000000000000000 (
#155
1!
#160
0!
#162
0#
0$
0)
b000 -
b0000 ,
b00000000000000000000000000000000 &
b00000000000000000000000000000000 (
#165
1!
#170
0!
#172
1#
1$
b00000000000000000000001100000000 &
b01000000000000000000000000000000 (
b1111 ,
b010 -
1)
#175
1!
#180
0!
#182
1%
b00000000000000000000001100000100 &
b01010000000000000000000000000000 '
#185
1!
#190
0!
#192
b111 -
b00000000000000000000001100001000 &
b01100000000000000000000000000000 '
#195
1!
#200
0!
#202
0#
0$
0%
0)
b000 -
b0000 ,
b00000000000000000000000000000000 &
b00000000000000000000000000000000 '
b00000000000000000000000000000000 (
