fixtures/open-core/protocol/spi/generated/spi_mode1.vcd
$timescale 1 ns $end
$scope module spi_tb $end
$var wire 1 ! sclk $end
$var wire 1 " mosi $end
$var wire 1 # miso $end
$var wire 1 % cs $end
$upscope $end
$enddefinitions $end
$dumpvars
0!
0"
0#
1%
$end
#10
0%
#25
1"
1#
#20
1!
#30
0!
#45
1"
0#
#40
1!
#50
0!
#65
0"
1#
#60
1!
#70
0!
#85
1"
1#
#80
1!
#90
0!
#105
1"
1#
#100
1!
#110
0!
#125
1"
1#
#120
1!
#130
0!
#145
1"
1#
#140
1!
#150
0!
#165
0"
0#
#160
1!
#170
0!
#170
1%
#180
0%
#195
1"
1#
#190
1!
#200
0!
#215
1"
0#
#210
1!
#220
0!
#235
0"
1#
#230
1!
#240
0!
#255
1"
1#
#250
1!
#260
0!
#275
1"
1#
#270
1!
#280
0!
#295
1"
1#
#290
1!
#300
0!
#315
1"
1#
#310
1!
#320
0!
#335
0"
0#
#330
1!
#340
0!
#355
1"
1#
#350
1!
#360
0!
#375
0"
1#
#370
1!
#380
0!
#395
1"
1#
#390
1!
#400
0!
#415
0"
0#
#410
1!
#420
0!
#435
1"
1#
#430
1!
#440
0!
#455
1"
1#
#450
1!
#460
0!
#475
0"
1#
#470
1!
#480
0!
#495
1"
1#
#490
1!
#500
0!
#500
1%
