fixtures/open-core/protocol/apb/generated/apb_basic.vcd
$timescale 1ns $end
$scope module tb $end
$var wire 1  !  PCLK    $end
$var wire 1  "  PRESETn $end
$var wire 32 #  PADDR   $end
$var wire 1  $  PWRITE  $end
$var wire 32 %  PWDATA  $end
$var wire 32 &  PRDATA  $end
$var wire 1  '  PSEL    $end
$var wire 1  (  PENABLE $end
$var wire 1  )  PREADY  $end
$var wire 1  *  PSLVERR $end
$var wire 4  +  PSTRB   $end
$var wire 3  ,  PPROT   $end
$upscope $end
$enddefinitions $end
$dumpvars
0!
0"
b00000000000000000000000000000000 #
0$
b00000000000000000000000000000000 %
b00000000000000000000000000000000 &
0'
0(
0)
0*
b0000 +
b000 ,
$end
#1
1"
#2
1'
1$
b00000000000000000000000000000100 #
b11011110101011011011111011101111 %
b1111 +
1)
#5
1!
#10
0!
#12
1(
#15
1!
#18
0'
0(
0$
b00000000000000000000000000000000 #
b00000000000000000000000000000000 %
b0000 +
#20
0!
#22
1'
b00000000000000000000000000001000 #
b00010010001101000101011001111000 &
#25
1!
#30
0!
#32
1(
#35
1!
#38
0'
0(
b00000000000000000000000000000000 #
b00000000000000000000000000000000 &
#40
0!
#42
1'
1$
b00000000000000000000000000001100 #
b11001010111111101011101010111110 %
b1111 +
0)
#45
1!
#50
0!
#52
1(
#55
1!
#60
0!
#62
1)
#65
1!
#68
0'
0(
0$
b00000000000000000000000000000000 #
b00000000000000000000000000000000 %
b0000 +
#70
0!
#72
1'
b00000000000000000000000000010000 #
b10100101101001011010010110100101 &
#75
1!
#80
0!
#82
1(
1*
#85
1!
#88
0'
0(
0*
b00000000000000000000000000000000 #
b00000000000000000000000000000000 &
