fixtures/pro/stage/boards/zybo_z7/zybo_z7_demo_per_bit.vcd
$date
  2026-06-07T00:00:00.000Z
$end
$version
  WaveCrux Pro board demo fixture generator
$end
$comment
  Digilent Zybo Z7 out-of-box demo — individual per-bit signals.
  LED show: cylon / VU bar / chase / switch-mirror / expand / sparkle.
  Live peripherals: HDMI raster, audio sine, ADC, etc.
  Re-generate with `dart run tool/generate_board_demo_fixtures.dart`.
$end
$timescale 1 ns $end
$scope module top $end
$var wire 1 ! led0 $end
$var wire 1 " led1 $end
$var wire 1 # led2 $end
$var wire 1 $ led3 $end
$var wire 1 % sw0 $end
$var wire 1 & sw1 $end
$var wire 1 ' sw2 $end
$var wire 1 ( sw3 $end
$var wire 1 ) btn0 $end
$var wire 1 * btn1 $end
$var wire 1 + btn2 $end
$var wire 1 , btn3 $end
$var wire 1 - led_rgb_5 $end
$var wire 1 . led_rgb_6 $end
$var wire 16 / hdmi_in_data $end
$var wire 1 0 hdmi_in_pixel_clk $end
$var wire 1 1 hdmi_in_hsync $end
$var wire 1 2 hdmi_in_vsync $end
$var wire 1 3 hdmi_in_de $end
$var wire 16 4 hdmi_out_data $end
$var wire 1 5 hdmi_out_pixel_clk $end
$var wire 1 6 hdmi_out_hsync $end
$var wire 1 7 hdmi_out_vsync $end
$var wire 1 8 hdmi_out_de $end
$var wire 16 9 audio_codec_mic_in $end
$var wire 16 : audio_codec_headphone_out $end
$upscope $end
$enddefinitions $end
#0
$dumpvars
1!
0"
0#
0$
0%
0&
0'
0(
0)
0*
0+
0,
0-
0.
b0 /
00
11
12
13
b111 4
05
16
17
18
b1000000000000000 9
b1000000000000000 :
$end
#40
10
15
b1000111011110110 9
b1000100011101011 :
#80
b1000000000001 /
00
b1000000001000 4
05
b1001110110011000 9
b1001000111001000 :
#120
10
15
b1010101110010101 9
b1001101010001011 :
#160
0!
1"
b10000000000010 /
00
b10000000001001 4
05
b1011100010011111 9
b1010001100100110 :
#200
10
15
b1100010001101100 9
b1010101110001110 :
#240
1-
b11000000000011 /
00
b11000000001010 4
05
b1100111010111011 9
b1011001110110101 :
#280
10
15
b1101011101010011 9
b1011101110001111 :
#320
0"
1#
b100000000000100 /
00
b100000000001011 4
05
b1101111000000011 9
b1100001100010000 :
#360
10
15
b1110001010100101 9
b1100101000101110 :
#400
b101000000000101 /
00
b101000000001100 4
05
b1110010100100001 9
b1101000011011110 :
#440
1.
10
15
b1110010101101000 9
b1101011100010110 :
#480
0#
1$
1%
0-
b110000000000110 /
00
b110000000001101 4
05
b1110001101111001 9
b1101110011001101 :
#520
10
15
b1101111101011110 9
b1110000111111010 :
#560
1&
b111000000000111 /
00
b111000000001110 4
05
b1101100100101110 9
b1110011010010110 :
#600
1#
0$
10
15
b1101000100001100 9
b1110101010011001 :
#640
b1000000000001000 /
00
b1000000000001111 4
05
b1100011100100110 9
b1110110111111110 :
#680
1'
10
15
b1011101110110010 9
b1111000011000000 :
#720
1-
b1001000000001001 /
00
b1001000000010000 4
05
b1010111011110001 9
b1111001011011010 :
#760
1"
0#
10
15
b1010000100101010 9
b1111010001001011 :
#800
1(
b1010000000001010 /
00
b1010000000010001 4
05
b1001001010101001 9
b1111010100001110 :
#840
0.
10
15
b1000001111000001 9
b1111010100100100 :
#880
b1011000000001011 /
00
b1011000000010010 4
05
b111010011000011 9
b1111010010001100 :
#920
1!
0"
0%
10
15
b110011000000100 9
b1111001101000111 :
#960
0-
b1100000000001100 /
00
b1100000000010011 4
05
b101011111010110 9
b1111000101010110 :
#1000
10
15
b100101010001001 9
b1110111010111110 :
#1040
b1101000000001101 /
00
b1101000000010100 4
05
b11111001100110 9
b1110101110000001 :
#1080
0!
1"
10
15
b11001110110001 9
b1110011110100101 :
#1120
0&
b1110000000001110 /
00
b1110000000010101 4
05
b10101010100111 9
b1110001100101111 :
#1160
10
15
b10001101111001 9
b1101111000100110 :
#1200
0"
1#
1-
b1111000000001111 /
00
b1111000000010110 4
05
b1111001010001 9
b1101100010010000 :
#1240
10
15
b1101101001001 9
b1101001001111000 :
#1280
1.
b0 /
00
01
03
b0 4
05
06
08
b1101001110100 9
b1100101111100101 :
#1320
10
15
b1101111010111 9
b1100010011100010 :
#1360
0#
1$
1%
0'
00
05
b1111101101001 9
b1011110101111000 :
#1400
10
15
b10010100010110 9
b1011010110110011 :
#1440
0-
00
05
b10110010111111 9
b1010110110011110 :
#1480
10
15
b11011000111001 9
b1010010101000110 :
#1520
1#
0$
00
05
b100000101001111 9
b1001110010110110 :
#1560
0(
10
15
b100110111000011 9
b1001001111111100 :
#1600
b1100001 /
00
11
13
b1101000 4
05
16
18
b101101101010000 9
b1000101100100100 :
#1640
10
15
b110100110101001 9
b1000001000111011 :
#1680
1"
0#
1&
1-
0.
b1000001100010 /
00
b1000001101001 4
05
b111100010000000 9
b111100101001111 :
#1720
10
15
b1000011110000000 9
b111000001101101 :
#1760
b10000001100011 /
00
b10000001101010 4
05
b1001011001010111 9
b110011110100011 :
#1800
1!
0"
0%
10
15
b1010010010110000 9
b101111011111100 :
#1840
b11000001100100 /
00
b11000001101011 4
05
b1011001000111101 9
b101011010000110 :
#1880
10
15
b1011111010110001 9
b100111001001110 :
#1920
0-
b100000001100101 /
00
b100000001101100 4
05
b1100100111000111 9
b100011001100000 :
#1960
0!
1"
10
15
b1101001101000001 9
b11111011000111 :
#2000
1)
b101000001100110 /
00
b101000001101101 4
05
b1101101011101010 9
b11011110001111 :
#2040
1'
10
15
b1110000010010111 9
b11000011000011 :
#2080
b110000001100111 /
00
b110000001101110 4
05
b1110010000101001 9
b10101001101100 :
#2120
0"
1#
1.
10
15
b1110010110001100 9
b10010010010100 :
#2160
1-
b111000001101000 /
00
b111000001101111 4
05
b1110010010110111 9
b1111101000100 :
#2200
10
15
b1110000110101111 9
b1101010000011 :
#2240
0&
b1000000001101001 /
00
b1000000001110000 4
05
b1101110010000111 9
b1011001011001 :
#2280
0#
1$
1%
10
15
b1101010101011001 9
b1001011001100 :
#2320
b1001000001101010 /
00
b1001000001110001 4
05
b1100110001001111 9
b111111100001 :
#2360
1(
0)
10
15
b1100000110011010 9
b110110011100 :
#2400
1#
0$
0-
b1010000001101011 /
00
b1010000001110010 4
05
b1011010101110111 9
b110000000001 :
#2440
10
15
b1010100000101010 9
b101100010011 :
#2480
b1011000001101100 /
00
b1011000001110011 4
05
b1001100111111100 9
b101011010001 :
#2520
0.
10
15
b1000101100111101 9
b101100111110 :
#2560
1"
0#
b1100000001101101 /
00
b1100000001110100 4
05
b111110000111111 9
b110001011000 :
#2600
10
15
b110110101010111 9
b111000011110 :
#2640
1-
b1101000001101110 /
00
b1101000001110101 4
05
b101111011010110 9
b1000010001100 :
#2680
0'
10
15
b101000100001111 9
b1001110100000 :
#2720
1!
0"
0%
b1110000001101111 /
00
b1110000001110110 4
05
b100010001001110 9
b1011101010101 :
#2760
10
15
b11100011011010 9
b1101110100110 :
#2800
1&
b1111000001110000 /
00
b1111000001110111 4
05
b10111011110100 9
b10000010001011 :
#2840
10
15
b10011011010010 9
b10010111111110 :
#2880
0!
1"
0-
b0 /
00
01
03
b0 4
05
06
08
b10000010100010 9
b10101111110110 :
#2920
10
15
b1110010000111 9
b11001001101011 :
#2960
1.
00
05
b1101010011000 9
b11100101010100 :
#3000
1!
0"
10
15
b1101011011111 9
b100000010100101 :
#3040
00
05
b1110101011011 9
b100100001010100 :
#3080
10
15
b10000111111101 9
b101000001010110 :
#3120
0!
0(
1-
00
05
b10100010101101 9
b101100010011111 :
#3160
1%
10
15
b11000101000101 9
b110000100100010 :
#3200
b11000010 /
00
11
13
b11001001 4
05
16
18
b11101110010100 9
b110100111010010 :
#3240
10
15
b100011101100001 9
b111001010100100 :
#3280
1!
b1000011000011 /
00
b1000011001010 4
05
b101010001101011 9
b111101110001010 :
#3320
10
15
b110001001101000 9
b1000010001110110 :
#3360
0&
1'
0-
0.
b10000011000100 /
00
b10000011001011 4
05
b111000100001010 9
b1000110101011100 :
#3400
1"
10
15
b1000000000000000 9
b1001011000101110 :
#3440
b11000011000101 /
00
b11000011001100 4
05
b1000111011110110 9
b1001111011011110 :
#3480
10
15
b1001110110011000 9
b1010011101100001 :
#3520
1#
1*
b100000011000110 /
00
b100000011001101 4
05
b1010101110010101 9
b1010111110101010 :
#3560
10
15
b1011100010011111 9
b1011011110101100 :
#3600
0%
1-
b101000011000111 /
00
b101000011001110 4
05
b1100010001101100 9
b1011111101011011 :
#3640
1$
10
15
b1100111010111011 9
b1100011010101100 :
#3680
b110000011001000 /
00
b110000011001111 4
05
b1101011101010011 9
b1100110110010101 :
#3720
10
15
b1101111000000011 9
b1101010000001010 :
#3760
b111000011001001 /
00
b111000011010000 4
05
b1110001010100101 9
b1101101000000010 :
#3800
0$
1.
10
15
b1110010100100001 9
b1101111101110101 :
#3840
0-
b1000000011001010 /
00
b1000000011010001 4
05
b1110010101101000 9
b1110010001011010 :
#3880
0*
10
15
b1110001101111001 9
b1110100010101011 :
#3920
0#
1&
1(
b1001000011001011 /
00
b1001000011010010 4
05
b1101111101011110 9
b1110110001100000 :
#3960
10
15
b1101100100101110 9
b1110111101110100 :
#4000
b1010000011001100 /
00
b1010000011010011 4
05
b1101000100001100 9
b1111000111100010 :
#4040
0"
0'
10
15
b1100011100100110 9
b1111001110101000 :
#4080
1%
1-
b1011000011001101 /
00
b1011000011010100 4
05
b1011101110110010 9
b1111010011000010 :
#4120
10
15
b1010111011110001 9
b1111010100101111 :
#4160
0!
b1100000011001110 /
00
b1100000011010101 4
05
b1010000100101010 9
b1111010011101101 :
#4200
0.
10
15
b1001001010101001 9
b1111001111111111 :
#4240
b1101000011001111 /
00
b1101000011010110 4
05
b1000001111000001 9
b1111001001100100 :
#4280
10
15
b111010011000011 9
b1111000000011111 :
#4320
1!
0-
b1110000011010000 /
00
b1110000011010111 4
05
b110011000000100 9
b1110110100110100 :
#4360
10
15
b101011111010110 9
b1110100110100111 :
#4400
b1111000011010001 /
00
b1111000011011000 4
05
b100101010001001 9
b1110010101111101 :
#4440
1"
10
15
b11111001100110 9
b1110000010111100 :
#4480
0&
b0 /
00
01
03
b0 4
05
06
08
b11001110110001 9
b1101101101101100 :
#4520
0%
10
15
b10101010100111 9
b1101010110010100 :
#4560
1#
1-
00
05
b10001101111001 9
b1100111100111101 :
#4600
10
15
b1111001010001 9
b1100100001110001 :
#4640
1.
00
05
b1101101001001 9
b1100000100111001 :
#4680
1$
0(
10
15
b1101001110100 9
b1011100110100000 :
#4720
1'
00
05
b1101111010111 9
b1011000110110010 :
#4760
10
15
b1111101101001 9
b1010100101111010 :
#4800
0-
b100100011 /
00
11
13
b100101010 4
05
16
18
b10010100010110 9
b1010000100000100 :
#4840
0$
10
15
b10110010111111 9
b1001100001011101 :
#4880
b1000100100100 /
00
b1000100101011 4
05
b11011000111001 9
b1000111110010011 :
#4920
10
15
b100000101001111 9
b1000011010110001 :
#4960
0#
1%
b10000100100101 /
00
b10000100101100 4
05
b100110111000011 9
b111110111000101 :
#5000
1+
10
15
b101101101010000 9
b111010011011100 :
#5040
1&
1-
0.
b11000100100110 /
00
b11000100101101 4
05
b110100110101001 9
b110110000000100 :
#5080
0"
10
15
b111100010000000 9
b110001101001010 :
#5120
b100000100100111 /
00
b100000100101110 4
05
b1000011110000000 9
b101101010111010 :
#5160
10
15
b1001011001010111 9
b101001001100010 :
#5200
0!
b101000100101000 /
00
b101000100101111 4
05
b1010010010110000 9
b100101001001101 :
#5240
10
15
b1011001000111101 9
b100001010001000 :
#5280
0-
b110000100101001 /
00
b110000100110000 4
05
b1011111010110001 9
b11101100011110 :
#5320
10
15
b1100100111000111 9
b11010000011011 :
#5360
1!
0'
0+
b111000100101010 /
00
b111000100110001 4
05
b1101001101000001 9
b10110110001000 :
#5400
0%
10
15
b1101101011101010 9
b10011101110000 :
#5440
b1000000100101011 /
00
b1000000100110010 4
05
b1110000010010111 9
b10000111011010 :
#5480
1"
1(
1.
10
15
b1110010000101001 9
b1110011010001 :
#5520
1-
b1001000100101100 /
00
b1001000100110011 4
05
b1110010110001100 9
b1100001011011 :
#5560
10
15
b1110010010110111 9
b1010001111111 :
#5600
1#
0&
b1010000100101101 /
00
b1010000100110100 4
05
b1110000110101111 9
b1000101000010 :
#5640
10
15
b1101110010000111 9
b111010101010 :
#5680
b1011000100101110 /
00
b1011000100110101 4
05
b1101010101011001 9
b110010111001 :
#5720
1$
10
15
b1100110001001111 9
b101101110100 :
#5760
0-
b1100000100101111 /
00
b1100000100110110 4
05
b1100000110011010 9
b101011011100 :
#5800
10
15
b1011010101110111 9
b101011110010 :
#5840
b1101000100110000 /
00
b1101000100110111 4
05
b1010100000101010 9
b101110110101 :
#5880
0$
1%
0.
10
15
b1001100111111100 9
b110100100110 :
#5920
b1110000100110001 /
00
b1110000100111000 4
05
b1000101100111101 9
b111101000000 :
#5960
10
15
b111110000111111 9
b1001000000010 :
#6000
0"
0#
1$
1-
b1111000100110010 /
00
b1111000100111001 4
05
b110110101010111 9
b1010101100111 :
#6040
1'
10
15
b101111011010110 9
b1100101101010 :
#6080
b0 /
00
01
03
b0 4
05
06
08
b101000100001111 9
b1111000000110 :
#6120
10
15
b100010001001110 9
b10001100110011 :
#6160
1&
00
05
b11100011011010 9
b10100011101010 :
#6200
0!
1#
0$
10
15
b10111011110100 9
b10111100100010 :
#6240
0(
0-
00
05
b10011011010010 9
b11010111010010 :
#6280
10
15
b10000010100010 9
b11110011110000 :
#6320
0%
1.
00
05
b1110010000111 9
b100010001110001 :
#6360
10
15
b1101010011000 9
b100110001001011 :
#6400
1"
0#
b110000100 /
00
11
13
b110001011 4
05
16
18
b1101011011111 9
b101010001110010 :
#6440
10
15
b1110101011011 9
b101110011011010 :
#6480
1-
b1000110000101 /
00
b1000110001100 4
05
b10000111111101 9
b110010101110101 :
#6520
1,
10
15
b10100010101101 9
b110111000111000 :
#6560
b10000110000110 /
00
b10000110001101 4
05
b11000101000101 9
b111011100010101 :
#6600
1!
0"
1$
10
15
b11101110010100 9
b1000000000000000 :
#6640
b11000110000111 /
00
b11000110001110 4
05
b100011101100001 9
b1000100011101011 :
#6680
10
15
b101010001101011 9
b1001000111001000 :
#6720
0&
0'
0-
0.
b100000110001000 /
00
b100000110001111 4
05
b110001001101000 9
b1001101010001011 :
#6760
1%
10
15
b111000100001010 9
b1010001100100110 :
#6800
0!
1#
0$
b101000110001001 /
00
b101000110010000 4
05
b1000000000000000 9
b1010101110001110 :
#6840
10
15
b1000111011110110 9
b1011001110110101 :
#6880
0,
b110000110001010 /
00
b110000110010001 4
05
b1001110110011000 9
b1011101110001111 :
#6920
10
15
b1010101110010101 9
b1100001100010000 :
#6960
1-
b111000110001011 /
00
b111000110010010 4
05
b1011100010011111 9
b1100101000101110 :
#7000
1"
0#
10
15
b1100010001101100 9
b1101000011011110 :
#7040
1(
b1000000110001100 /
00
b1000000110010011 4
05
b1100111010111011 9
b1101011100010110 :
#7080
10
15
b1101011101010011 9
b1101110011001101 :
#7120
b1001000110001101 /
00
b1001000110010100 4
05
b1101111000000011 9
b1110000111111010 :
#7160
1.
10
15
b1110001010100101 9
b1110011010010110 :
#7200
1!
0"
1$
0%
0-
b1010000110001110 /
00
b1010000110010101 4
05
b1110010100100001 9
b1110101010011001 :
#7240
10
15
b1110010101101000 9
b1110110111111110 :
#7280
1&
b1011000110001111 /
00
b1011000110010110 4
05
b1110001101111001 9
b1111000011000000 :
#7320
10
15
b1101111101011110 9
b1111001011011010 :
#7360
b1100000110010000 /
00
b1100000110010111 4
05
b1101100100101110 9
b1111010001001011 :
#7400
0!
1#
0$
1'
10
15
b1101000100001100 9
b1111010100001110 :
#7440
1-
b1101000110010001 /
00
b1101000110011000 4
05
b1100011100100110 9
b1111010100100100 :
#7480
10
15
b1011101110110010 9
b1111010010001100 :
#7520
b1110000110010010 /
00
b1110000110011001 4
05
b1010111011110001 9
b1111001101000111 :
#7560
0.
10
15
b1010000100101010 9
b1111000101010110 :
#7600
1"
0#
b1111000110010011 /
00
b1111000110011010 4
05
b1001001010101001 9
b1110111010111110 :
#7640
10
15
b1000001111000001 9
b1110101110000001 :
#7680
1%
0-
b0 /
00
01
03
b0 4
05
06
08
b111010011000011 9
b1110011110100101 :
#7720
10
15
b110011000000100 9
b1110001100101111 :
#7760
00
05
b101011111010110 9
b1101111000100110 :
#7800
1!
0"
1$
0(
10
15
b100101010001001 9
b1101100010010000 :
#7840
0&
00
05
b11111001100110 9
b1101001001111000 :
#7880
10
15
b11001110110001 9
b1100101111100101 :
#7920
1-
00
05
b10101010100111 9
b1100010011100010 :
#7960
10
15
b10001101111001 9
b1011110101111000 :
#8000
0!
1#
0$
1.
b111100101 /
00
11
13
b111101100 4
05
16
18
b1111001010001 9
b1011010110110011 :
#8040
0'
10
15
b1101101001001 9
b1010110110011110 :
#8080
b1000111100110 /
00
b1000111101101 4
05
b1101001110100 9
b1010010101000110 :
#8120
0%
10
15
b1101111010111 9
b1001110010110110 :
#8160
0-
b10000111100111 /
00
b10000111101110 4
05
b1111101101001 9
b1001001111111100 :
#8200
1"
0#
10
15
b10010100010110 9
b1000101100100100 :
#8240
b11000111101000 /
00
b11000111101111 4
05
b10110010111111 9
b1000001000111011 :
#8280
10
15
b11011000111001 9
b111100101001111 :
#8320
b100000111101001 /
00
b100000111110000 4
05
b100000101001111 9
b111000001101101 :
#8360
10
15
b100110111000011 9
b110011110100011 :
#8400
1!
0"
1$
1&
1-
0.
b101000111101010 /
00
b101000111110001 4
05
b101101101010000 9
b101111011111100 :
#8440
10
15
b110100110101001 9
b101011010000110 :
#8480
b110000111101011 /
00
b110000111110010 4
05
b111100010000000 9
b100111001001110 :
#8520
10
15
b1000011110000000 9
b100011001100000 :
#8560
1%
b111000111101100 /
00
b111000111110011 4
05
b1001011001010111 9
b11111011000111 :
#8600
0!
1#
0$
1(
10
15
b1010010010110000 9
b11011110001111 :
#8640
0-
b1000000111101101 /
00
b1000000111110100 4
05
b1011001000111101 9
b11000011000011 :
#8680
10
15
b1011111010110001 9
b10101001101100 :
#8720
1'
b1001000111101110 /
00
b1001000111110101 4
05
b1100100111000111 9
b10010010010100 :
#8760
10
15
b1101001101000001 9
b1111101000100 :
#8800
1"
0#
b1010000111101111 /
00
b1010000111110110 4
05
b1101101011101010 9
b1101010000011 :
#8840
1.
10
15
b1110000010010111 9
b1011001011001 :
#8880
1-
b1011000111110000 /
00
b1011000111110111 4
05
b1110010000101001 9
b1001011001100 :
#8920
10
15
b1110010110001100 9
b111111100001 :
#8960
0&
b1100000111110001 /
00
b1100000111111000 4
05
b1110010010110111 9
b110110011100 :
#9000
0"
1#
1$
0%
1)
10
15
b1110000110101111 9
b110000000001 :
#9040
b1101000111110010 /
00
b1101000111111001 4
05
b1101110010000111 9
b101100010011 :
#9080
10
15
b1101010101011001 9
b101011010001 :
#9120
0-
b1110000111110011 /
00
b1110000111111010 4
05
b1100110001001111 9
b101100111110 :
#9160
10
15
b1100000110011010 9
b110001011000 :
#9200
b1111000111110100 /
00
b1111000111111011 4
05
b1011010101110111 9
b111000011110 :
#9240
0.
10
15
b1010100000101010 9
b1000010001100 :
#9280
b0 /
00
01
03
b0 4
05
06
08
b1001100111111100 9
b1001110100000 :
#9320
10
15
b1000101100111101 9
b1011101010101 :
#9360
0$
0(
0)
1-
00
05
b111110000111111 9
b1101110100110 :
#9400
0#
0'
10
15
b110110101010111 9
b10000010001011 :
#9440
00
05
b101111011010110 9
b10010111111110 :
#9480
1!
1%
10
15
b101000100001111 9
b10101111110110 :
#9520
1"
1&
00
05
b100010001001110 9
b11001001101011 :
#9560
10
15
b11100011011010 9
b11100101010100 :
#9600
0-
b1001000110 /
00
11
13
b1001001101 4
05
16
18
b10111011110100 9
b100000010100101 :
#9640
10
15
b10011011010010 9
b100100001010100 :
#9680
1.
b1001001000111 /
00
b1001001001110 4
05
b10000010100010 9
b101000001010110 :
#9720
10
15
b1110010000111 9
b101100010011111 :
#9760
b10001001001000 /
00
b10001001001111 4
05
b1101010011000 9
b110000100100010 :
#9800
10
15
b1101011011111 9
b110100111010010 :
#9840
1-
b11001001001001 /
00
b11001001010000 4
05
b1110101011011 9
b111001010100100 :
#9880
10
15
b10000111111101 9
b111101110001010 :
#9920
0!
0%
b100001001001010 /
00
b100001001010001 4
05
b10100010101101 9
b1000010001110110 :
#9960
10
15
b11000101000101 9
b1000110101011100 :
#10000
b101001001001011 /
00
b101001001010010 4
05
b11101110010100 9
b1001011000101110 :
#10040
10
15
b100011101100001 9
b1001111011011110 :
#10080
0"
1#
0&
1'
0-
0.
b110001001001100 /
00
b110001001010011 4
05
b101010001101011 9
b1010011101100001 :
#10120
10
15
b110001001101000 9
b1010111110101010 :
#10160
1$
1(
b111001001001101 /
00
b111001001010100 4
05
b111000100001010 9
b1011011110101100 :
#10200
10
15
b1000000000000000 9
b1011111101011011 :
#10240
b1000001001001110 /
00
b1000001001010101 4
05
b1000111011110110 9
b1100011010101100 :
#10280
10
15
b1001110110011000 9
b1100110110010101 :
#10320
1-
b1001001001001111 /
00
b1001001001010110 4
05
b1010101110010101 9
b1101010000001010 :
#10360
1!
1%
10
15
b1011100010011111 9
b1101101000000010 :
#10400
b1010001001010000 /
00
b1010001001010111 4
05
b1100010001101100 9
b1101111101110101 :
#10440
10
15
b1100111010111011 9
b1110010001011010 :
#10480
b1011001001010001 /
00
b1011001001011000 4
05
b1101011101010011 9
b1110100010101011 :
#10520
1*
1.
10
15
b1101111000000011 9
b1110110001100000 :
#10560
0-
b1100001001010010 /
00
b1100001001011001 4
05
b1110001010100101 9
b1110111101110100 :
#10600
10
15
b1110010100100001 9
b1111000111100010 :
#10640
1"
1&
b1101001001010011 /
00
b1101001001011010 4
05
b1110010101101000 9
b1111001110101000 :
#10680
10
15
b1110001101111001 9
b1111010011000010 :
#10720
0#
0'
b1110001001010100 /
00
b1110001001011011 4
05
b1101111101011110 9
b1111010100101111 :
#10760
10
15
b1101100100101110 9
b1111010011101101 :
#10800
0!
0%
1-
b1111001001010101 /
00
b1111001001011100 4
05
b1101000100001100 9
b1111001111111111 :
#10840
10
15
b1100011100100110 9
b1111001001100100 :
#10880
0*
b0 /
00
01
03
b0 4
05
06
08
b1011101110110010 9
b1111000000011111 :
#10920
0$
0(
0.
10
15
b1010111011110001 9
b1110110100110100 :
#10960
00
05
b1010000100101010 9
b1110100110100111 :
#11000
10
15
b1001001010101001 9
b1110010101111101 :
#11040
0-
00
05
b1000001111000001 9
b1110000010111100 :
#11080
10
15
b111010011000011 9
b1101101101101100 :
#11120
00
05
b110011000000100 9
b1101010110010100 :
#11160
10
15
b101011111010110 9
b1100111100111101 :
#11200
0"
0&
b1010100111 /
00
11
13
b1010101110 4
05
16
18
b100101010001001 9
b1100100001110001 :
#11240
10
15
b11111001100110 9
b1100000100111001 :
#11280
1!
1%
1-
b1001010101000 /
00
b1001010101111 4
05
b11001110110001 9
b1011100110100000 :
#11320
10
15
b10101010100111 9
b1011000110110010 :
#11360
1.
b10001010101001 /
00
b10001010110000 4
05
b10001101111001 9
b1010100101111010 :
#11400
1#
1'
10
15
b1111001010001 9
b1010000100000100 :
#11440
b11001010101010 /
00
b11001010110001 4
05
b1101101001001 9
b1001100001011101 :
#11480
10
15
b1101001110100 9
b1000111110010011 :
#11520
0-
b100001010101011 /
00
b100001010110010 4
05
b1101111010111 9
b1000011010110001 :
#11560
10
15
b1111101101001 9
b111110111000101 :
#11600
b101001010101100 /
00
b101001010110011 4
05
b10010100010110 9
b111010011011100 :
#11640
10
15
b10110010111111 9
b110110000000100 :
#11680
b110001010101101 /
00
b110001010110100 4
05
b11011000111001 9
b110001101001010 :
#11720
0!
1$
0%
1(
10
15
b100000101001111 9
b101101010111010 :
#11760
1"
1&
1-
0.
b111001010101110 /
00
b111001010110101 4
05
b100110111000011 9
b101001001100010 :
#11800
10
15
b101101101010000 9
b100101001001101 :
#11840
b1000001010101111 /
00
b1000001010110110 4
05
b110100110101001 9
b100001010001000 :
#11880
10
15
b111100010000000 9
b11101100011110 :
#11920
b1001001010110000 /
00
b1001001010110111 4
05
b1000011110000000 9
b11010000011011 :
#11960
10
15
b1001011001010111 9
b10110110001000 :
#12000
0"
0#
0$
1+
0-
b1010001010110001 /
00
b1010001010111000 4
05
b1010010010110000 9
b10011101110000 :
#12040
10
15
b1011001000111101 9
b10000111011010 :
#12080
0'
b1011001010110010 /
00
b1011001010111001 4
05
b1011111010110001 9
b1110011010001 :
#12120
10
15
b1100100111000111 9
b1100001011011 :
#12160
1"
1#
1%
b1100001010110011 /
00
b1100001010111010 4
05
b1101001101000001 9
b1010001111111 :
#12200
1.
10
15
b1101101011101010 9
b1000101000010 :
#12240
1-
b1101001010110100 /
00
b1101001010111011 4
05
b1110000010010111 9
b111010101010 :
#12280
10
15
b1110010000101001 9
b110010111001 :
#12320
1!
1$
0&
b1110001010110101 /
00
b1110001010111100 4
05
b1110010110001100 9
b101101110100 :
#12360
0+
10
15
b1110010010110111 9
b101011011100 :
#12400
b1111001010110110 /
00
b1111001010111101 4
05
b1110000110101111 9
b101011110010 :
#12440
10
15
b1101110010000111 9
b101110110101 :
#12480
0!
0$
0(
0-
b0 /
00
01
03
b0 4
05
06
08
b1101010101011001 9
b110100100110 :
#12520
10
15
b1100110001001111 9
b111101000000 :
#12560
00
05
b1100000110011010 9
b1001000000010 :
#12600
0"
0#
0%
0.
10
15
b1011010101110111 9
b1010101100111 :
#12640
00
05
b1010100000101010 9
b1100101101010 :
#12680
10
15
b1001100111111100 9
b1111000000110 :
#12720
1-
00
05
b1000101100111101 9
b10001100110011 :
#12760
1"
1#
1'
10
15
b111110000111111 9
b10100011101010 :
#12800
b1100001000 /
00
11
13
b1100001111 4
05
16
18
b110110101010111 9
b10111100100010 :
#12840
10
15
b101111011010110 9
b11010111010010 :
#12880
1&
b1001100001001 /
00
b1001100010000 4
05
b101000100001111 9
b11110011110000 :
#12920
1!
1$
10
15
b100010001001110 9
b100010001110001 :
#12960
0-
b10001100001010 /
00
b10001100010001 4
05
b11100011011010 9
b100110001001011 :
#13000
10
15
b10111011110100 9
b101010001110010 :
#13040
1.
b11001100001011 /
00
b11001100010010 4
05
b10011011010010 9
b101110011011010 :
#13080
0!
0$
1%
10
15
b10000010100010 9
b110010101110101 :
#13120
b100001100001100 /
00
b100001100010011 4
05
b1110010000111 9
b110111000111000 :
#13160
10
15
b1101010011000 9
b111011100010101 :
#13200
0"
0#
1-
b101001100001101 /
00
b101001100010100 4
05
b1101011011111 9
b1000000000000000 :
#13240
10
15
b1110101011011 9
b1000100011101011 :
#13280
1(
b110001100001110 /
00
b110001100010101 4
05
b10000111111101 9
b1001000111001000 :
#13320
10
15
b10100010101101 9
b1001101010001011 :
#13360
1"
1#
b111001100001111 /
00
b111001100010110 4
05
b11000101000101 9
b1010001100100110 :
#13400
0'
10
15
b11101110010100 9
b1010101110001110 :
#13440
0&
0-
0.
b1000001100010000 /
00
b1000001100010111 4
05
b100011101100001 9
b1011001110110101 :
#13480
10
15
b101010001101011 9
b1011101110001111 :
#13520
1!
1$
0%
1,
b1001001100010001 /
00
b1001001100011000 4
05
b110001001101000 9
b1100001100010000 :
#13560
10
15
b111000100001010 9
b1100101000101110 :
#13600
b1010001100010010 /
00
b1010001100011001 4
05
b1000000000000000 9
b1101000011011110 :
#13640
10
15
b1000111011110110 9
b1101011100010110 :
#13680
0!
0$
1-
b1011001100010011 /
00
b1011001100011010 4
05
b1001110110011000 9
b1101110011001101 :
#13720
10
15
b1010101110010101 9
b1110000111111010 :
#13760
b1100001100010100 /
00
b1100001100011011 4
05
b1011100010011111 9
b1110011010010110 :
#13800
0"
0#
10
15
b1100010001101100 9
b1110101010011001 :
#13840
b1101001100010101 /
00
b1101001100011100 4
05
b1100111010111011 9
b1110110111111110 :
#13880
0,
1.
10
15
b1101011101010011 9
b1111000011000000 :
#13920
0-
b1110001100010110 /
00
b1110001100011101 4
05
b1101111000000011 9
b1111001011011010 :
#13960
1"
1#
1%
10
15
b1110001010100101 9
b1111010001001011 :
#14000
1&
b1111001100010111 /
00
b1111001100011110 4
05
b1110010100100001 9
b1111010100001110 :
#14040
0(
10
15
b1110010101101000 9
b1111010100100100 :
#14080
1'
b0 /
00
01
03
b0 4
05
06
08
b1110001101111001 9
b1111010010001100 :
#14120
1!
1$
10
15
b1101111101011110 9
b1111001101000111 :
#14160
1-
00
05
b1101100100101110 9
b1111000101010110 :
#14200
10
15
b1101000100001100 9
b1110111010111110 :
#14240
00
05
b1100011100100110 9
b1110101110000001 :
#14280
0!
0$
0.
10
15
b1011101110110010 9
b1110011110100101 :
#14320
00
05
b1010111011110001 9
b1110001100101111 :
#14360
10
15
b1010000100101010 9
b1101111000100110 :
#14400
0"
0#
0%
0-
b1101101001 /
00
11
13
b1101110000 4
05
16
18
b1001001010101001 9
b1101100010010000 :
#14440
10
15
b1000001111000001 9
b1101001001111000 :
#14480
b1001101101010 /
00
b1001101110001 4
05
b111010011000011 9
b1100101111100101 :
#14520
10
15
b110011000000100 9
b1100010011100010 :
#14560
1"
1#
0&
b10001101101011 /
00
b10001101110010 4
05
b101011111010110 9
b1011110101111000 :
#14600
10
15
b100101010001001 9
b1011010110110011 :
#14640
1-
b11001101101100 /
00
b11001101110011 4
05
b11111001100110 9
b1010110110011110 :
#14680
10
15
b11001110110001 9
b1010010101000110 :
#14720
1!
1$
1.
b100001101101101 /
00
b100001101110100 4
05
b10101010100111 9
b1001110010110110 :
#14760
0'
10
15
b10001101111001 9
b1001001111111100 :
#14800
b101001101101110 /
00
b101001101110101 4
05
b1111001010001 9
b1000101100100100 :
#14840
1(
10
15
b1101101001001 9
b1000001000111011 :
