fixtures/open-core/protocol/ahb_lite/generated/ahb_lite_violations.vcd
$timescale 1ns $end
$scope module tb $end
$var wire 1  !  HCLK $end
$var wire 1  "  HRESETN $end
$var wire 32  #  HADDR $end
$var wire 2  $  HTRANS $end
$var wire 1  %  HWRITE $end
$var wire 3  &  HSIZE $end
$var wire 3  '  HBURST $end
$var wire 32  (  HWDATA $end
$var wire 32  )  HRDATA $end
$var wire 1  *  HREADY $end
$var wire 1  +  HRESP $end
$upscope $end
$enddefinitions $end
$dumpvars
0!
1"
b00000000000000000000000000000000 #
b00 $
0%
b000 &
b000 '
b00000000000000000000000000000000 (
b00000000000000000000000000000000 )
1*
0+
$end
#2
b11 $
b010 &
b00000000000000000000000100000000 #
#5
1!
#10
0!
#12
b00 $
b00000000000000000000000000000000 #
#15
1!
#20
0!
#22
b01 $
#25
1!
#30
0!
#32
b00 $
#35
1!
#40
0!
#42
b10 $
b00000000000000000000000100000001 #
#45
1!
#50
0!
#52
b00 $
b00000000000000000000000000000000 #
#55
1!
#60
0!
#62
b10 $
b011 &
b00000000000000000000000100010000 #
#65
1!
#70
0!
#72
b00 $
b00000000000000000000000000000000 #
b010 &
#75
1!
#80
0!
#82
b10 $
b011 '
b00000000000000000000001000000000 #
#85
1!
#90
0!
#92
b11 $
b101 '
b00000000000000000000001000000100 #
b00010000000000000000000000000000 )
#95
1!
#100
0!
#102
b011 '
b00000000000000000000001100000000 #
b00100000000000000000000000000000 )
#105
1!
#110
0!
#112
b00000000000000000000001100000100 #
b00110000000000000000000000000000 )
#115
1!
#120
0!
#122
b00 $
b00000000000000000000000000000000 #
b01000000000000000000000000000000 )
#125
1!
#130
0!
#132
b10 $
b000 '
1%
b00000000000000000000010100000000 #
#135
1!
#140
0!
#142
b00 $
b00000000000000000000000000000000 #
b11001010111111101011101010111110 (
1+
#145
1!
#150
0!
#152
0+
b00000000000000000000000000000000 (
